\relax 
\citation{Rangwala}
\citation{Gummadi}
\citation{QChen}
\citation{Son}
\citation{Whitehouse}
\citation{Son}
\citation{Son1}
\citation{Maheshwari}
\citation{SLiu}
\citation{Maheshwari}
\citation{Sha}
\@writefile{toc}{\contentsline {section}{\numberline {I}Introduction}{1}}
\citation{Donoho}
\citation{Bajwa}
\citation{Xiaopen}
\@writefile{toc}{\contentsline {section}{\numberline {II}Problem Model}{2}}
\@writefile{toc}{\contentsline {subsection}{\numberline {\unhbox \voidb@x \hbox {II-A}}Network model}{2}}
\@writefile{toc}{\contentsline {subsection}{\numberline {\unhbox \voidb@x \hbox {II-B}}Linear Interference Vector Measurement Model}{2}}
\newlabel{model_0}{{2}{2}}
\citation{SLiu}
\citation{Son}
\citation{Maheshwari2}
\citation{Son}
\@writefile{toc}{\contentsline {section}{\numberline {III}Interference Additivity Experiments}{3}}
\@writefile{toc}{\contentsline {subsection}{\numberline {\unhbox \voidb@x \hbox {III-A}}The Metric of the Experiments}{3}}
\@writefile{toc}{\contentsline {subsection}{\numberline {\unhbox \voidb@x \hbox {III-B}}The Design of the Experiments}{3}}
\@writefile{toc}{\contentsline {subsection}{\numberline {\unhbox \voidb@x \hbox {III-C}}Experiment Results}{3}}
\@writefile{lof}{\contentsline {figure}{\numberline {1}{\ignorespaces Interference Additive Experiment in Single-Hop WSN}}{3}}
\newlabel{experiment}{{1}{3}}
\newlabel{fomula_dbm}{{3}{3}}
\newlabel{I_Value}{{2(a)}{3}}
\newlabel{sub@I_Value}{{(a)}{3}}
\newlabel{I_Sums}{{2(b)}{3}}
\newlabel{sub@I_Sums}{{(b)}{3}}
\@writefile{lof}{\contentsline {figure}{\numberline {2}{\ignorespaces The Hardware Experiment Results}}{3}}
\@writefile{lof}{\contentsline {subfigure}{\numberline{(a)}{\ignorespaces {Interference Value of Single Guest Node}}}{3}}
\@writefile{lof}{\contentsline {subfigure}{\numberline{(b)}{\ignorespaces {CDF of Guest Nodes Interference Values Sum}}}{3}}
\newlabel{experiment_r1}{{2}{3}}
\@writefile{toc}{\contentsline {section}{\numberline {IV}EIM: Efficient Interference vector Measurement}{3}}
\citation{Whitehouse}
\citation{QChen}
\citation{Son}
\@writefile{toc}{\contentsline {subsection}{\numberline {\unhbox \voidb@x \hbox {IV-A}}Overview of EIM}{4}}
\@writefile{toc}{\contentsline {subsection}{\numberline {\unhbox \voidb@x \hbox {IV-B}}TLM Association by Independent Observation Vector}{4}}
\@writefile{toc}{\contentsline {subsubsection}{\numberline {\unhbox \voidb@x \hbox {IV-B}1}\textbf  {Capture Effect}}{4}}
\@writefile{lof}{\contentsline {figure}{\numberline {3}{\ignorespaces Working Flow Overview of EIM}}{4}}
\newlabel{eim}{{3}{4}}
\@writefile{toc}{\contentsline {subsubsection}{\numberline {\unhbox \voidb@x \hbox {IV-B}2}\textbf  {Not-collided Observation Event (NOE)}}{4}}
\@writefile{toc}{\contentsline {subsubsection}{\numberline {\unhbox \voidb@x \hbox {IV-B}3}\textbf  {Partially TLM filling}}{4}}
\@writefile{toc}{\contentsline {subsubsection}{\numberline {\unhbox \voidb@x \hbox {IV-B}4}\textbf  {Independent Observation Vectors}(IOV)}{4}}
\newlabel{lemmas1}{{1}{4}}
\citation{Tropp}
\citation{Donoho}
\citation{Donoho}
\@writefile{toc}{\contentsline {subsection}{\numberline {\unhbox \voidb@x \hbox {IV-C}}TLM Association}{5}}
\@writefile{toc}{\contentsline {subsubsection}{\numberline {\unhbox \voidb@x \hbox {IV-C}1}Collect transmission log based on network protocols}{5}}
\@writefile{toc}{\contentsline {subsubsection}{\numberline {\unhbox \voidb@x \hbox {IV-C}2}TLM Construction using both NOE and COE}{5}}
\@writefile{lof}{\contentsline {figure}{\numberline {4}{\ignorespaces Construct Transmission Log Matrix via Work Logs}}{5}}
\newlabel{transmission_log}{{4}{5}}
\@writefile{toc}{\contentsline {section}{\numberline {V}Interference Vector Recovering Scheme}{5}}
\@writefile{toc}{\contentsline {subsection}{\numberline {\unhbox \voidb@x \hbox {V-A}}LSQ for Solving Linear Equations}{5}}
\@writefile{toc}{\contentsline {subsection}{\numberline {\unhbox \voidb@x \hbox {V-B}}Recover the Interference Vector via Compressive Sensing}{5}}
\citation{Syed}
\citation{Xiaopen}
\citation{Tropp}
\citation{Rappapport}
\citation{radio_attenuation}
\newlabel{model_1}{{5}{6}}
\@writefile{toc}{\contentsline {section}{\numberline {VI}SIMULATION RESULTS}{6}}
\@writefile{toc}{\contentsline {subsection}{\numberline {\unhbox \voidb@x \hbox {VI-A}}The Configuration of the Simulation}{6}}
\@writefile{loa}{\contentsline {algorithm}{\numberline {1}{\ignorespaces Recover the Interference Vector via OMP}}{6}}
\newlabel{alg1}{{1}{6}}
\citation{Zhao}
\citation{Gummadi}
\citation{Rangwala}
\citation{Kashyap}
\citation{Ahmed}
\citation{Kashyap}
\citation{Zuniga}
\citation{Maheshwari}
\citation{Son}
\citation{Maheshwari}
\citation{Sha}
\citation{SLiu}
\citation{Huang}
\citation{Mahajan}
\citation{Qiu}
\citation{Reis}
\citation{Ahmed2}
\citation{Cai}
\newlabel{deployment_nodes}{{5(a)}{7}}
\newlabel{sub@deployment_nodes}{{(a)}{7}}
\newlabel{deployment_interference}{{5(b)}{7}}
\newlabel{sub@deployment_interference}{{(b)}{7}}
\@writefile{lof}{\contentsline {figure}{\numberline {5}{\ignorespaces The Sensor Deployment and the Interference}}{7}}
\@writefile{lof}{\contentsline {subfigure}{\numberline{(a)}{\ignorespaces {The Deployment of the Sensor Nodes}}}{7}}
\@writefile{lof}{\contentsline {subfigure}{\numberline{(b)}{\ignorespaces {The Interference to the Host Node}}}{7}}
\newlabel{nodes_interference}{{5}{7}}
\@writefile{toc}{\contentsline {subsection}{\numberline {\unhbox \voidb@x \hbox {VI-B}}Latency of TLM Construction}{7}}
\newlabel{aloha_cdf}{{6(a)}{7}}
\newlabel{sub@aloha_cdf}{{(a)}{7}}
\newlabel{schedule_cdf}{{6(b)}{7}}
\newlabel{sub@schedule_cdf}{{(b)}{7}}
\@writefile{lof}{\contentsline {figure}{\numberline {6}{\ignorespaces The Latency for Different Ratio with Fixed MAC}}{7}}
\@writefile{lof}{\contentsline {subfigure}{\numberline{(a)}{\ignorespaces {The CDF of Latency for Different Ratio}}}{7}}
\@writefile{lof}{\contentsline {subfigure}{\numberline{(b)}{\ignorespaces {The CDF of Latency for Different MAC Protocols}}}{7}}
\newlabel{aloha_ratio}{{6}{7}}
\@writefile{toc}{\contentsline {subsection}{\numberline {\unhbox \voidb@x \hbox {VI-C}}The Recovery Accuracy via Compressive Sensing}{7}}
\newlabel{dct}{{7(a)}{7}}
\newlabel{sub@dct}{{(a)}{7}}
\newlabel{dbm}{{7(b)}{7}}
\newlabel{sub@dbm}{{(b)}{7}}
\@writefile{lof}{\contentsline {figure}{\numberline {7}{\ignorespaces Recover Interference Vector via Compressive Sensing}}{7}}
\@writefile{lof}{\contentsline {subfigure}{\numberline{(a)}{\ignorespaces {Discrete Cosine Transform Basis}}}{7}}
\@writefile{lof}{\contentsline {subfigure}{\numberline{(b)}{\ignorespaces {Difference Basis Matrix}}}{7}}
\newlabel{MR}{{7}{7}}
\@writefile{toc}{\contentsline {section}{\numberline {VII}RELATED WORK}{7}}
\citation{Goussevskaia}
\citation{Sha}
\bibcite{SLiu}{1}
\bibcite{Gupta}{2}
\bibcite{Whitehouse}{3}
\bibcite{QChen}{4}
\bibcite{Son}{5}
\bibcite{Son1}{6}
\bibcite{Gummadi}{7}
\bibcite{Zhao}{8}
\bibcite{Maheshwari}{9}
\bibcite{Maheshwari2}{10}
\bibcite{Huang}{11}
\bibcite{Rangwala}{12}
\bibcite{Sha}{13}
\bibcite{Kashyap}{14}
\bibcite{Ahmed}{15}
\bibcite{Zuniga}{16}
\bibcite{Mahajan}{17}
\bibcite{Qiu}{18}
\bibcite{Reis}{19}
\bibcite{Cai}{20}
\bibcite{Ahmed2}{21}
\bibcite{Goussevskaia}{22}
\bibcite{Kochut}{23}
\bibcite{Donoho}{24}
\bibcite{Bajwa}{25}
\bibcite{Syed}{26}
\bibcite{Xiaopen}{27}
\bibcite{Tropp}{28}
\bibcite{Rappapport}{29}
\bibcite{radio_attenuation}{30}
\@writefile{toc}{\contentsline {section}{\numberline {VIII}Conclusion and Future Works}{8}}
\@writefile{toc}{\contentsline {section}{References}{8}}
