%!PS-Adobe-3.0 EPSF-3.0
%%Creator: MATLAB, The Mathworks, Inc. Version 7.5.0.342 (R2007b). Operating System: Microsoft Windows Vista.
%%Title: I:\Interference Measurement\paper draft\modifying\figures\I_Sums.eps
%%CreationDate: 01/08/2013  23:36:34
%%DocumentNeededFonts: Helvetica
%%DocumentProcessColors: Cyan Magenta Yellow Black
%%LanguageLevel: 2
%%Pages: 1
%%BoundingBox:    96   238   515   553
%%EndComments

%%BeginProlog
% MathWorks dictionary
/MathWorks 160 dict begin
% definition operators
/bdef {bind def} bind def
/ldef {load def} bind def
/xdef {exch def} bdef
/xstore {exch store} bdef
% operator abbreviations
/c  /clip ldef
/cc /concat ldef
/cp /closepath ldef
/gr /grestore ldef
/gs /gsave ldef
/mt /moveto ldef
/np /newpath ldef
/cm /currentmatrix ldef
/sm /setmatrix ldef
/rm /rmoveto ldef
/rl /rlineto ldef
/s {show newpath} bdef
/sc {setcmykcolor} bdef
/sr /setrgbcolor ldef
/sg /setgray ldef
/w /setlinewidth ldef
/j /setlinejoin ldef
/cap /setlinecap ldef
/rc {rectclip} bdef
/rf {rectfill} bdef
% page state control
/pgsv () def
/bpage {/pgsv save def} bdef
/epage {pgsv restore} bdef
/bplot /gsave ldef
/eplot {stroke grestore} bdef
% orientation switch
/portraitMode 0 def /landscapeMode 1 def /rotateMode 2 def
% coordinate system mappings
/dpi2point 0 def
% font control
/FontSize 0 def
/FMS {/FontSize xstore findfont [FontSize 0 0 FontSize neg 0 0]
  makefont setfont} bdef
/ISOLatin1Encoding where {pop /WindowsLatin1Encoding 256 array bdef
ISOLatin1Encoding WindowsLatin1Encoding copy pop
/.notdef/.notdef/quotesinglbase/florin/quotedblbase/ellipsis/dagger
/daggerdbl/circumflex/perthousand/Scaron/guilsinglleft/OE/.notdef/.notdef
/.notdef/.notdef/quoteleft/quoteright/quotedblleft/quotedblright/bullet
/endash/emdash/tilde/trademark/scaron/guilsinglright/oe/.notdef/.notdef
/Ydieresis WindowsLatin1Encoding 128 32 getinterval astore pop}
{/WindowsLatin1Encoding StandardEncoding bdef} ifelse
/reencode {exch dup where {pop load} {pop StandardEncoding} ifelse
  exch dup 3 1 roll findfont dup length dict begin
  { 1 index /FID ne {def}{pop pop} ifelse } forall
  /Encoding exch def currentdict end definefont pop} bdef
/isroman {findfont /CharStrings get /Agrave known} bdef
/FMSR {3 1 roll 1 index dup isroman {reencode} {pop pop} ifelse
  exch FMS} bdef
/csm {1 dpi2point div -1 dpi2point div scale neg translate
 dup landscapeMode eq {pop -90 rotate}
  {rotateMode eq {90 rotate} if} ifelse} bdef
% line types: solid, dotted, dashed, dotdash
/SO { [] 0 setdash } bdef
/DO { [.5 dpi2point mul 4 dpi2point mul] 0 setdash } bdef
/DA { [6 dpi2point mul] 0 setdash } bdef
/DD { [.5 dpi2point mul 4 dpi2point mul 6 dpi2point mul 4
  dpi2point mul] 0 setdash } bdef
% macros for lines and objects
/L {lineto stroke} bdef
/MP {3 1 roll moveto 1 sub {rlineto} repeat} bdef
/AP {{rlineto} repeat} bdef
/PDlw -1 def
/W {/PDlw currentlinewidth def setlinewidth} def
/PP {closepath eofill} bdef
/DP {closepath stroke} bdef
/MR {4 -2 roll moveto dup  0 exch rlineto exch 0 rlineto
  neg 0 exch rlineto closepath} bdef
/FR {MR stroke} bdef
/PR {MR fill} bdef
/L1i {{currentfile picstr readhexstring pop} image} bdef
/tMatrix matrix def
/MakeOval {newpath tMatrix currentmatrix pop translate scale
0 0 1 0 360 arc tMatrix setmatrix} bdef
/FO {MakeOval stroke} bdef
/PO {MakeOval fill} bdef
/PD {currentlinewidth 2 div 0 360 arc fill
   PDlw -1 eq not {PDlw w /PDlw -1 def} if} def
/FA {newpath tMatrix currentmatrix pop translate scale
  0 0 1 5 -2 roll arc tMatrix setmatrix stroke} bdef
/PA {newpath tMatrix currentmatrix pop	translate 0 0 moveto scale
  0 0 1 5 -2 roll arc closepath tMatrix setmatrix fill} bdef
/FAn {newpath tMatrix currentmatrix pop translate scale
  0 0 1 5 -2 roll arcn tMatrix setmatrix stroke} bdef
/PAn {newpath tMatrix currentmatrix pop translate 0 0 moveto scale
  0 0 1 5 -2 roll arcn closepath tMatrix setmatrix fill} bdef
/vradius 0 def /hradius 0 def /lry 0 def
/lrx 0 def /uly 0 def /ulx 0 def /rad 0 def
/MRR {/vradius xdef /hradius xdef /lry xdef /lrx xdef /uly xdef
  /ulx xdef newpath tMatrix currentmatrix pop ulx hradius add uly
  vradius add translate hradius vradius scale 0 0 1 180 270 arc 
  tMatrix setmatrix lrx hradius sub uly vradius add translate
  hradius vradius scale 0 0 1 270 360 arc tMatrix setmatrix
  lrx hradius sub lry vradius sub translate hradius vradius scale
  0 0 1 0 90 arc tMatrix setmatrix ulx hradius add lry vradius sub
  translate hradius vradius scale 0 0 1 90 180 arc tMatrix setmatrix
  closepath} bdef
/FRR {MRR stroke } bdef
/PRR {MRR fill } bdef
/MlrRR {/lry xdef /lrx xdef /uly xdef /ulx xdef /rad lry uly sub 2 div def
  newpath tMatrix currentmatrix pop ulx rad add uly rad add translate
  rad rad scale 0 0 1 90 270 arc tMatrix setmatrix lrx rad sub lry rad
  sub translate rad rad scale 0 0 1 270 90 arc tMatrix setmatrix
  closepath} bdef
/FlrRR {MlrRR stroke } bdef
/PlrRR {MlrRR fill } bdef
/MtbRR {/lry xdef /lrx xdef /uly xdef /ulx xdef /rad lrx ulx sub 2 div def
  newpath tMatrix currentmatrix pop ulx rad add uly rad add translate
  rad rad scale 0 0 1 180 360 arc tMatrix setmatrix lrx rad sub lry rad
  sub translate rad rad scale 0 0 1 0 180 arc tMatrix setmatrix
  closepath} bdef
/FtbRR {MtbRR stroke } bdef
/PtbRR {MtbRR fill } bdef
/stri 6 array def /dtri 6 array def
/smat 6 array def /dmat 6 array def
/tmat1 6 array def /tmat2 6 array def /dif 3 array def
/asub {/ind2 exch def /ind1 exch def dup dup
  ind1 get exch ind2 get sub exch } bdef
/tri_to_matrix {
  2 0 asub 3 1 asub 4 0 asub 5 1 asub
  dup 0 get exch 1 get 7 -1 roll astore } bdef
/compute_transform {
  dmat dtri tri_to_matrix tmat1 invertmatrix 
  smat stri tri_to_matrix tmat2 concatmatrix } bdef
/ds {stri astore pop} bdef
/dt {dtri astore pop} bdef
/db {2 copy /cols xdef /rows xdef mul dup 3 mul string
  currentfile 
  3 index 0 eq {/ASCIIHexDecode filter}
  {/ASCII85Decode filter 3 index 2 eq {/RunLengthDecode filter} if }
  ifelse exch readstring pop
  dup 0 3 index getinterval /rbmap xdef
  dup 2 index dup getinterval /gbmap xdef
  1 index dup 2 mul exch getinterval /bbmap xdef pop pop}bdef
/it {gs np dtri aload pop moveto lineto lineto cp c
  cols rows 8 compute_transform 
  rbmap gbmap bbmap true 3 colorimage gr}bdef
/il {newpath moveto lineto stroke}bdef
currentdict end def
%%EndProlog

%%BeginSetup
MathWorks begin

0 cap

end
%%EndSetup

%%Page: 1 1
%%BeginPageSetup
%%PageBoundingBox:    96   238   515   553
MathWorks begin
bpage
%%EndPageSetup

%%BeginObject: obj1
bplot

/dpi2point 12 def
portraitMode 1152 6636 csm

    0     0  5039  3780 rc
85 dict begin %Colortable dictionary
/c0 { 0.000000 0.000000 0.000000 sr} bdef
/c1 { 1.000000 1.000000 1.000000 sr} bdef
/c2 { 0.900000 0.000000 0.000000 sr} bdef
/c3 { 0.000000 0.820000 0.000000 sr} bdef
/c4 { 0.000000 0.000000 0.800000 sr} bdef
/c5 { 0.910000 0.820000 0.320000 sr} bdef
/c6 { 1.000000 0.260000 0.820000 sr} bdef
/c7 { 0.000000 0.820000 0.820000 sr} bdef
c0
1 j
1 sg
   0    0 5040 3781 rf
6 w
0 3031 3905 0 0 -3031 655 3314 4 MP
PP
-3905 0 0 3031 3905 0 0 -3031 655 3314 5 MP stroke
4 w
DO
SO
6 w
0 sg
 655  283 mt 4560  283 L
 655 3314 mt 4560 3314 L
4560 3314 mt 4560  283 L
 655 3314 mt  655  283 L
 655 3314 mt 4560 3314 L
 655 3314 mt  655  283 L
 655 3314 mt  655 3274 L
 655  283 mt  655  322 L
%%IncludeResource: font Helvetica
/Helvetica /WindowsLatin1Encoding 156 FMSR

 569 3493 mt 
(23) s
 980 3314 mt  980 3274 L
 980  283 mt  980  322 L
 894 3493 mt 
(24) s
1305 3314 mt 1305 3274 L
1305  283 mt 1305  322 L
1219 3493 mt 
(25) s
1631 3314 mt 1631 3274 L
1631  283 mt 1631  322 L
1545 3493 mt 
(26) s
1956 3314 mt 1956 3274 L
1956  283 mt 1956  322 L
1870 3493 mt 
(27) s
2282 3314 mt 2282 3274 L
2282  283 mt 2282  322 L
2196 3493 mt 
(28) s
2607 3314 mt 2607 3274 L
2607  283 mt 2607  322 L
2521 3493 mt 
(29) s
2932 3314 mt 2932 3274 L
2932  283 mt 2932  322 L
2846 3493 mt 
(30) s
3258 3314 mt 3258 3274 L
3258  283 mt 3258  322 L
3172 3493 mt 
(31) s
3583 3314 mt 3583 3274 L
3583  283 mt 3583  322 L
3497 3493 mt 
(32) s
3909 3314 mt 3909 3274 L
3909  283 mt 3909  322 L
3823 3493 mt 
(33) s
4234 3314 mt 4234 3274 L
4234  283 mt 4234  322 L
4148 3493 mt 
(34) s
4560 3314 mt 4560 3274 L
4560  283 mt 4560  322 L
4474 3493 mt 
(35) s
 655 3314 mt  694 3314 L
4560 3314 mt 4520 3314 L
 534 3372 mt 
(0) s
 655 3010 mt  694 3010 L
4560 3010 mt 4520 3010 L
 447 3068 mt 
(10) s
 655 2707 mt  694 2707 L
4560 2707 mt 4520 2707 L
 447 2765 mt 
(20) s
 655 2404 mt  694 2404 L
4560 2404 mt 4520 2404 L
 447 2462 mt 
(30) s
 655 2101 mt  694 2101 L
4560 2101 mt 4520 2101 L
 447 2159 mt 
(40) s
 655 1798 mt  694 1798 L
4560 1798 mt 4520 1798 L
 447 1856 mt 
(50) s
 655 1495 mt  694 1495 L
4560 1495 mt 4520 1495 L
 447 1553 mt 
(60) s
 655 1192 mt  694 1192 L
4560 1192 mt 4520 1192 L
 447 1250 mt 
(70) s
 655  889 mt  694  889 L
4560  889 mt 4520  889 L
 447  947 mt 
(80) s
 655  586 mt  694  586 L
4560  586 mt 4520  586 L
 447  644 mt 
(90) s
 655  283 mt  694  283 L
4560  283 mt 4520  283 L
 360  341 mt 
(100) s
 655  283 mt 4560  283 L
 655 3314 mt 4560 3314 L
4560 3314 mt 4560  283 L
 655 3314 mt  655  283 L
gs 655 283 3906 3032 rc
/c8 { 0.000000 0.000000 1.000000 sr} bdef
c8
326 0 325 0 326 0 325 0 326 0 325 0 325 -30 326 -606 
325 -1258 326 -833 325 -228 325 -76 655 3314 13 MP stroke
gr

c8
 619 3314 mt  691 3314 L
 655 3278 mt  655 3350 L
 944 3238 mt 1016 3238 L
 980 3202 mt  980 3274 L
1269 3010 mt 1341 3010 L
1305 2974 mt 1305 3046 L
1595 2177 mt 1667 2177 L
1631 2141 mt 1631 2213 L
1920  919 mt 1992  919 L
1956  883 mt 1956  955 L
2246  313 mt 2318  313 L
2282  277 mt 2282  349 L
2571  283 mt 2643  283 L
2607  247 mt 2607  319 L
2896  283 mt 2968  283 L
2932  247 mt 2932  319 L
3222  283 mt 3294  283 L
3258  247 mt 3258  319 L
3547  283 mt 3619  283 L
3583  247 mt 3583  319 L
3873  283 mt 3945  283 L
3909  247 mt 3909  319 L
4198  283 mt 4270  283 L
4234  247 mt 4234  319 L
4524  283 mt 4596  283 L
4560  247 mt 4560  319 L
 630 3289 mt  680 3339 L
 680 3289 mt  630 3339 L
 955 3213 mt 1005 3263 L
1005 3213 mt  955 3263 L
1280 2985 mt 1330 3035 L
1330 2985 mt 1280 3035 L
1606 2152 mt 1656 2202 L
1656 2152 mt 1606 2202 L
1931  894 mt 1981  944 L
1981  894 mt 1931  944 L
2257  288 mt 2307  338 L
2307  288 mt 2257  338 L
2582  258 mt 2632  308 L
2632  258 mt 2582  308 L
2907  258 mt 2957  308 L
2957  258 mt 2907  308 L
3233  258 mt 3283  308 L
3283  258 mt 3233  308 L
3558  258 mt 3608  308 L
3608  258 mt 3558  308 L
3884  258 mt 3934  308 L
3934  258 mt 3884  308 L
4209  258 mt 4259  308 L
4259  258 mt 4209  308 L
4535  258 mt 4585  308 L
4585  258 mt 4535  308 L
gs 655 283 3906 3032 rc
/c9 { 0.000000 0.500000 0.000000 sr} bdef
c9
326 0 325 0 326 0 325 0 326 -45 325 -667 325 -1152 326 -651 
325 -273 326 -182 325 -45 325 -16 655 3314 13 MP stroke
gr

c9
0 j
-41 71 -41 -71 82 0 614 3338 4 MP
DP
-41 71 -41 -71 82 0 939 3322 4 MP
DP
-41 71 -41 -71 82 0 1264 3277 4 MP
DP
-41 71 -41 -71 82 0 1590 3095 4 MP
DP
-41 71 -41 -71 82 0 1915 2822 4 MP
DP
-41 71 -41 -71 82 0 2241 2171 4 MP
DP
-41 71 -41 -71 82 0 2566 1019 4 MP
DP
-41 71 -41 -71 82 0 2891 352 4 MP
DP
-41 71 -41 -71 82 0 3217 307 4 MP
DP
-41 71 -41 -71 82 0 3542 307 4 MP
DP
-41 71 -41 -71 82 0 3868 307 4 MP
DP
-41 71 -41 -71 82 0 4193 307 4 MP
DP
-41 71 -41 -71 82 0 4519 307 4 MP
DP
gs 655 283 3906 3032 rc
/c10 { 1.000000 0.000000 0.000000 sr} bdef
c10
326 0 325 0 326 -15 325 -303 326 -1015 325 -895 325 -303 326 -227 
325 -106 326 -46 325 -45 325 -46 655 3314 13 MP stroke
gr

c10
  36   36  655 3314 FO
  36   36  980 3268 FO
  36   36 1305 3223 FO
  36   36 1631 3177 FO
  36   36 1956 3071 FO
  36   36 2282 2844 FO
  36   36 2607 2541 FO
  36   36 2932 1646 FO
  36   36 3258  631 FO
  36   36 3583  328 FO
  36   36 3909  313 FO
  36   36 4234  313 FO
  36   36 4560  313 FO
gs 655 283 3906 3032 rc
/c11 { 0.000000 0.750000 0.750000 sr} bdef
c11
326 0 325 -45 326 -197 325 -849 326 -985 325 -424 325 -167 326 -76 
325 -75 326 -61 325 -76 325 -61 655 3314 13 MP stroke
gr

c11
0 -58 -58 0 0 58 58 0 626 3285 5 MP
DP
0 -58 -58 0 0 58 58 0 951 3224 5 MP
DP
0 -58 -58 0 0 58 58 0 1276 3148 5 MP
DP
0 -58 -58 0 0 58 58 0 1602 3087 5 MP
DP
0 -58 -58 0 0 58 58 0 1927 3012 5 MP
DP
0 -58 -58 0 0 58 58 0 2253 2936 5 MP
DP
0 -58 -58 0 0 58 58 0 2578 2769 5 MP
DP
0 -58 -58 0 0 58 58 0 2903 2345 5 MP
DP
0 -58 -58 0 0 58 58 0 3229 1360 5 MP
DP
0 -58 -58 0 0 58 58 0 3554 511 5 MP
DP
0 -58 -58 0 0 58 58 0 3880 314 5 MP
DP
0 -58 -58 0 0 58 58 0 4205 269 5 MP
DP
0 -58 -58 0 0 58 58 0 4531 269 5 MP
DP
gs 655 283 3906 3032 rc
gr

0 sg
%%IncludeResource: font Helvetica
/Helvetica /WindowsLatin1Encoding 240 FMSR

2114 3724 mt 
(ED Value) s
 251 2593 mt  -90 rotate
(Percentage\(%\)) s
90 rotate
%%IncludeResource: font Helvetica
/Helvetica /WindowsLatin1Encoding 120 FMSR

 638 3357 mt 
( ) s
4544  325 mt 
( ) s
1 sg
0 894 1692 0 0 -894 2840 3249 4 MP
PP
-1692 0 0 894 1692 0 0 -894 2840 3249 5 MP stroke
4 w
DO
SO
6 w
0 sg
2840 2355 mt 4532 2355 L
2840 3249 mt 4532 3249 L
4532 3249 mt 4532 2355 L
2840 3249 mt 2840 2355 L
2840 3249 mt 4532 3249 L
2840 3249 mt 2840 2355 L
2840 2355 mt 4532 2355 L
2840 3249 mt 4532 3249 L
4532 3249 mt 4532 2355 L
2840 3249 mt 2840 2355 L
%%IncludeResource: font Helvetica
/Helvetica /WindowsLatin1Encoding 156 FMSR

3308 2538 mt 
(2 Guest Nodes) s
gs 2840 2355 1693 895 rc
c8
360 0 2912 2482 2 MP stroke
gr

c8
3056 2482 mt 3128 2482 L
3092 2446 mt 3092 2518 L
3067 2457 mt 3117 2507 L
3117 2457 mt 3067 2507 L
gs 2840 2355 1693 895 rc
gr

0 sg
3308 2751 mt 
(4 Guest Nodes) s
gs 2840 2355 1693 895 rc
c9
360 0 2912 2695 2 MP stroke
gr

c9
-41 71 -41 -71 82 0 3051 2719 4 MP
DP
gs 2840 2355 1693 895 rc
gr

0 sg
3308 2964 mt 
(8 Guest Nodes) s
gs 2840 2355 1693 895 rc
c10
360 0 2912 2908 2 MP stroke
gr

c10
  36   36 3092 2908 FO
gs 2840 2355 1693 895 rc
gr

0 sg
3308 3177 mt 
(16 Guest Nodes) s
gs 2840 2355 1693 895 rc
c11
360 0 2912 3121 2 MP stroke
gr

c11
0 -58 -58 0 0 58 58 0 3063 3092 5 MP
DP
gs 2840 2355 1693 895 rc
gr


end %%Color Dict

eplot
%%EndObject

epage
end

showpage

%%Trailer
%%EOF
