%!PS-Adobe-3.0 EPSF-3.0
%%Creator: MATLAB, The Mathworks, Inc. Version 7.5.0.342 (R2007b). Operating System: Microsoft Windows XP.
%%Title: H:\Research\Papers\Interference\paper\script1.2\I_Values.eps
%%CreationDate: 07/06/2012  16:09:32
%%DocumentNeededFonts: Helvetica
%%DocumentProcessColors: Cyan Magenta Yellow Black
%%LanguageLevel: 2
%%Pages: 1
%%BoundingBox:    87   262   507   578
%%EndComments

%%BeginProlog
% MathWorks dictionary
/MathWorks 160 dict begin
% definition operators
/bdef {bind def} bind def
/ldef {load def} bind def
/xdef {exch def} bdef
/xstore {exch store} bdef
% operator abbreviations
/c  /clip ldef
/cc /concat ldef
/cp /closepath ldef
/gr /grestore ldef
/gs /gsave ldef
/mt /moveto ldef
/np /newpath ldef
/cm /currentmatrix ldef
/sm /setmatrix ldef
/rm /rmoveto ldef
/rl /rlineto ldef
/s {show newpath} bdef
/sc {setcmykcolor} bdef
/sr /setrgbcolor ldef
/sg /setgray ldef
/w /setlinewidth ldef
/j /setlinejoin ldef
/cap /setlinecap ldef
/rc {rectclip} bdef
/rf {rectfill} bdef
% page state control
/pgsv () def
/bpage {/pgsv save def} bdef
/epage {pgsv restore} bdef
/bplot /gsave ldef
/eplot {stroke grestore} bdef
% orientation switch
/portraitMode 0 def /landscapeMode 1 def /rotateMode 2 def
% coordinate system mappings
/dpi2point 0 def
% font control
/FontSize 0 def
/FMS {/FontSize xstore findfont [FontSize 0 0 FontSize neg 0 0]
  makefont setfont} bdef
/ISOLatin1Encoding where {pop /WindowsLatin1Encoding 256 array bdef
ISOLatin1Encoding WindowsLatin1Encoding copy pop
/.notdef/.notdef/quotesinglbase/florin/quotedblbase/ellipsis/dagger
/daggerdbl/circumflex/perthousand/Scaron/guilsinglleft/OE/.notdef/.notdef
/.notdef/.notdef/quoteleft/quoteright/quotedblleft/quotedblright/bullet
/endash/emdash/tilde/trademark/scaron/guilsinglright/oe/.notdef/.notdef
/Ydieresis WindowsLatin1Encoding 128 32 getinterval astore pop}
{/WindowsLatin1Encoding StandardEncoding bdef} ifelse
/reencode {exch dup where {pop load} {pop StandardEncoding} ifelse
  exch dup 3 1 roll findfont dup length dict begin
  { 1 index /FID ne {def}{pop pop} ifelse } forall
  /Encoding exch def currentdict end definefont pop} bdef
/isroman {findfont /CharStrings get /Agrave known} bdef
/FMSR {3 1 roll 1 index dup isroman {reencode} {pop pop} ifelse
  exch FMS} bdef
/csm {1 dpi2point div -1 dpi2point div scale neg translate
 dup landscapeMode eq {pop -90 rotate}
  {rotateMode eq {90 rotate} if} ifelse} bdef
% line types: solid, dotted, dashed, dotdash
/SO { [] 0 setdash } bdef
/DO { [.5 dpi2point mul 4 dpi2point mul] 0 setdash } bdef
/DA { [6 dpi2point mul] 0 setdash } bdef
/DD { [.5 dpi2point mul 4 dpi2point mul 6 dpi2point mul 4
  dpi2point mul] 0 setdash } bdef
% macros for lines and objects
/L {lineto stroke} bdef
/MP {3 1 roll moveto 1 sub {rlineto} repeat} bdef
/AP {{rlineto} repeat} bdef
/PDlw -1 def
/W {/PDlw currentlinewidth def setlinewidth} def
/PP {closepath eofill} bdef
/DP {closepath stroke} bdef
/MR {4 -2 roll moveto dup  0 exch rlineto exch 0 rlineto
  neg 0 exch rlineto closepath} bdef
/FR {MR stroke} bdef
/PR {MR fill} bdef
/L1i {{currentfile picstr readhexstring pop} image} bdef
/tMatrix matrix def
/MakeOval {newpath tMatrix currentmatrix pop translate scale
0 0 1 0 360 arc tMatrix setmatrix} bdef
/FO {MakeOval stroke} bdef
/PO {MakeOval fill} bdef
/PD {currentlinewidth 2 div 0 360 arc fill
   PDlw -1 eq not {PDlw w /PDlw -1 def} if} def
/FA {newpath tMatrix currentmatrix pop translate scale
  0 0 1 5 -2 roll arc tMatrix setmatrix stroke} bdef
/PA {newpath tMatrix currentmatrix pop	translate 0 0 moveto scale
  0 0 1 5 -2 roll arc closepath tMatrix setmatrix fill} bdef
/FAn {newpath tMatrix currentmatrix pop translate scale
  0 0 1 5 -2 roll arcn tMatrix setmatrix stroke} bdef
/PAn {newpath tMatrix currentmatrix pop translate 0 0 moveto scale
  0 0 1 5 -2 roll arcn closepath tMatrix setmatrix fill} bdef
/vradius 0 def /hradius 0 def /lry 0 def
/lrx 0 def /uly 0 def /ulx 0 def /rad 0 def
/MRR {/vradius xdef /hradius xdef /lry xdef /lrx xdef /uly xdef
  /ulx xdef newpath tMatrix currentmatrix pop ulx hradius add uly
  vradius add translate hradius vradius scale 0 0 1 180 270 arc 
  tMatrix setmatrix lrx hradius sub uly vradius add translate
  hradius vradius scale 0 0 1 270 360 arc tMatrix setmatrix
  lrx hradius sub lry vradius sub translate hradius vradius scale
  0 0 1 0 90 arc tMatrix setmatrix ulx hradius add lry vradius sub
  translate hradius vradius scale 0 0 1 90 180 arc tMatrix setmatrix
  closepath} bdef
/FRR {MRR stroke } bdef
/PRR {MRR fill } bdef
/MlrRR {/lry xdef /lrx xdef /uly xdef /ulx xdef /rad lry uly sub 2 div def
  newpath tMatrix currentmatrix pop ulx rad add uly rad add translate
  rad rad scale 0 0 1 90 270 arc tMatrix setmatrix lrx rad sub lry rad
  sub translate rad rad scale 0 0 1 270 90 arc tMatrix setmatrix
  closepath} bdef
/FlrRR {MlrRR stroke } bdef
/PlrRR {MlrRR fill } bdef
/MtbRR {/lry xdef /lrx xdef /uly xdef /ulx xdef /rad lrx ulx sub 2 div def
  newpath tMatrix currentmatrix pop ulx rad add uly rad add translate
  rad rad scale 0 0 1 180 360 arc tMatrix setmatrix lrx rad sub lry rad
  sub translate rad rad scale 0 0 1 0 180 arc tMatrix setmatrix
  closepath} bdef
/FtbRR {MtbRR stroke } bdef
/PtbRR {MtbRR fill } bdef
/stri 6 array def /dtri 6 array def
/smat 6 array def /dmat 6 array def
/tmat1 6 array def /tmat2 6 array def /dif 3 array def
/asub {/ind2 exch def /ind1 exch def dup dup
  ind1 get exch ind2 get sub exch } bdef
/tri_to_matrix {
  2 0 asub 3 1 asub 4 0 asub 5 1 asub
  dup 0 get exch 1 get 7 -1 roll astore } bdef
/compute_transform {
  dmat dtri tri_to_matrix tmat1 invertmatrix 
  smat stri tri_to_matrix tmat2 concatmatrix } bdef
/ds {stri astore pop} bdef
/dt {dtri astore pop} bdef
/db {2 copy /cols xdef /rows xdef mul dup 3 mul string
  currentfile 
  3 index 0 eq {/ASCIIHexDecode filter}
  {/ASCII85Decode filter 3 index 2 eq {/RunLengthDecode filter} if }
  ifelse exch readstring pop
  dup 0 3 index getinterval /rbmap xdef
  dup 2 index dup getinterval /gbmap xdef
  1 index dup 2 mul exch getinterval /bbmap xdef pop pop}bdef
/it {gs np dtri aload pop moveto lineto lineto cp c
  cols rows 8 compute_transform 
  rbmap gbmap bbmap true 3 colorimage gr}bdef
/il {newpath moveto lineto stroke}bdef
currentdict end def
%%EndProlog

%%BeginSetup
MathWorks begin

0 cap

end
%%EndSetup

%%Page: 1 1
%%BeginPageSetup
%%PageBoundingBox:    87   262   507   578
MathWorks begin
bpage
%%EndPageSetup

%%BeginObject: obj1
bplot

/dpi2point 12 def
portraitMode 1044 6936 csm

    0     0  5045  3782 rc
85 dict begin %Colortable dictionary
/c0 { 0.000000 0.000000 0.000000 sr} bdef
/c1 { 1.000000 1.000000 1.000000 sr} bdef
/c2 { 0.900000 0.000000 0.000000 sr} bdef
/c3 { 0.000000 0.820000 0.000000 sr} bdef
/c4 { 0.000000 0.000000 0.800000 sr} bdef
/c5 { 0.910000 0.820000 0.320000 sr} bdef
/c6 { 1.000000 0.260000 0.820000 sr} bdef
/c7 { 0.000000 0.820000 0.820000 sr} bdef
c0
1 j
1 sg
   0    0 5046 3783 rf
6 w
0 3032 3910 0 0 -3032 656 3316 4 MP
PP
-3910 0 0 3032 3910 0 0 -3032 656 3316 5 MP stroke
4 w
DO
SO
6 w
0 sg
 656  284 mt 4566  284 L
 656 3316 mt 4566 3316 L
4566 3316 mt 4566  284 L
 656 3316 mt  656  284 L
 656 3316 mt 4566 3316 L
 656 3316 mt  656  284 L
 886 3316 mt  886 3276 L
 886  284 mt  886  323 L
%%IncludeResource: font Helvetica
/Helvetica /WindowsLatin1Encoding 156 FMSR

 843 3495 mt 
(1) s
1116 3316 mt 1116 3276 L
1116  284 mt 1116  323 L
1073 3495 mt 
(2) s
1346 3316 mt 1346 3276 L
1346  284 mt 1346  323 L
1303 3495 mt 
(3) s
1576 3316 mt 1576 3276 L
1576  284 mt 1576  323 L
1533 3495 mt 
(4) s
1806 3316 mt 1806 3276 L
1806  284 mt 1806  323 L
1763 3495 mt 
(5) s
2036 3316 mt 2036 3276 L
2036  284 mt 2036  323 L
1993 3495 mt 
(6) s
2266 3316 mt 2266 3276 L
2266  284 mt 2266  323 L
2223 3495 mt 
(7) s
2496 3316 mt 2496 3276 L
2496  284 mt 2496  323 L
2453 3495 mt 
(8) s
2726 3316 mt 2726 3276 L
2726  284 mt 2726  323 L
2683 3495 mt 
(9) s
2956 3316 mt 2956 3276 L
2956  284 mt 2956  323 L
2870 3495 mt 
(10) s
3186 3316 mt 3186 3276 L
3186  284 mt 3186  323 L
3100 3495 mt 
(11) s
3416 3316 mt 3416 3276 L
3416  284 mt 3416  323 L
3330 3495 mt 
(12) s
3646 3316 mt 3646 3276 L
3646  284 mt 3646  323 L
3560 3495 mt 
(13) s
3876 3316 mt 3876 3276 L
3876  284 mt 3876  323 L
3790 3495 mt 
(14) s
4106 3316 mt 4106 3276 L
4106  284 mt 4106  323 L
4020 3495 mt 
(15) s
4336 3316 mt 4336 3276 L
4336  284 mt 4336  323 L
4250 3495 mt 
(16) s
4566 3316 mt 4566 3276 L
4566  284 mt 4566  323 L
4480 3495 mt 
(17) s
 656 3316 mt  695 3316 L
4566 3316 mt 4526 3316 L
 448 3374 mt 
(10) s
 656 3012 mt  695 3012 L
4566 3012 mt 4526 3012 L
 448 3070 mt 
(12) s
 656 2709 mt  695 2709 L
4566 2709 mt 4526 2709 L
 448 2767 mt 
(14) s
 656 2406 mt  695 2406 L
4566 2406 mt 4526 2406 L
 448 2464 mt 
(16) s
 656 2103 mt  695 2103 L
4566 2103 mt 4526 2103 L
 448 2161 mt 
(18) s
 656 1800 mt  695 1800 L
4566 1800 mt 4526 1800 L
 448 1858 mt 
(20) s
 656 1496 mt  695 1496 L
4566 1496 mt 4526 1496 L
 448 1554 mt 
(22) s
 656 1193 mt  695 1193 L
4566 1193 mt 4526 1193 L
 448 1251 mt 
(24) s
 656  890 mt  695  890 L
4566  890 mt 4526  890 L
 448  948 mt 
(26) s
 656  587 mt  695  587 L
4566  587 mt 4526  587 L
 448  645 mt 
(28) s
 656  284 mt  695  284 L
4566  284 mt 4526  284 L
 448  342 mt 
(30) s
 656  284 mt 4566  284 L
 656 3316 mt 4566 3316 L
4566 3316 mt 4566  284 L
 656 3316 mt  656  284 L
gs 656 284 3911 3033 rc
/c8 { 0.000000 0.000000 0.562500 sr} bdef
c8
0 3639 115 0 0 -3639 828 4832 4 MP
PP
0 sg
-115 0 0 3639 115 0 0 -3639 828 4832 5 MP stroke
c8
0 3639 115 0 0 -3639 1058 4832 4 MP
PP
0 sg
-115 0 0 3639 115 0 0 -3639 1058 4832 5 MP stroke
c8
0 3487 115 0 0 -3487 1288 4832 4 MP
PP
0 sg
-115 0 0 3487 115 0 0 -3487 1288 4832 5 MP stroke
c8
0 3639 115 0 0 -3639 1518 4832 4 MP
PP
0 sg
-115 0 0 3639 115 0 0 -3639 1518 4832 5 MP stroke
c8
0 3790 115 0 0 -3790 1748 4832 4 MP
PP
0 sg
-115 0 0 3790 115 0 0 -3790 1748 4832 5 MP stroke
c8
0 3487 115 0 0 -3487 1978 4832 4 MP
PP
0 sg
-115 0 0 3487 115 0 0 -3487 1978 4832 5 MP stroke
c8
0 3942 115 0 0 -3942 2208 4832 4 MP
PP
0 sg
-115 0 0 3942 115 0 0 -3942 2208 4832 5 MP stroke
c8
0 3487 115 0 0 -3487 2438 4832 4 MP
PP
0 sg
-115 0 0 3487 115 0 0 -3487 2438 4832 5 MP stroke
c8
0 3639 115 0 0 -3639 2668 4832 4 MP
PP
0 sg
-115 0 0 3639 115 0 0 -3639 2668 4832 5 MP stroke
c8
0 3639 115 0 0 -3639 2898 4832 4 MP
PP
0 sg
-115 0 0 3639 115 0 0 -3639 2898 4832 5 MP stroke
c8
0 3639 115 0 0 -3639 3128 4832 4 MP
PP
0 sg
-115 0 0 3639 115 0 0 -3639 3128 4832 5 MP stroke
c8
0 3487 115 0 0 -3487 3358 4832 4 MP
PP
0 sg
-115 0 0 3487 115 0 0 -3487 3358 4832 5 MP stroke
c8
0 3790 115 0 0 -3790 3588 4832 4 MP
PP
0 sg
-115 0 0 3790 115 0 0 -3790 3588 4832 5 MP stroke
c8
0 3639 115 0 0 -3639 3818 4832 4 MP
PP
0 sg
-115 0 0 3639 115 0 0 -3639 3818 4832 5 MP stroke
c8
0 3487 115 0 0 -3487 4048 4832 4 MP
PP
0 sg
-115 0 0 3487 115 0 0 -3487 4048 4832 5 MP stroke
c8
0 3639 115 0 0 -3639 4278 4832 4 MP
PP
0 sg
-115 0 0 3639 115 0 0 -3639 4278 4832 5 MP stroke
gr

%%IncludeResource: font Helvetica
/Helvetica /WindowsLatin1Encoding 240 FMSR

1816 3726 mt 
(Guest Node ID) s
 339 2293 mt  -90 rotate
(ED Value) s
90 rotate

end %%Color Dict

eplot
%%EndObject

epage
end

showpage

%%Trailer
%%EOF
