%!PS-Adobe-3.0 EPSF-3.0
%%Creator: MATLAB, The Mathworks, Inc. Version 7.5.0.342 (R2007b). Operating System: Microsoft Windows Vista.
%%Title: I:\Interference Measurement\paper draft\wiopt\figures\interference_host.eps
%%CreationDate: 01/12/2013  16:25:33
%%DocumentNeededFonts: Helvetica
%%DocumentProcessColors: Cyan Magenta Yellow Black
%%LanguageLevel: 2
%%Pages: 1
%%BoundingBox:    96   238   515   553
%%EndComments

%%BeginProlog
% MathWorks dictionary
/MathWorks 160 dict begin
% definition operators
/bdef {bind def} bind def
/ldef {load def} bind def
/xdef {exch def} bdef
/xstore {exch store} bdef
% operator abbreviations
/c  /clip ldef
/cc /concat ldef
/cp /closepath ldef
/gr /grestore ldef
/gs /gsave ldef
/mt /moveto ldef
/np /newpath ldef
/cm /currentmatrix ldef
/sm /setmatrix ldef
/rm /rmoveto ldef
/rl /rlineto ldef
/s {show newpath} bdef
/sc {setcmykcolor} bdef
/sr /setrgbcolor ldef
/sg /setgray ldef
/w /setlinewidth ldef
/j /setlinejoin ldef
/cap /setlinecap ldef
/rc {rectclip} bdef
/rf {rectfill} bdef
% page state control
/pgsv () def
/bpage {/pgsv save def} bdef
/epage {pgsv restore} bdef
/bplot /gsave ldef
/eplot {stroke grestore} bdef
% orientation switch
/portraitMode 0 def /landscapeMode 1 def /rotateMode 2 def
% coordinate system mappings
/dpi2point 0 def
% font control
/FontSize 0 def
/FMS {/FontSize xstore findfont [FontSize 0 0 FontSize neg 0 0]
  makefont setfont} bdef
/ISOLatin1Encoding where {pop /WindowsLatin1Encoding 256 array bdef
ISOLatin1Encoding WindowsLatin1Encoding copy pop
/.notdef/.notdef/quotesinglbase/florin/quotedblbase/ellipsis/dagger
/daggerdbl/circumflex/perthousand/Scaron/guilsinglleft/OE/.notdef/.notdef
/.notdef/.notdef/quoteleft/quoteright/quotedblleft/quotedblright/bullet
/endash/emdash/tilde/trademark/scaron/guilsinglright/oe/.notdef/.notdef
/Ydieresis WindowsLatin1Encoding 128 32 getinterval astore pop}
{/WindowsLatin1Encoding StandardEncoding bdef} ifelse
/reencode {exch dup where {pop load} {pop StandardEncoding} ifelse
  exch dup 3 1 roll findfont dup length dict begin
  { 1 index /FID ne {def}{pop pop} ifelse } forall
  /Encoding exch def currentdict end definefont pop} bdef
/isroman {findfont /CharStrings get /Agrave known} bdef
/FMSR {3 1 roll 1 index dup isroman {reencode} {pop pop} ifelse
  exch FMS} bdef
/csm {1 dpi2point div -1 dpi2point div scale neg translate
 dup landscapeMode eq {pop -90 rotate}
  {rotateMode eq {90 rotate} if} ifelse} bdef
% line types: solid, dotted, dashed, dotdash
/SO { [] 0 setdash } bdef
/DO { [.5 dpi2point mul 4 dpi2point mul] 0 setdash } bdef
/DA { [6 dpi2point mul] 0 setdash } bdef
/DD { [.5 dpi2point mul 4 dpi2point mul 6 dpi2point mul 4
  dpi2point mul] 0 setdash } bdef
% macros for lines and objects
/L {lineto stroke} bdef
/MP {3 1 roll moveto 1 sub {rlineto} repeat} bdef
/AP {{rlineto} repeat} bdef
/PDlw -1 def
/W {/PDlw currentlinewidth def setlinewidth} def
/PP {closepath eofill} bdef
/DP {closepath stroke} bdef
/MR {4 -2 roll moveto dup  0 exch rlineto exch 0 rlineto
  neg 0 exch rlineto closepath} bdef
/FR {MR stroke} bdef
/PR {MR fill} bdef
/L1i {{currentfile picstr readhexstring pop} image} bdef
/tMatrix matrix def
/MakeOval {newpath tMatrix currentmatrix pop translate scale
0 0 1 0 360 arc tMatrix setmatrix} bdef
/FO {MakeOval stroke} bdef
/PO {MakeOval fill} bdef
/PD {currentlinewidth 2 div 0 360 arc fill
   PDlw -1 eq not {PDlw w /PDlw -1 def} if} def
/FA {newpath tMatrix currentmatrix pop translate scale
  0 0 1 5 -2 roll arc tMatrix setmatrix stroke} bdef
/PA {newpath tMatrix currentmatrix pop	translate 0 0 moveto scale
  0 0 1 5 -2 roll arc closepath tMatrix setmatrix fill} bdef
/FAn {newpath tMatrix currentmatrix pop translate scale
  0 0 1 5 -2 roll arcn tMatrix setmatrix stroke} bdef
/PAn {newpath tMatrix currentmatrix pop translate 0 0 moveto scale
  0 0 1 5 -2 roll arcn closepath tMatrix setmatrix fill} bdef
/vradius 0 def /hradius 0 def /lry 0 def
/lrx 0 def /uly 0 def /ulx 0 def /rad 0 def
/MRR {/vradius xdef /hradius xdef /lry xdef /lrx xdef /uly xdef
  /ulx xdef newpath tMatrix currentmatrix pop ulx hradius add uly
  vradius add translate hradius vradius scale 0 0 1 180 270 arc 
  tMatrix setmatrix lrx hradius sub uly vradius add translate
  hradius vradius scale 0 0 1 270 360 arc tMatrix setmatrix
  lrx hradius sub lry vradius sub translate hradius vradius scale
  0 0 1 0 90 arc tMatrix setmatrix ulx hradius add lry vradius sub
  translate hradius vradius scale 0 0 1 90 180 arc tMatrix setmatrix
  closepath} bdef
/FRR {MRR stroke } bdef
/PRR {MRR fill } bdef
/MlrRR {/lry xdef /lrx xdef /uly xdef /ulx xdef /rad lry uly sub 2 div def
  newpath tMatrix currentmatrix pop ulx rad add uly rad add translate
  rad rad scale 0 0 1 90 270 arc tMatrix setmatrix lrx rad sub lry rad
  sub translate rad rad scale 0 0 1 270 90 arc tMatrix setmatrix
  closepath} bdef
/FlrRR {MlrRR stroke } bdef
/PlrRR {MlrRR fill } bdef
/MtbRR {/lry xdef /lrx xdef /uly xdef /ulx xdef /rad lrx ulx sub 2 div def
  newpath tMatrix currentmatrix pop ulx rad add uly rad add translate
  rad rad scale 0 0 1 180 360 arc tMatrix setmatrix lrx rad sub lry rad
  sub translate rad rad scale 0 0 1 0 180 arc tMatrix setmatrix
  closepath} bdef
/FtbRR {MtbRR stroke } bdef
/PtbRR {MtbRR fill } bdef
/stri 6 array def /dtri 6 array def
/smat 6 array def /dmat 6 array def
/tmat1 6 array def /tmat2 6 array def /dif 3 array def
/asub {/ind2 exch def /ind1 exch def dup dup
  ind1 get exch ind2 get sub exch } bdef
/tri_to_matrix {
  2 0 asub 3 1 asub 4 0 asub 5 1 asub
  dup 0 get exch 1 get 7 -1 roll astore } bdef
/compute_transform {
  dmat dtri tri_to_matrix tmat1 invertmatrix 
  smat stri tri_to_matrix tmat2 concatmatrix } bdef
/ds {stri astore pop} bdef
/dt {dtri astore pop} bdef
/db {2 copy /cols xdef /rows xdef mul dup 3 mul string
  currentfile 
  3 index 0 eq {/ASCIIHexDecode filter}
  {/ASCII85Decode filter 3 index 2 eq {/RunLengthDecode filter} if }
  ifelse exch readstring pop
  dup 0 3 index getinterval /rbmap xdef
  dup 2 index dup getinterval /gbmap xdef
  1 index dup 2 mul exch getinterval /bbmap xdef pop pop}bdef
/it {gs np dtri aload pop moveto lineto lineto cp c
  cols rows 8 compute_transform 
  rbmap gbmap bbmap true 3 colorimage gr}bdef
/il {newpath moveto lineto stroke}bdef
currentdict end def
%%EndProlog

%%BeginSetup
MathWorks begin

0 cap

end
%%EndSetup

%%Page: 1 1
%%BeginPageSetup
%%PageBoundingBox:    96   238   515   553
MathWorks begin
bpage
%%EndPageSetup

%%BeginObject: obj1
bplot

/dpi2point 12 def
portraitMode 1152 6636 csm

    0     0  5039  3780 rc
85 dict begin %Colortable dictionary
/c0 { 0.000000 0.000000 0.000000 sr} bdef
/c1 { 1.000000 1.000000 1.000000 sr} bdef
/c2 { 0.900000 0.000000 0.000000 sr} bdef
/c3 { 0.000000 0.820000 0.000000 sr} bdef
/c4 { 0.000000 0.000000 0.800000 sr} bdef
/c5 { 0.910000 0.820000 0.320000 sr} bdef
/c6 { 1.000000 0.260000 0.820000 sr} bdef
/c7 { 0.000000 0.820000 0.820000 sr} bdef
c0
1 j
1 sg
   0    0 5040 3781 rf
6 w
0 3009 3905 0 0 -3009 655 3292 4 MP
PP
-3905 0 0 3009 3905 0 0 -3009 655 3292 5 MP stroke
4 w
DO
SO
6 w
0 sg
 655  283 mt 4560  283 L
 655 3292 mt 4560 3292 L
4560 3292 mt 4560  283 L
 655 3292 mt  655  283 L
 655 3292 mt 4560 3292 L
 655 3292 mt  655  283 L
 655 3292 mt  655 3252 L
 655  283 mt  655  322 L
%%IncludeResource: font Helvetica
/Helvetica /WindowsLatin1Encoding 180 FMSR

 605 3493 mt 
(1) s
1088 3292 mt 1088 3252 L
1088  283 mt 1088  322 L
1038 3493 mt 
(2) s
1522 3292 mt 1522 3252 L
1522  283 mt 1522  322 L
1472 3493 mt 
(3) s
1956 3292 mt 1956 3252 L
1956  283 mt 1956  322 L
1906 3493 mt 
(4) s
2390 3292 mt 2390 3252 L
2390  283 mt 2390  322 L
2340 3493 mt 
(5) s
2824 3292 mt 2824 3252 L
2824  283 mt 2824  322 L
2774 3493 mt 
(6) s
3258 3292 mt 3258 3252 L
3258  283 mt 3258  322 L
3208 3493 mt 
(7) s
3692 3292 mt 3692 3252 L
3692  283 mt 3692  322 L
3642 3493 mt 
(8) s
4126 3292 mt 4126 3252 L
4126  283 mt 4126  322 L
4076 3493 mt 
(9) s
4560 3292 mt 4560 3252 L
4560  283 mt 4560  322 L
4460 3493 mt 
(10) s
 655 3292 mt  694 3292 L
4560 3292 mt 4520 3292 L
 520 3358 mt 
(0) s
 655 2539 mt  694 2539 L
4560 2539 mt 4520 2539 L
 370 2605 mt 
(0.5) s
 655 1787 mt  694 1787 L
4560 1787 mt 4520 1787 L
 520 1853 mt 
(1) s
 655 1035 mt  694 1035 L
4560 1035 mt 4520 1035 L
 370 1101 mt 
(1.5) s
 655  283 mt  694  283 L
4560  283 mt 4520  283 L
 520  349 mt 
(2) s
 655  283 mt 4560  283 L
 655 3292 mt 4560 3292 L
4560 3292 mt 4560  283 L
 655 3292 mt  655  283 L
gs 655 283 3906 3010 rc
/c8 { 0.000000 0.000000 1.000000 sr} bdef
c8
218 3 54 0 299 6 159 4 59 2 20 1 78 3 24 1 
34 1 15 1 11 0 53 3 58 3 28 1 27 2 8 1 
106 7 15 1 31 3 34 3 41 4 27 3 58 6 34 5 
7 1 22 3 97 15 107 22 26 7 13 3 7 2 8 2 
68 21 35 13 17 6 20 8 59 28 126 80 18 15 70 68 
35 42 9 12 57 84 265 943 15 112 47 418 17 180 31 411 
744 720 49 MP stroke
gr

c8
  36   36  744  720 FO
  36   36  775 1131 FO
  36   36  792 1311 FO
  36   36  839 1729 FO
  36   36  854 1841 FO
  36   36 1119 2784 FO
  36   36 1176 2868 FO
  36   36 1185 2880 FO
  36   36 1220 2922 FO
  36   36 1290 2990 FO
  36   36 1308 3005 FO
  36   36 1434 3085 FO
  36   36 1493 3113 FO
  36   36 1513 3121 FO
  36   36 1530 3127 FO
  36   36 1565 3140 FO
  36   36 1633 3161 FO
  36   36 1641 3163 FO
  36   36 1648 3165 FO
  36   36 1661 3168 FO
  36   36 1687 3175 FO
  36   36 1794 3197 FO
  36   36 1891 3212 FO
  36   36 1913 3215 FO
  36   36 1920 3216 FO
  36   36 1954 3221 FO
  36   36 2012 3227 FO
  36   36 2039 3230 FO
  36   36 2080 3234 FO
  36   36 2114 3237 FO
  36   36 2145 3240 FO
  36   36 2160 3241 FO
  36   36 2266 3248 FO
  36   36 2274 3249 FO
  36   36 2301 3251 FO
  36   36 2329 3252 FO
  36   36 2387 3255 FO
  36   36 2440 3258 FO
  36   36 2451 3258 FO
  36   36 2466 3259 FO
  36   36 2500 3260 FO
  36   36 2524 3261 FO
  36   36 2602 3264 FO
  36   36 2622 3265 FO
  36   36 2681 3267 FO
  36   36 2840 3271 FO
  36   36 3139 3277 FO
  36   36 3193 3277 FO
  36   36 3411 3280 FO
gs 655 283 3906 3010 rc
/c9 { 1.000000 0.000000 0.000000 sr} bdef
c9
218 11 54 0 299 -7 159 2 59 17 20 1 78 3 24 -18 
34 20 15 1 11 -20 53 23 58 3 28 -23 27 0 8 27 
106 7 15 1 31 3 34 3 41 4 27 -37 58 46 34 5 
7 -41 22 1 97 7 107 74 26 7 13 3 7 -111 8 115 
68 21 35 -92 17 111 20 -129 59 165 126 -166 18 -32 70 361 
35 42 9 12 57 84 265 943 15 112 47 418 17 180 31 411 
744 720 49 MP stroke
gr

c9
 708  720 mt  780  720 L
 744  684 mt  744  756 L
 739 1131 mt  811 1131 L
 775 1095 mt  775 1167 L
 756 1311 mt  828 1311 L
 792 1275 mt  792 1347 L
 803 1729 mt  875 1729 L
 839 1693 mt  839 1765 L
 818 1841 mt  890 1841 L
 854 1805 mt  854 1877 L
1083 2784 mt 1155 2784 L
1119 2748 mt 1119 2820 L
1140 2868 mt 1212 2868 L
1176 2832 mt 1176 2904 L
1149 2880 mt 1221 2880 L
1185 2844 mt 1185 2916 L
1184 2922 mt 1256 2922 L
1220 2886 mt 1220 2958 L
1254 3283 mt 1326 3283 L
1290 3247 mt 1290 3319 L
1272 3251 mt 1344 3251 L
1308 3215 mt 1308 3287 L
1398 3085 mt 1470 3085 L
1434 3049 mt 1434 3121 L
1457 3250 mt 1529 3250 L
1493 3214 mt 1493 3286 L
1477 3121 mt 1549 3121 L
1513 3085 mt 1513 3157 L
1494 3232 mt 1566 3232 L
1530 3196 mt 1530 3268 L
1529 3140 mt 1601 3140 L
1565 3104 mt 1565 3176 L
1597 3161 mt 1669 3161 L
1633 3125 mt 1633 3197 L
1605 3276 mt 1677 3276 L
1641 3240 mt 1641 3312 L
1612 3165 mt 1684 3165 L
1648 3129 mt 1648 3201 L
1625 3168 mt 1697 3168 L
1661 3132 mt 1661 3204 L
1651 3175 mt 1723 3175 L
1687 3139 mt 1687 3211 L
1758 3249 mt 1830 3249 L
1794 3213 mt 1794 3285 L
1855 3256 mt 1927 3256 L
1891 3220 mt 1891 3292 L
1877 3257 mt 1949 3257 L
1913 3221 mt 1913 3293 L
1884 3216 mt 1956 3216 L
1920 3180 mt 1920 3252 L
1918 3221 mt 1990 3221 L
1954 3185 mt 1954 3257 L
1976 3267 mt 2048 3267 L
2012 3231 mt 2012 3303 L
2003 3230 mt 2075 3230 L
2039 3194 mt 2039 3266 L
2044 3234 mt 2116 3234 L
2080 3198 mt 2080 3270 L
2078 3237 mt 2150 3237 L
2114 3201 mt 2114 3273 L
2109 3240 mt 2181 3240 L
2145 3204 mt 2145 3276 L
2124 3241 mt 2196 3241 L
2160 3205 mt 2160 3277 L
2230 3248 mt 2302 3248 L
2266 3212 mt 2266 3284 L
2238 3275 mt 2310 3275 L
2274 3239 mt 2274 3311 L
2265 3275 mt 2337 3275 L
2301 3239 mt 2301 3311 L
2293 3252 mt 2365 3252 L
2329 3216 mt 2329 3288 L
2351 3255 mt 2423 3255 L
2387 3219 mt 2387 3291 L
2404 3278 mt 2476 3278 L
2440 3242 mt 2440 3314 L
2415 3258 mt 2487 3258 L
2451 3222 mt 2451 3294 L
2430 3259 mt 2502 3259 L
2466 3223 mt 2466 3295 L
2464 3279 mt 2536 3279 L
2500 3243 mt 2500 3315 L
2488 3261 mt 2560 3261 L
2524 3225 mt 2524 3297 L
2566 3264 mt 2638 3264 L
2602 3228 mt 2602 3300 L
2586 3265 mt 2658 3265 L
2622 3229 mt 2622 3301 L
2645 3282 mt 2717 3282 L
2681 3246 mt 2681 3318 L
2804 3284 mt 2876 3284 L
2840 3248 mt 2840 3320 L
3103 3277 mt 3175 3277 L
3139 3241 mt 3139 3313 L
3157 3277 mt 3229 3277 L
3193 3241 mt 3193 3313 L
3375 3288 mt 3447 3288 L
3411 3252 mt 3411 3324 L
 719  695 mt  769  745 L
 769  695 mt  719  745 L
 750 1106 mt  800 1156 L
 800 1106 mt  750 1156 L
 767 1286 mt  817 1336 L
 817 1286 mt  767 1336 L
 814 1704 mt  864 1754 L
 864 1704 mt  814 1754 L
 829 1816 mt  879 1866 L
 879 1816 mt  829 1866 L
1094 2759 mt 1144 2809 L
1144 2759 mt 1094 2809 L
1151 2843 mt 1201 2893 L
1201 2843 mt 1151 2893 L
1160 2855 mt 1210 2905 L
1210 2855 mt 1160 2905 L
1195 2897 mt 1245 2947 L
1245 2897 mt 1195 2947 L
1265 3258 mt 1315 3308 L
1315 3258 mt 1265 3308 L
1283 3226 mt 1333 3276 L
1333 3226 mt 1283 3276 L
1409 3060 mt 1459 3110 L
1459 3060 mt 1409 3110 L
1468 3225 mt 1518 3275 L
1518 3225 mt 1468 3275 L
1488 3096 mt 1538 3146 L
1538 3096 mt 1488 3146 L
1505 3207 mt 1555 3257 L
1555 3207 mt 1505 3257 L
1540 3115 mt 1590 3165 L
1590 3115 mt 1540 3165 L
1608 3136 mt 1658 3186 L
1658 3136 mt 1608 3186 L
1616 3251 mt 1666 3301 L
1666 3251 mt 1616 3301 L
1623 3140 mt 1673 3190 L
1673 3140 mt 1623 3190 L
1636 3143 mt 1686 3193 L
1686 3143 mt 1636 3193 L
1662 3150 mt 1712 3200 L
1712 3150 mt 1662 3200 L
1769 3224 mt 1819 3274 L
1819 3224 mt 1769 3274 L
1866 3231 mt 1916 3281 L
1916 3231 mt 1866 3281 L
1888 3232 mt 1938 3282 L
1938 3232 mt 1888 3282 L
1895 3191 mt 1945 3241 L
1945 3191 mt 1895 3241 L
1929 3196 mt 1979 3246 L
1979 3196 mt 1929 3246 L
1987 3242 mt 2037 3292 L
2037 3242 mt 1987 3292 L
2014 3205 mt 2064 3255 L
2064 3205 mt 2014 3255 L
2055 3209 mt 2105 3259 L
2105 3209 mt 2055 3259 L
2089 3212 mt 2139 3262 L
2139 3212 mt 2089 3262 L
2120 3215 mt 2170 3265 L
2170 3215 mt 2120 3265 L
2135 3216 mt 2185 3266 L
2185 3216 mt 2135 3266 L
2241 3223 mt 2291 3273 L
2291 3223 mt 2241 3273 L
2249 3250 mt 2299 3300 L
2299 3250 mt 2249 3300 L
2276 3250 mt 2326 3300 L
2326 3250 mt 2276 3300 L
2304 3227 mt 2354 3277 L
2354 3227 mt 2304 3277 L
2362 3230 mt 2412 3280 L
2412 3230 mt 2362 3280 L
2415 3253 mt 2465 3303 L
2465 3253 mt 2415 3303 L
2426 3233 mt 2476 3283 L
2476 3233 mt 2426 3283 L
2441 3234 mt 2491 3284 L
2491 3234 mt 2441 3284 L
2475 3254 mt 2525 3304 L
2525 3254 mt 2475 3304 L
2499 3236 mt 2549 3286 L
2549 3236 mt 2499 3286 L
2577 3239 mt 2627 3289 L
2627 3239 mt 2577 3289 L
2597 3240 mt 2647 3290 L
2647 3240 mt 2597 3290 L
2656 3257 mt 2706 3307 L
2706 3257 mt 2656 3307 L
2815 3259 mt 2865 3309 L
2865 3259 mt 2815 3309 L
3114 3252 mt 3164 3302 L
3164 3252 mt 3114 3302 L
3168 3252 mt 3218 3302 L
3218 3252 mt 3168 3302 L
3386 3263 mt 3436 3313 L
3436 3263 mt 3386 3313 L
gs 655 283 3906 3010 rc
gr

0 sg
%%IncludeResource: font Helvetica
/Helvetica /WindowsLatin1Encoding 240 FMSR

1226 3724 mt 
(Distance to Host Node\(m\)) s
 261 3010 mt  -90 rotate
(Interference Value\(nW\)) s
90 rotate
%%IncludeResource: font Helvetica
/Helvetica /WindowsLatin1Encoding 120 FMSR

 638 3335 mt 
( ) s
4544  325 mt 
( ) s
1 sg
0 472 1627 0 0 -472 2874 815 4 MP
PP
-1627 0 0 472 1627 0 0 -472 2874 815 5 MP stroke
4 w
DO
SO
6 w
0 sg
2874  343 mt 4501  343 L
2874  815 mt 4501  815 L
4501  815 mt 4501  343 L
2874  815 mt 2874  343 L
2874  815 mt 4501  815 L
2874  815 mt 2874  343 L
2874  343 mt 4501  343 L
2874  815 mt 4501  815 L
4501  815 mt 4501  343 L
2874  815 mt 2874  343 L
%%IncludeResource: font Helvetica
/Helvetica /WindowsLatin1Encoding 180 FMSR

3339  535 mt 
(No Obstacle) s
gs 2874 343 1628 473 rc
c8
358 0 2945 470 2 MP stroke
gs 3051 397 147 147 rc
  36   36 3124  470 FO
gr

gr

c8
0 sg
3339  752 mt 
(With Obstacle) s
gs 2874 343 1628 473 rc
c9
358 0 2945 687 2 MP stroke
gs 3051 614 147 147 rc
3088  687 mt 3160  687 L
3124  651 mt 3124  723 L
3099  662 mt 3149  712 L
3149  662 mt 3099  712 L
gr

gr

c9

end %%Color Dict

eplot
%%EndObject

epage
end

showpage

%%Trailer
%%EOF
