%!PS-Adobe-3.0 EPSF-3.0
%%Creator: MATLAB, The Mathworks, Inc. Version 7.5.0.342 (R2007b). Operating System: Microsoft Windows XP.
%%Title: H:\Research\Papers\Interference\paper\script1.2\MR_100.eps
%%CreationDate: 07/06/2012  13:42:08
%%DocumentNeededFonts: Helvetica
%%DocumentProcessColors: Cyan Magenta Yellow Black
%%LanguageLevel: 2
%%Pages: 1
%%BoundingBox:    87   262   507   578
%%EndComments

%%BeginProlog
% MathWorks dictionary
/MathWorks 160 dict begin
% definition operators
/bdef {bind def} bind def
/ldef {load def} bind def
/xdef {exch def} bdef
/xstore {exch store} bdef
% operator abbreviations
/c  /clip ldef
/cc /concat ldef
/cp /closepath ldef
/gr /grestore ldef
/gs /gsave ldef
/mt /moveto ldef
/np /newpath ldef
/cm /currentmatrix ldef
/sm /setmatrix ldef
/rm /rmoveto ldef
/rl /rlineto ldef
/s {show newpath} bdef
/sc {setcmykcolor} bdef
/sr /setrgbcolor ldef
/sg /setgray ldef
/w /setlinewidth ldef
/j /setlinejoin ldef
/cap /setlinecap ldef
/rc {rectclip} bdef
/rf {rectfill} bdef
% page state control
/pgsv () def
/bpage {/pgsv save def} bdef
/epage {pgsv restore} bdef
/bplot /gsave ldef
/eplot {stroke grestore} bdef
% orientation switch
/portraitMode 0 def /landscapeMode 1 def /rotateMode 2 def
% coordinate system mappings
/dpi2point 0 def
% font control
/FontSize 0 def
/FMS {/FontSize xstore findfont [FontSize 0 0 FontSize neg 0 0]
  makefont setfont} bdef
/ISOLatin1Encoding where {pop /WindowsLatin1Encoding 256 array bdef
ISOLatin1Encoding WindowsLatin1Encoding copy pop
/.notdef/.notdef/quotesinglbase/florin/quotedblbase/ellipsis/dagger
/daggerdbl/circumflex/perthousand/Scaron/guilsinglleft/OE/.notdef/.notdef
/.notdef/.notdef/quoteleft/quoteright/quotedblleft/quotedblright/bullet
/endash/emdash/tilde/trademark/scaron/guilsinglright/oe/.notdef/.notdef
/Ydieresis WindowsLatin1Encoding 128 32 getinterval astore pop}
{/WindowsLatin1Encoding StandardEncoding bdef} ifelse
/reencode {exch dup where {pop load} {pop StandardEncoding} ifelse
  exch dup 3 1 roll findfont dup length dict begin
  { 1 index /FID ne {def}{pop pop} ifelse } forall
  /Encoding exch def currentdict end definefont pop} bdef
/isroman {findfont /CharStrings get /Agrave known} bdef
/FMSR {3 1 roll 1 index dup isroman {reencode} {pop pop} ifelse
  exch FMS} bdef
/csm {1 dpi2point div -1 dpi2point div scale neg translate
 dup landscapeMode eq {pop -90 rotate}
  {rotateMode eq {90 rotate} if} ifelse} bdef
% line types: solid, dotted, dashed, dotdash
/SO { [] 0 setdash } bdef
/DO { [.5 dpi2point mul 4 dpi2point mul] 0 setdash } bdef
/DA { [6 dpi2point mul] 0 setdash } bdef
/DD { [.5 dpi2point mul 4 dpi2point mul 6 dpi2point mul 4
  dpi2point mul] 0 setdash } bdef
% macros for lines and objects
/L {lineto stroke} bdef
/MP {3 1 roll moveto 1 sub {rlineto} repeat} bdef
/AP {{rlineto} repeat} bdef
/PDlw -1 def
/W {/PDlw currentlinewidth def setlinewidth} def
/PP {closepath eofill} bdef
/DP {closepath stroke} bdef
/MR {4 -2 roll moveto dup  0 exch rlineto exch 0 rlineto
  neg 0 exch rlineto closepath} bdef
/FR {MR stroke} bdef
/PR {MR fill} bdef
/L1i {{currentfile picstr readhexstring pop} image} bdef
/tMatrix matrix def
/MakeOval {newpath tMatrix currentmatrix pop translate scale
0 0 1 0 360 arc tMatrix setmatrix} bdef
/FO {MakeOval stroke} bdef
/PO {MakeOval fill} bdef
/PD {currentlinewidth 2 div 0 360 arc fill
   PDlw -1 eq not {PDlw w /PDlw -1 def} if} def
/FA {newpath tMatrix currentmatrix pop translate scale
  0 0 1 5 -2 roll arc tMatrix setmatrix stroke} bdef
/PA {newpath tMatrix currentmatrix pop	translate 0 0 moveto scale
  0 0 1 5 -2 roll arc closepath tMatrix setmatrix fill} bdef
/FAn {newpath tMatrix currentmatrix pop translate scale
  0 0 1 5 -2 roll arcn tMatrix setmatrix stroke} bdef
/PAn {newpath tMatrix currentmatrix pop translate 0 0 moveto scale
  0 0 1 5 -2 roll arcn closepath tMatrix setmatrix fill} bdef
/vradius 0 def /hradius 0 def /lry 0 def
/lrx 0 def /uly 0 def /ulx 0 def /rad 0 def
/MRR {/vradius xdef /hradius xdef /lry xdef /lrx xdef /uly xdef
  /ulx xdef newpath tMatrix currentmatrix pop ulx hradius add uly
  vradius add translate hradius vradius scale 0 0 1 180 270 arc 
  tMatrix setmatrix lrx hradius sub uly vradius add translate
  hradius vradius scale 0 0 1 270 360 arc tMatrix setmatrix
  lrx hradius sub lry vradius sub translate hradius vradius scale
  0 0 1 0 90 arc tMatrix setmatrix ulx hradius add lry vradius sub
  translate hradius vradius scale 0 0 1 90 180 arc tMatrix setmatrix
  closepath} bdef
/FRR {MRR stroke } bdef
/PRR {MRR fill } bdef
/MlrRR {/lry xdef /lrx xdef /uly xdef /ulx xdef /rad lry uly sub 2 div def
  newpath tMatrix currentmatrix pop ulx rad add uly rad add translate
  rad rad scale 0 0 1 90 270 arc tMatrix setmatrix lrx rad sub lry rad
  sub translate rad rad scale 0 0 1 270 90 arc tMatrix setmatrix
  closepath} bdef
/FlrRR {MlrRR stroke } bdef
/PlrRR {MlrRR fill } bdef
/MtbRR {/lry xdef /lrx xdef /uly xdef /ulx xdef /rad lrx ulx sub 2 div def
  newpath tMatrix currentmatrix pop ulx rad add uly rad add translate
  rad rad scale 0 0 1 180 360 arc tMatrix setmatrix lrx rad sub lry rad
  sub translate rad rad scale 0 0 1 0 180 arc tMatrix setmatrix
  closepath} bdef
/FtbRR {MtbRR stroke } bdef
/PtbRR {MtbRR fill } bdef
/stri 6 array def /dtri 6 array def
/smat 6 array def /dmat 6 array def
/tmat1 6 array def /tmat2 6 array def /dif 3 array def
/asub {/ind2 exch def /ind1 exch def dup dup
  ind1 get exch ind2 get sub exch } bdef
/tri_to_matrix {
  2 0 asub 3 1 asub 4 0 asub 5 1 asub
  dup 0 get exch 1 get 7 -1 roll astore } bdef
/compute_transform {
  dmat dtri tri_to_matrix tmat1 invertmatrix 
  smat stri tri_to_matrix tmat2 concatmatrix } bdef
/ds {stri astore pop} bdef
/dt {dtri astore pop} bdef
/db {2 copy /cols xdef /rows xdef mul dup 3 mul string
  currentfile 
  3 index 0 eq {/ASCIIHexDecode filter}
  {/ASCII85Decode filter 3 index 2 eq {/RunLengthDecode filter} if }
  ifelse exch readstring pop
  dup 0 3 index getinterval /rbmap xdef
  dup 2 index dup getinterval /gbmap xdef
  1 index dup 2 mul exch getinterval /bbmap xdef pop pop}bdef
/it {gs np dtri aload pop moveto lineto lineto cp c
  cols rows 8 compute_transform 
  rbmap gbmap bbmap true 3 colorimage gr}bdef
/il {newpath moveto lineto stroke}bdef
currentdict end def
%%EndProlog

%%BeginSetup
MathWorks begin

0 cap

end
%%EndSetup

%%Page: 1 1
%%BeginPageSetup
%%PageBoundingBox:    87   262   507   578
MathWorks begin
bpage
%%EndPageSetup

%%BeginObject: obj1
bplot

/dpi2point 12 def
portraitMode 1044 6936 csm

    0     0  5045  3782 rc
85 dict begin %Colortable dictionary
/c0 { 0.000000 0.000000 0.000000 sr} bdef
/c1 { 1.000000 1.000000 1.000000 sr} bdef
/c2 { 0.900000 0.000000 0.000000 sr} bdef
/c3 { 0.000000 0.820000 0.000000 sr} bdef
/c4 { 0.000000 0.000000 0.800000 sr} bdef
/c5 { 0.910000 0.820000 0.320000 sr} bdef
/c6 { 1.000000 0.260000 0.820000 sr} bdef
/c7 { 0.000000 0.820000 0.820000 sr} bdef
c0
1 j
1 sg
   0    0 5046 3783 rf
6 w
0 3066 3910 0 0 -3066 656 3350 4 MP
PP
-3910 0 0 3066 3910 0 0 -3066 656 3350 5 MP stroke
4 w
DO
SO
6 w
0 sg
 656 3350 mt 4566 3350 L
 656 3350 mt  656  284 L
 656 3350 mt  656 3310 L
%%IncludeResource: font Helvetica
/Helvetica /WindowsLatin1Encoding 120 FMSR

 623 3495 mt 
(0) s
1047 3350 mt 1047 3310 L
1014 3495 mt 
(1) s
1438 3350 mt 1438 3310 L
1405 3495 mt 
(2) s
1829 3350 mt 1829 3310 L
1796 3495 mt 
(3) s
2220 3350 mt 2220 3310 L
2187 3495 mt 
(4) s
2611 3350 mt 2611 3310 L
2578 3495 mt 
(5) s
3002 3350 mt 3002 3310 L
2969 3495 mt 
(6) s
3393 3350 mt 3393 3310 L
3360 3495 mt 
(7) s
3784 3350 mt 3784 3310 L
3751 3495 mt 
(8) s
4175 3350 mt 4175 3310 L
4142 3495 mt 
(9) s
4566 3350 mt 4566 3310 L
4500 3495 mt 
(10) s
 656 3350 mt  695 3350 L
 555 3394 mt 
(0) s
 656 2941 mt  695 2941 L
 455 2985 mt 
(0.2) s
 656 2532 mt  695 2532 L
 455 2576 mt 
(0.4) s
 656 2123 mt  695 2123 L
 455 2167 mt 
(0.6) s
 656 1714 mt  695 1714 L
 455 1758 mt 
(0.8) s
 656 1306 mt  695 1306 L
 555 1350 mt 
(1) s
 656  897 mt  695  897 L
 455  941 mt 
(1.2) s
 656  488 mt  695  488 L
 455  532 mt 
(1.4) s
gs 656 284 3911 3067 rc
12 w
/c8 { 0.000000 0.000000 1.000000 sr} bdef
c8
34 0 8 0 57 0 142 1 14 0 40 0 44 0 9 0 
4 0 44 0 38 0 65 1 20 0 7 0 3 0 29 0 
8 0 5 0 11 0 165 1 22 0 25 0 1 0 38 0 
56 1 1 0 6 0 20 0 10 0 12 0 10 0 20 0 
5 0 43 1 15 0 42 0 19 0 1 0 20 1 4 0 
8 0 12 0 200 2 25 0 24 1 90 1 20 0 24 1 
43 0 5 0 62 2 5 0 12 0 24 0 19 1 1 0 
36 1 31 0 125 4 45 1 23 1 25 1 56 2 6 0 
21 1 6 0 76 4 25 1 62 3 78 5 41 3 153 14 
2 1 9 1 82 10 52 8 26 4 197 46 26 9 38 13 
16 6 59 27 84 50 189 198 47 84 59 138 132 544 39 270 
22 190 71 905 8 143 909 644 92 MP stroke
gr

12 w
c8
 873  644 mt  945  644 L
 909  608 mt  909  680 L
 881  787 mt  953  787 L
 917  751 mt  917  823 L
 952 1692 mt 1024 1692 L
 988 1656 mt  988 1728 L
 974 1882 mt 1046 1882 L
1010 1846 mt 1010 1918 L
1013 2152 mt 1085 2152 L
1049 2116 mt 1049 2188 L
1145 2696 mt 1217 2696 L
1181 2660 mt 1181 2732 L
1204 2834 mt 1276 2834 L
1240 2798 mt 1240 2870 L
1251 2918 mt 1323 2918 L
1287 2882 mt 1287 2954 L
1440 3116 mt 1512 3116 L
1476 3080 mt 1476 3152 L
1524 3166 mt 1596 3166 L
1560 3130 mt 1560 3202 L
1583 3193 mt 1655 3193 L
1619 3157 mt 1619 3229 L
1599 3199 mt 1671 3199 L
1635 3163 mt 1635 3235 L
1637 3212 mt 1709 3212 L
1673 3176 mt 1673 3248 L
1663 3221 mt 1735 3221 L
1699 3185 mt 1699 3257 L
1860 3267 mt 1932 3267 L
1896 3231 mt 1896 3303 L
1886 3271 mt 1958 3271 L
1922 3235 mt 1922 3307 L
1938 3279 mt 2010 3279 L
1974 3243 mt 1974 3315 L
2020 3289 mt 2092 3289 L
2056 3253 mt 2056 3325 L
2029 3290 mt 2101 3290 L
2065 3254 mt 2065 3326 L
2031 3291 mt 2103 3291 L
2067 3255 mt 2067 3327 L
2184 3305 mt 2256 3305 L
2220 3269 mt 2220 3341 L
2225 3308 mt 2297 3308 L
2261 3272 mt 2261 3344 L
2303 3313 mt 2375 3313 L
2339 3277 mt 2339 3349 L
2365 3316 mt 2437 3316 L
2401 3280 mt 2401 3352 L
2390 3317 mt 2462 3317 L
2426 3281 mt 2426 3353 L
2466 3321 mt 2538 3321 L
2502 3285 mt 2502 3357 L
2472 3321 mt 2544 3321 L
2508 3285 mt 2508 3357 L
2493 3322 mt 2565 3322 L
2529 3286 mt 2529 3358 L
2499 3322 mt 2571 3322 L
2535 3286 mt 2535 3358 L
2555 3324 mt 2627 3324 L
2591 3288 mt 2591 3360 L
2580 3325 mt 2652 3325 L
2616 3289 mt 2616 3361 L
2603 3326 mt 2675 3326 L
2639 3290 mt 2639 3362 L
2648 3327 mt 2720 3327 L
2684 3291 mt 2684 3363 L
2773 3331 mt 2845 3331 L
2809 3295 mt 2809 3367 L
2804 3331 mt 2876 3331 L
2840 3295 mt 2840 3367 L
2840 3332 mt 2912 3332 L
2876 3296 mt 2876 3368 L
2841 3332 mt 2913 3332 L
2877 3296 mt 2877 3368 L
2860 3333 mt 2932 3333 L
2896 3297 mt 2896 3369 L
2884 3333 mt 2956 3333 L
2920 3297 mt 2920 3369 L
2896 3333 mt 2968 3333 L
2932 3297 mt 2932 3369 L
2901 3333 mt 2973 3333 L
2937 3297 mt 2937 3369 L
2963 3335 mt 3035 3335 L
2999 3299 mt 2999 3371 L
2968 3335 mt 3040 3335 L
3004 3299 mt 3004 3371 L
3011 3335 mt 3083 3335 L
3047 3299 mt 3047 3371 L
3035 3336 mt 3107 3336 L
3071 3300 mt 3071 3372 L
3055 3336 mt 3127 3336 L
3091 3300 mt 3091 3372 L
3145 3337 mt 3217 3337 L
3181 3301 mt 3181 3373 L
3169 3338 mt 3241 3338 L
3205 3302 mt 3205 3374 L
3194 3338 mt 3266 3338 L
3230 3302 mt 3230 3374 L
3394 3340 mt 3466 3340 L
3430 3304 mt 3430 3376 L
3406 3340 mt 3478 3340 L
3442 3304 mt 3442 3376 L
3414 3340 mt 3486 3340 L
3450 3304 mt 3450 3376 L
3418 3340 mt 3490 3340 L
3454 3304 mt 3454 3376 L
3438 3341 mt 3510 3341 L
3474 3305 mt 3474 3377 L
3439 3341 mt 3511 3341 L
3475 3305 mt 3475 3377 L
3458 3341 mt 3530 3341 L
3494 3305 mt 3494 3377 L
3500 3341 mt 3572 3341 L
3536 3305 mt 3536 3377 L
3515 3341 mt 3587 3341 L
3551 3305 mt 3551 3377 L
3558 3342 mt 3630 3342 L
3594 3306 mt 3594 3378 L
3563 3342 mt 3635 3342 L
3599 3306 mt 3599 3378 L
3583 3342 mt 3655 3342 L
3619 3306 mt 3619 3378 L
3593 3342 mt 3665 3342 L
3629 3306 mt 3629 3378 L
3605 3342 mt 3677 3342 L
3641 3306 mt 3641 3378 L
3615 3342 mt 3687 3342 L
3651 3306 mt 3651 3378 L
3635 3342 mt 3707 3342 L
3671 3306 mt 3671 3378 L
3641 3342 mt 3713 3342 L
3677 3306 mt 3677 3378 L
3642 3342 mt 3714 3342 L
3678 3306 mt 3678 3378 L
3698 3343 mt 3770 3343 L
3734 3307 mt 3734 3379 L
3736 3343 mt 3808 3343 L
3772 3307 mt 3772 3379 L
3737 3343 mt 3809 3343 L
3773 3307 mt 3773 3379 L
3762 3343 mt 3834 3343 L
3798 3307 mt 3798 3379 L
3784 3343 mt 3856 3343 L
3820 3307 mt 3820 3379 L
3949 3344 mt 4021 3344 L
3985 3308 mt 3985 3380 L
3960 3344 mt 4032 3344 L
3996 3308 mt 3996 3380 L
3965 3344 mt 4037 3344 L
4001 3308 mt 4001 3380 L
3973 3344 mt 4045 3344 L
4009 3308 mt 4009 3380 L
4002 3344 mt 4074 3344 L
4038 3308 mt 4038 3380 L
4005 3344 mt 4077 3344 L
4041 3308 mt 4041 3380 L
4012 3344 mt 4084 3344 L
4048 3308 mt 4048 3380 L
4032 3344 mt 4104 3344 L
4068 3308 mt 4068 3380 L
4097 3345 mt 4169 3345 L
4133 3309 mt 4133 3381 L
4135 3345 mt 4207 3345 L
4171 3309 mt 4171 3381 L
4179 3345 mt 4251 3345 L
4215 3309 mt 4215 3381 L
4183 3345 mt 4255 3345 L
4219 3309 mt 4219 3381 L
4192 3345 mt 4264 3345 L
4228 3309 mt 4228 3381 L
4236 3345 mt 4308 3345 L
4272 3309 mt 4272 3381 L
4276 3345 mt 4348 3345 L
4312 3309 mt 4312 3381 L
4290 3345 mt 4362 3345 L
4326 3309 mt 4326 3381 L
4432 3346 mt 4504 3346 L
4468 3310 mt 4468 3382 L
4489 3346 mt 4561 3346 L
4525 3310 mt 4525 3382 L
4497 3346 mt 4569 3346 L
4533 3310 mt 4533 3382 L
 884  619 mt  934  669 L
 934  619 mt  884  669 L
 892  762 mt  942  812 L
 942  762 mt  892  812 L
 963 1667 mt 1013 1717 L
1013 1667 mt  963 1717 L
 985 1857 mt 1035 1907 L
1035 1857 mt  985 1907 L
1024 2127 mt 1074 2177 L
1074 2127 mt 1024 2177 L
1156 2671 mt 1206 2721 L
1206 2671 mt 1156 2721 L
1215 2809 mt 1265 2859 L
1265 2809 mt 1215 2859 L
1262 2893 mt 1312 2943 L
1312 2893 mt 1262 2943 L
1451 3091 mt 1501 3141 L
1501 3091 mt 1451 3141 L
1535 3141 mt 1585 3191 L
1585 3141 mt 1535 3191 L
1594 3168 mt 1644 3218 L
1644 3168 mt 1594 3218 L
1610 3174 mt 1660 3224 L
1660 3174 mt 1610 3224 L
1648 3187 mt 1698 3237 L
1698 3187 mt 1648 3237 L
1674 3196 mt 1724 3246 L
1724 3196 mt 1674 3246 L
1871 3242 mt 1921 3292 L
1921 3242 mt 1871 3292 L
1897 3246 mt 1947 3296 L
1947 3246 mt 1897 3296 L
1949 3254 mt 1999 3304 L
1999 3254 mt 1949 3304 L
2031 3264 mt 2081 3314 L
2081 3264 mt 2031 3314 L
2040 3265 mt 2090 3315 L
2090 3265 mt 2040 3315 L
2042 3266 mt 2092 3316 L
2092 3266 mt 2042 3316 L
2195 3280 mt 2245 3330 L
2245 3280 mt 2195 3330 L
2236 3283 mt 2286 3333 L
2286 3283 mt 2236 3333 L
2314 3288 mt 2364 3338 L
2364 3288 mt 2314 3338 L
2376 3291 mt 2426 3341 L
2426 3291 mt 2376 3341 L
2401 3292 mt 2451 3342 L
2451 3292 mt 2401 3342 L
2477 3296 mt 2527 3346 L
2527 3296 mt 2477 3346 L
2483 3296 mt 2533 3346 L
2533 3296 mt 2483 3346 L
2504 3297 mt 2554 3347 L
2554 3297 mt 2504 3347 L
2510 3297 mt 2560 3347 L
2560 3297 mt 2510 3347 L
2566 3299 mt 2616 3349 L
2616 3299 mt 2566 3349 L
2591 3300 mt 2641 3350 L
2641 3300 mt 2591 3350 L
2614 3301 mt 2664 3351 L
2664 3301 mt 2614 3351 L
2659 3302 mt 2709 3352 L
2709 3302 mt 2659 3352 L
2784 3306 mt 2834 3356 L
2834 3306 mt 2784 3356 L
2815 3306 mt 2865 3356 L
2865 3306 mt 2815 3356 L
2851 3307 mt 2901 3357 L
2901 3307 mt 2851 3357 L
2852 3307 mt 2902 3357 L
2902 3307 mt 2852 3357 L
2871 3308 mt 2921 3358 L
2921 3308 mt 2871 3358 L
2895 3308 mt 2945 3358 L
2945 3308 mt 2895 3358 L
2907 3308 mt 2957 3358 L
2957 3308 mt 2907 3358 L
2912 3308 mt 2962 3358 L
2962 3308 mt 2912 3358 L
2974 3310 mt 3024 3360 L
3024 3310 mt 2974 3360 L
2979 3310 mt 3029 3360 L
3029 3310 mt 2979 3360 L
3022 3310 mt 3072 3360 L
3072 3310 mt 3022 3360 L
3046 3311 mt 3096 3361 L
3096 3311 mt 3046 3361 L
3066 3311 mt 3116 3361 L
3116 3311 mt 3066 3361 L
3156 3312 mt 3206 3362 L
3206 3312 mt 3156 3362 L
3180 3313 mt 3230 3363 L
3230 3313 mt 3180 3363 L
3205 3313 mt 3255 3363 L
3255 3313 mt 3205 3363 L
3405 3315 mt 3455 3365 L
3455 3315 mt 3405 3365 L
3417 3315 mt 3467 3365 L
3467 3315 mt 3417 3365 L
3425 3315 mt 3475 3365 L
3475 3315 mt 3425 3365 L
3429 3315 mt 3479 3365 L
3479 3315 mt 3429 3365 L
3449 3316 mt 3499 3366 L
3499 3316 mt 3449 3366 L
3450 3316 mt 3500 3366 L
3500 3316 mt 3450 3366 L
3469 3316 mt 3519 3366 L
3519 3316 mt 3469 3366 L
3511 3316 mt 3561 3366 L
3561 3316 mt 3511 3366 L
3526 3316 mt 3576 3366 L
3576 3316 mt 3526 3366 L
3569 3317 mt 3619 3367 L
3619 3317 mt 3569 3367 L
3574 3317 mt 3624 3367 L
3624 3317 mt 3574 3367 L
3594 3317 mt 3644 3367 L
3644 3317 mt 3594 3367 L
3604 3317 mt 3654 3367 L
3654 3317 mt 3604 3367 L
3616 3317 mt 3666 3367 L
3666 3317 mt 3616 3367 L
3626 3317 mt 3676 3367 L
3676 3317 mt 3626 3367 L
3646 3317 mt 3696 3367 L
3696 3317 mt 3646 3367 L
3652 3317 mt 3702 3367 L
3702 3317 mt 3652 3367 L
3653 3317 mt 3703 3367 L
3703 3317 mt 3653 3367 L
3709 3318 mt 3759 3368 L
3759 3318 mt 3709 3368 L
3747 3318 mt 3797 3368 L
3797 3318 mt 3747 3368 L
3748 3318 mt 3798 3368 L
3798 3318 mt 3748 3368 L
3773 3318 mt 3823 3368 L
3823 3318 mt 3773 3368 L
3795 3318 mt 3845 3368 L
3845 3318 mt 3795 3368 L
3960 3319 mt 4010 3369 L
4010 3319 mt 3960 3369 L
3971 3319 mt 4021 3369 L
4021 3319 mt 3971 3369 L
3976 3319 mt 4026 3369 L
4026 3319 mt 3976 3369 L
3984 3319 mt 4034 3369 L
4034 3319 mt 3984 3369 L
4013 3319 mt 4063 3369 L
4063 3319 mt 4013 3369 L
4016 3319 mt 4066 3369 L
4066 3319 mt 4016 3369 L
4023 3319 mt 4073 3369 L
4073 3319 mt 4023 3369 L
4043 3319 mt 4093 3369 L
4093 3319 mt 4043 3369 L
4108 3320 mt 4158 3370 L
4158 3320 mt 4108 3370 L
4146 3320 mt 4196 3370 L
4196 3320 mt 4146 3370 L
4190 3320 mt 4240 3370 L
4240 3320 mt 4190 3370 L
4194 3320 mt 4244 3370 L
4244 3320 mt 4194 3370 L
4203 3320 mt 4253 3370 L
4253 3320 mt 4203 3370 L
4247 3320 mt 4297 3370 L
4297 3320 mt 4247 3370 L
4287 3320 mt 4337 3370 L
4337 3320 mt 4287 3370 L
4301 3320 mt 4351 3370 L
4351 3320 mt 4301 3370 L
4443 3321 mt 4493 3371 L
4493 3321 mt 4443 3371 L
4500 3321 mt 4550 3371 L
4550 3321 mt 4500 3371 L
4508 3321 mt 4558 3371 L
4558 3321 mt 4508 3371 L
gs 656 284 3911 3067 rc
/c9 { 1.000000 0.000000 0.000000 sr} bdef
c9
34 0 8 1 57 0 142 0 14 0 40 0 44 0 9 0 
4 0 44 0 38 0 65 0 20 1 7 0 3 0 29 0 
8 0 5 0 11 0 165 0 22 0 25 0 1 0 38 0 
56 0 1 0 6 1 20 0 10 0 12 0 10 0 20 0 
5 0 43 0 15 0 42 0 19 0 1 0 20 0 4 1 
8 0 12 0 200 0 25 0 24 0 90 0 20 0 24 0 
43 1 5 0 62 0 5 0 12 0 24 0 19 0 1 1 
36 0 31 0 125 0 45 0 0 1 23 0 25 0 56 0 
6 0 21 1 6 0 76 8 25 1 62 0 78 3 41 0 
153 2 2 5 9 -1 0 16 82 10 52 2 26 5 197 25 
26 17 38 27 16 8 59 10 84 69 189 195 47 54 59 192 
132 520 39 286 22 158 71 888 8 230 909 609 94 MP stroke
gr

c9
  36   36  909  609 FO
  36   36  917  839 FO
  36   36  988 1727 FO
  36   36 1010 1885 FO
  36   36 1049 2171 FO
  36   36 1181 2691 FO
  36   36 1240 2883 FO
  36   36 1287 2937 FO
  36   36 1476 3132 FO
  36   36 1560 3201 FO
  36   36 1619 3211 FO
  36   36 1635 3219 FO
  36   36 1673 3246 FO
  36   36 1699 3263 FO
  36   36 1896 3288 FO
  36   36 1922 3293 FO
  36   36 1974 3295 FO
  36   36 2056 3305 FO
  36   36 2056 3321 FO
  36   36 2065 3320 FO
  36   36 2067 3325 FO
  36   36 2220 3327 FO
  36   36 2261 3327 FO
  36   36 2339 3330 FO
  36   36 2401 3330 FO
  36   36 2426 3331 FO
  36   36 2502 3339 FO
  36   36 2508 3339 FO
  36   36 2529 3340 FO
  36   36 2535 3340 FO
  36   36 2591 3340 FO
  36   36 2616 3340 FO
  36   36 2639 3340 FO
  36   36 2639 3341 FO
  36   36 2684 3341 FO
  36   36 2809 3341 FO
  36   36 2840 3341 FO
  36   36 2876 3341 FO
  36   36 2877 3342 FO
  36   36 2896 3342 FO
  36   36 2920 3342 FO
  36   36 2932 3342 FO
  36   36 2937 3342 FO
  36   36 2999 3342 FO
  36   36 3004 3342 FO
  36   36 3047 3343 FO
  36   36 3071 3343 FO
  36   36 3091 3343 FO
  36   36 3181 3343 FO
  36   36 3205 3343 FO
  36   36 3230 3343 FO
  36   36 3430 3343 FO
  36   36 3442 3343 FO
  36   36 3450 3343 FO
  36   36 3454 3344 FO
  36   36 3474 3344 FO
  36   36 3475 3344 FO
  36   36 3494 3344 FO
  36   36 3536 3344 FO
  36   36 3551 3344 FO
  36   36 3594 3344 FO
  36   36 3599 3344 FO
  36   36 3619 3344 FO
  36   36 3629 3344 FO
  36   36 3641 3344 FO
  36   36 3651 3344 FO
  36   36 3671 3344 FO
  36   36 3677 3345 FO
  36   36 3678 3345 FO
  36   36 3734 3345 FO
  36   36 3772 3345 FO
  36   36 3773 3345 FO
  36   36 3798 3345 FO
  36   36 3820 3345 FO
  36   36 3985 3345 FO
  36   36 3996 3345 FO
  36   36 4001 3345 FO
  36   36 4009 3345 FO
  36   36 4038 3345 FO
  36   36 4041 3345 FO
  36   36 4048 3345 FO
  36   36 4068 3346 FO
  36   36 4133 3346 FO
  36   36 4171 3346 FO
  36   36 4215 3346 FO
  36   36 4219 3346 FO
  36   36 4228 3346 FO
  36   36 4272 3346 FO
  36   36 4312 3346 FO
  36   36 4326 3346 FO
  36   36 4468 3346 FO
  36   36 4525 3346 FO
  36   36 4533 3347 FO
gs 656 284 3911 3067 rc
gr

0 sg
%%IncludeResource: font Helvetica
/Helvetica /WindowsLatin1Encoding 240 FMSR

1750 3726 mt 
(Distance \(Hops\)) s
 346 3107 mt  -90 rotate
(Interference Value \(mW\)) s
90 rotate
%%IncludeResource: font Helvetica
/Helvetica /WindowsLatin1Encoding 120 FMSR

 639 3393 mt 
( ) s
4550  326 mt 
( ) s
6 w
1 sg
0 334 2004 0 0 -334 2503 678 4 MP
PP
-2004 0 0 334 2004 0 0 -334 2503 678 5 MP stroke
4 w
DO
SO
6 w
0 sg
2503  344 mt 4507  344 L
2503  678 mt 4507  678 L
4507  678 mt 4507  344 L
2503  678 mt 2503  344 L
2503  678 mt 4507  678 L
2503  678 mt 2503  344 L
2503  344 mt 4507  344 L
2503  678 mt 4507  678 L
4507  678 mt 4507  344 L
2503  678 mt 2503  344 L
2979  479 mt 
(Original Interference Values) s
gs 2503 344 2005 335 rc
12 w
c8
366 0 2576 436 2 MP stroke
gs 2686 363 147 147 rc
2723  436 mt 2795  436 L
2759  400 mt 2759  472 L
2734  411 mt 2784  461 L
2784  411 mt 2734  461 L
gr

gr

12 w
c8
0 sg
2979  628 mt 
(Recover Interference Values) s
gs 2503 344 2005 335 rc
c9
366 0 2576 585 2 MP stroke
gs 2686 512 147 147 rc
  36   36 2759  585 FO
gr

6 w
gr

6 w
c9

end %%Color Dict

eplot
%%EndObject

epage
end

showpage

%%Trailer
%%EOF
