%!PS-Adobe-3.0 EPSF-3.0
%%Creator: MATLAB, The Mathworks, Inc. Version 7.5.0.342 (R2007b). Operating System: Microsoft Windows XP.
%%Title: H:\Research\Papers\Interference\paper\script1.2\MR_60.eps
%%CreationDate: 07/06/2012  13:50:31
%%DocumentNeededFonts: Helvetica
%%DocumentProcessColors: Cyan Magenta Yellow Black
%%LanguageLevel: 2
%%Pages: 1
%%BoundingBox:    87   262   507   578
%%EndComments

%%BeginProlog
% MathWorks dictionary
/MathWorks 160 dict begin
% definition operators
/bdef {bind def} bind def
/ldef {load def} bind def
/xdef {exch def} bdef
/xstore {exch store} bdef
% operator abbreviations
/c  /clip ldef
/cc /concat ldef
/cp /closepath ldef
/gr /grestore ldef
/gs /gsave ldef
/mt /moveto ldef
/np /newpath ldef
/cm /currentmatrix ldef
/sm /setmatrix ldef
/rm /rmoveto ldef
/rl /rlineto ldef
/s {show newpath} bdef
/sc {setcmykcolor} bdef
/sr /setrgbcolor ldef
/sg /setgray ldef
/w /setlinewidth ldef
/j /setlinejoin ldef
/cap /setlinecap ldef
/rc {rectclip} bdef
/rf {rectfill} bdef
% page state control
/pgsv () def
/bpage {/pgsv save def} bdef
/epage {pgsv restore} bdef
/bplot /gsave ldef
/eplot {stroke grestore} bdef
% orientation switch
/portraitMode 0 def /landscapeMode 1 def /rotateMode 2 def
% coordinate system mappings
/dpi2point 0 def
% font control
/FontSize 0 def
/FMS {/FontSize xstore findfont [FontSize 0 0 FontSize neg 0 0]
  makefont setfont} bdef
/ISOLatin1Encoding where {pop /WindowsLatin1Encoding 256 array bdef
ISOLatin1Encoding WindowsLatin1Encoding copy pop
/.notdef/.notdef/quotesinglbase/florin/quotedblbase/ellipsis/dagger
/daggerdbl/circumflex/perthousand/Scaron/guilsinglleft/OE/.notdef/.notdef
/.notdef/.notdef/quoteleft/quoteright/quotedblleft/quotedblright/bullet
/endash/emdash/tilde/trademark/scaron/guilsinglright/oe/.notdef/.notdef
/Ydieresis WindowsLatin1Encoding 128 32 getinterval astore pop}
{/WindowsLatin1Encoding StandardEncoding bdef} ifelse
/reencode {exch dup where {pop load} {pop StandardEncoding} ifelse
  exch dup 3 1 roll findfont dup length dict begin
  { 1 index /FID ne {def}{pop pop} ifelse } forall
  /Encoding exch def currentdict end definefont pop} bdef
/isroman {findfont /CharStrings get /Agrave known} bdef
/FMSR {3 1 roll 1 index dup isroman {reencode} {pop pop} ifelse
  exch FMS} bdef
/csm {1 dpi2point div -1 dpi2point div scale neg translate
 dup landscapeMode eq {pop -90 rotate}
  {rotateMode eq {90 rotate} if} ifelse} bdef
% line types: solid, dotted, dashed, dotdash
/SO { [] 0 setdash } bdef
/DO { [.5 dpi2point mul 4 dpi2point mul] 0 setdash } bdef
/DA { [6 dpi2point mul] 0 setdash } bdef
/DD { [.5 dpi2point mul 4 dpi2point mul 6 dpi2point mul 4
  dpi2point mul] 0 setdash } bdef
% macros for lines and objects
/L {lineto stroke} bdef
/MP {3 1 roll moveto 1 sub {rlineto} repeat} bdef
/AP {{rlineto} repeat} bdef
/PDlw -1 def
/W {/PDlw currentlinewidth def setlinewidth} def
/PP {closepath eofill} bdef
/DP {closepath stroke} bdef
/MR {4 -2 roll moveto dup  0 exch rlineto exch 0 rlineto
  neg 0 exch rlineto closepath} bdef
/FR {MR stroke} bdef
/PR {MR fill} bdef
/L1i {{currentfile picstr readhexstring pop} image} bdef
/tMatrix matrix def
/MakeOval {newpath tMatrix currentmatrix pop translate scale
0 0 1 0 360 arc tMatrix setmatrix} bdef
/FO {MakeOval stroke} bdef
/PO {MakeOval fill} bdef
/PD {currentlinewidth 2 div 0 360 arc fill
   PDlw -1 eq not {PDlw w /PDlw -1 def} if} def
/FA {newpath tMatrix currentmatrix pop translate scale
  0 0 1 5 -2 roll arc tMatrix setmatrix stroke} bdef
/PA {newpath tMatrix currentmatrix pop	translate 0 0 moveto scale
  0 0 1 5 -2 roll arc closepath tMatrix setmatrix fill} bdef
/FAn {newpath tMatrix currentmatrix pop translate scale
  0 0 1 5 -2 roll arcn tMatrix setmatrix stroke} bdef
/PAn {newpath tMatrix currentmatrix pop translate 0 0 moveto scale
  0 0 1 5 -2 roll arcn closepath tMatrix setmatrix fill} bdef
/vradius 0 def /hradius 0 def /lry 0 def
/lrx 0 def /uly 0 def /ulx 0 def /rad 0 def
/MRR {/vradius xdef /hradius xdef /lry xdef /lrx xdef /uly xdef
  /ulx xdef newpath tMatrix currentmatrix pop ulx hradius add uly
  vradius add translate hradius vradius scale 0 0 1 180 270 arc 
  tMatrix setmatrix lrx hradius sub uly vradius add translate
  hradius vradius scale 0 0 1 270 360 arc tMatrix setmatrix
  lrx hradius sub lry vradius sub translate hradius vradius scale
  0 0 1 0 90 arc tMatrix setmatrix ulx hradius add lry vradius sub
  translate hradius vradius scale 0 0 1 90 180 arc tMatrix setmatrix
  closepath} bdef
/FRR {MRR stroke } bdef
/PRR {MRR fill } bdef
/MlrRR {/lry xdef /lrx xdef /uly xdef /ulx xdef /rad lry uly sub 2 div def
  newpath tMatrix currentmatrix pop ulx rad add uly rad add translate
  rad rad scale 0 0 1 90 270 arc tMatrix setmatrix lrx rad sub lry rad
  sub translate rad rad scale 0 0 1 270 90 arc tMatrix setmatrix
  closepath} bdef
/FlrRR {MlrRR stroke } bdef
/PlrRR {MlrRR fill } bdef
/MtbRR {/lry xdef /lrx xdef /uly xdef /ulx xdef /rad lrx ulx sub 2 div def
  newpath tMatrix currentmatrix pop ulx rad add uly rad add translate
  rad rad scale 0 0 1 180 360 arc tMatrix setmatrix lrx rad sub lry rad
  sub translate rad rad scale 0 0 1 0 180 arc tMatrix setmatrix
  closepath} bdef
/FtbRR {MtbRR stroke } bdef
/PtbRR {MtbRR fill } bdef
/stri 6 array def /dtri 6 array def
/smat 6 array def /dmat 6 array def
/tmat1 6 array def /tmat2 6 array def /dif 3 array def
/asub {/ind2 exch def /ind1 exch def dup dup
  ind1 get exch ind2 get sub exch } bdef
/tri_to_matrix {
  2 0 asub 3 1 asub 4 0 asub 5 1 asub
  dup 0 get exch 1 get 7 -1 roll astore } bdef
/compute_transform {
  dmat dtri tri_to_matrix tmat1 invertmatrix 
  smat stri tri_to_matrix tmat2 concatmatrix } bdef
/ds {stri astore pop} bdef
/dt {dtri astore pop} bdef
/db {2 copy /cols xdef /rows xdef mul dup 3 mul string
  currentfile 
  3 index 0 eq {/ASCIIHexDecode filter}
  {/ASCII85Decode filter 3 index 2 eq {/RunLengthDecode filter} if }
  ifelse exch readstring pop
  dup 0 3 index getinterval /rbmap xdef
  dup 2 index dup getinterval /gbmap xdef
  1 index dup 2 mul exch getinterval /bbmap xdef pop pop}bdef
/it {gs np dtri aload pop moveto lineto lineto cp c
  cols rows 8 compute_transform 
  rbmap gbmap bbmap true 3 colorimage gr}bdef
/il {newpath moveto lineto stroke}bdef
currentdict end def
%%EndProlog

%%BeginSetup
MathWorks begin

0 cap

end
%%EndSetup

%%Page: 1 1
%%BeginPageSetup
%%PageBoundingBox:    87   262   507   578
MathWorks begin
bpage
%%EndPageSetup

%%BeginObject: obj1
bplot

/dpi2point 12 def
portraitMode 1044 6936 csm

    0     0  5045  3782 rc
85 dict begin %Colortable dictionary
/c0 { 0.000000 0.000000 0.000000 sr} bdef
/c1 { 1.000000 1.000000 1.000000 sr} bdef
/c2 { 0.900000 0.000000 0.000000 sr} bdef
/c3 { 0.000000 0.820000 0.000000 sr} bdef
/c4 { 0.000000 0.000000 0.800000 sr} bdef
/c5 { 0.910000 0.820000 0.320000 sr} bdef
/c6 { 1.000000 0.260000 0.820000 sr} bdef
/c7 { 0.000000 0.820000 0.820000 sr} bdef
c0
1 j
1 sg
   0    0 5046 3783 rf
6 w
0 3066 3910 0 0 -3066 656 3350 4 MP
PP
-3910 0 0 3066 3910 0 0 -3066 656 3350 5 MP stroke
4 w
DO
SO
6 w
0 sg
 656 3350 mt 4566 3350 L
 656 3350 mt  656  284 L
 656 3350 mt  656 3310 L
%%IncludeResource: font Helvetica
/Helvetica /WindowsLatin1Encoding 120 FMSR

 623 3495 mt 
(0) s
1047 3350 mt 1047 3310 L
1014 3495 mt 
(1) s
1438 3350 mt 1438 3310 L
1405 3495 mt 
(2) s
1829 3350 mt 1829 3310 L
1796 3495 mt 
(3) s
2220 3350 mt 2220 3310 L
2187 3495 mt 
(4) s
2611 3350 mt 2611 3310 L
2578 3495 mt 
(5) s
3002 3350 mt 3002 3310 L
2969 3495 mt 
(6) s
3393 3350 mt 3393 3310 L
3360 3495 mt 
(7) s
3784 3350 mt 3784 3310 L
3751 3495 mt 
(8) s
4175 3350 mt 4175 3310 L
4142 3495 mt 
(9) s
4566 3350 mt 4566 3310 L
4500 3495 mt 
(10) s
 656 3350 mt  695 3350 L
 555 3394 mt 
(0) s
 656 2941 mt  695 2941 L
 455 2985 mt 
(0.2) s
 656 2532 mt  695 2532 L
 455 2576 mt 
(0.4) s
 656 2123 mt  695 2123 L
 455 2167 mt 
(0.6) s
 656 1714 mt  695 1714 L
 455 1758 mt 
(0.8) s
 656 1306 mt  695 1306 L
 555 1350 mt 
(1) s
 656  897 mt  695  897 L
 455  941 mt 
(1.2) s
 656  488 mt  695  488 L
 455  532 mt 
(1.4) s
gs 656 284 3911 3067 rc
12 w
/c8 { 0.000000 0.000000 1.000000 sr} bdef
c8
75 0 81 1 13 0 42 0 8 0 2 1 21 0 39 0 
9 0 22 0 18 1 5 0 15 0 141 1 131 2 36 1 
31 0 5 1 66 1 22 0 36 1 60 1 8 1 14 0 
24 1 8 0 81 2 46 2 17 0 9 0 54 2 114 5 
42 2 140 9 7 1 60 4 84 8 17 2 81 9 182 31 
17 4 4 0 37 9 117 37 64 26 27 14 30 16 27 16 
36 25 9 6 48 41 114 137 49 87 73 175 29 92 5 19 
125 681 106 1356 10 199 892 312 60 MP stroke
gr

12 w
c8
 856  312 mt  928  312 L
 892  276 mt  892  348 L
 866  511 mt  938  511 L
 902  475 mt  902  547 L
 972 1867 mt 1044 1867 L
1008 1831 mt 1008 1903 L
1097 2548 mt 1169 2548 L
1133 2512 mt 1133 2584 L
1102 2567 mt 1174 2567 L
1138 2531 mt 1138 2603 L
1131 2659 mt 1203 2659 L
1167 2623 mt 1167 2695 L
1204 2834 mt 1276 2834 L
1240 2798 mt 1240 2870 L
1253 2921 mt 1325 2921 L
1289 2885 mt 1289 2957 L
1367 3058 mt 1439 3058 L
1403 3022 mt 1403 3094 L
1415 3099 mt 1487 3099 L
1451 3063 mt 1451 3135 L
1424 3105 mt 1496 3105 L
1460 3069 mt 1460 3141 L
1460 3130 mt 1532 3130 L
1496 3094 mt 1496 3166 L
1487 3146 mt 1559 3146 L
1523 3110 mt 1523 3182 L
1517 3162 mt 1589 3162 L
1553 3126 mt 1553 3198 L
1544 3176 mt 1616 3176 L
1580 3140 mt 1580 3212 L
1608 3202 mt 1680 3202 L
1644 3166 mt 1644 3238 L
1725 3239 mt 1797 3239 L
1761 3203 mt 1761 3275 L
1762 3248 mt 1834 3248 L
1798 3212 mt 1798 3284 L
1766 3248 mt 1838 3248 L
1802 3212 mt 1802 3284 L
1783 3252 mt 1855 3252 L
1819 3216 mt 1819 3288 L
1965 3283 mt 2037 3283 L
2001 3247 mt 2001 3319 L
2046 3292 mt 2118 3292 L
2082 3256 mt 2082 3328 L
2063 3294 mt 2135 3294 L
2099 3258 mt 2099 3330 L
2147 3302 mt 2219 3302 L
2183 3266 mt 2183 3338 L
2207 3306 mt 2279 3306 L
2243 3270 mt 2243 3342 L
2214 3307 mt 2286 3307 L
2250 3271 mt 2250 3343 L
2354 3316 mt 2426 3316 L
2390 3280 mt 2390 3352 L
2396 3318 mt 2468 3318 L
2432 3282 mt 2432 3354 L
2510 3323 mt 2582 3323 L
2546 3287 mt 2546 3359 L
2564 3325 mt 2636 3325 L
2600 3289 mt 2600 3361 L
2573 3325 mt 2645 3325 L
2609 3289 mt 2609 3361 L
2590 3325 mt 2662 3325 L
2626 3289 mt 2626 3361 L
2636 3327 mt 2708 3327 L
2672 3291 mt 2672 3363 L
2717 3329 mt 2789 3329 L
2753 3293 mt 2753 3365 L
2725 3329 mt 2797 3329 L
2761 3293 mt 2761 3365 L
2749 3330 mt 2821 3330 L
2785 3294 mt 2785 3366 L
2763 3330 mt 2835 3330 L
2799 3294 mt 2799 3366 L
2771 3331 mt 2843 3331 L
2807 3295 mt 2807 3367 L
2831 3332 mt 2903 3332 L
2867 3296 mt 2867 3368 L
2867 3333 mt 2939 3333 L
2903 3297 mt 2903 3369 L
2889 3333 mt 2961 3333 L
2925 3297 mt 2925 3369 L
2955 3334 mt 3027 3334 L
2991 3298 mt 2991 3370 L
2960 3335 mt 3032 3335 L
2996 3299 mt 2996 3371 L
2991 3335 mt 3063 3335 L
3027 3299 mt 3027 3371 L
3027 3336 mt 3099 3336 L
3063 3300 mt 3063 3372 L
3158 3338 mt 3230 3338 L
3194 3302 mt 3194 3374 L
3299 3339 mt 3371 3339 L
3335 3303 mt 3335 3375 L
3314 3339 mt 3386 3339 L
3350 3303 mt 3350 3375 L
3319 3339 mt 3391 3339 L
3355 3303 mt 3355 3375 L
3337 3340 mt 3409 3340 L
3373 3304 mt 3373 3376 L
3359 3340 mt 3431 3340 L
3395 3304 mt 3395 3376 L
3368 3340 mt 3440 3340 L
3404 3304 mt 3404 3376 L
3407 3340 mt 3479 3340 L
3443 3304 mt 3443 3376 L
3428 3340 mt 3500 3340 L
3464 3304 mt 3464 3376 L
3430 3341 mt 3502 3341 L
3466 3305 mt 3466 3377 L
3438 3341 mt 3510 3341 L
3474 3305 mt 3474 3377 L
3480 3341 mt 3552 3341 L
3516 3305 mt 3516 3377 L
3493 3341 mt 3565 3341 L
3529 3305 mt 3529 3377 L
3574 3342 mt 3646 3342 L
3610 3306 mt 3610 3378 L
3649 3342 mt 3721 3342 L
3685 3306 mt 3685 3378 L
 867  287 mt  917  337 L
 917  287 mt  867  337 L
 877  486 mt  927  536 L
 927  486 mt  877  536 L
 983 1842 mt 1033 1892 L
1033 1842 mt  983 1892 L
1108 2523 mt 1158 2573 L
1158 2523 mt 1108 2573 L
1113 2542 mt 1163 2592 L
1163 2542 mt 1113 2592 L
1142 2634 mt 1192 2684 L
1192 2634 mt 1142 2684 L
1215 2809 mt 1265 2859 L
1265 2809 mt 1215 2859 L
1264 2896 mt 1314 2946 L
1314 2896 mt 1264 2946 L
1378 3033 mt 1428 3083 L
1428 3033 mt 1378 3083 L
1426 3074 mt 1476 3124 L
1476 3074 mt 1426 3124 L
1435 3080 mt 1485 3130 L
1485 3080 mt 1435 3130 L
1471 3105 mt 1521 3155 L
1521 3105 mt 1471 3155 L
1498 3121 mt 1548 3171 L
1548 3121 mt 1498 3171 L
1528 3137 mt 1578 3187 L
1578 3137 mt 1528 3187 L
1555 3151 mt 1605 3201 L
1605 3151 mt 1555 3201 L
1619 3177 mt 1669 3227 L
1669 3177 mt 1619 3227 L
1736 3214 mt 1786 3264 L
1786 3214 mt 1736 3264 L
1773 3223 mt 1823 3273 L
1823 3223 mt 1773 3273 L
1777 3223 mt 1827 3273 L
1827 3223 mt 1777 3273 L
1794 3227 mt 1844 3277 L
1844 3227 mt 1794 3277 L
1976 3258 mt 2026 3308 L
2026 3258 mt 1976 3308 L
2057 3267 mt 2107 3317 L
2107 3267 mt 2057 3317 L
2074 3269 mt 2124 3319 L
2124 3269 mt 2074 3319 L
2158 3277 mt 2208 3327 L
2208 3277 mt 2158 3327 L
2218 3281 mt 2268 3331 L
2268 3281 mt 2218 3331 L
2225 3282 mt 2275 3332 L
2275 3282 mt 2225 3332 L
2365 3291 mt 2415 3341 L
2415 3291 mt 2365 3341 L
2407 3293 mt 2457 3343 L
2457 3293 mt 2407 3343 L
2521 3298 mt 2571 3348 L
2571 3298 mt 2521 3348 L
2575 3300 mt 2625 3350 L
2625 3300 mt 2575 3350 L
2584 3300 mt 2634 3350 L
2634 3300 mt 2584 3350 L
2601 3300 mt 2651 3350 L
2651 3300 mt 2601 3350 L
2647 3302 mt 2697 3352 L
2697 3302 mt 2647 3352 L
2728 3304 mt 2778 3354 L
2778 3304 mt 2728 3354 L
2736 3304 mt 2786 3354 L
2786 3304 mt 2736 3354 L
2760 3305 mt 2810 3355 L
2810 3305 mt 2760 3355 L
2774 3305 mt 2824 3355 L
2824 3305 mt 2774 3355 L
2782 3306 mt 2832 3356 L
2832 3306 mt 2782 3356 L
2842 3307 mt 2892 3357 L
2892 3307 mt 2842 3357 L
2878 3308 mt 2928 3358 L
2928 3308 mt 2878 3358 L
2900 3308 mt 2950 3358 L
2950 3308 mt 2900 3358 L
2966 3309 mt 3016 3359 L
3016 3309 mt 2966 3359 L
2971 3310 mt 3021 3360 L
3021 3310 mt 2971 3360 L
3002 3310 mt 3052 3360 L
3052 3310 mt 3002 3360 L
3038 3311 mt 3088 3361 L
3088 3311 mt 3038 3361 L
3169 3313 mt 3219 3363 L
3219 3313 mt 3169 3363 L
3310 3314 mt 3360 3364 L
3360 3314 mt 3310 3364 L
3325 3314 mt 3375 3364 L
3375 3314 mt 3325 3364 L
3330 3314 mt 3380 3364 L
3380 3314 mt 3330 3364 L
3348 3315 mt 3398 3365 L
3398 3315 mt 3348 3365 L
3370 3315 mt 3420 3365 L
3420 3315 mt 3370 3365 L
3379 3315 mt 3429 3365 L
3429 3315 mt 3379 3365 L
3418 3315 mt 3468 3365 L
3468 3315 mt 3418 3365 L
3439 3315 mt 3489 3365 L
3489 3315 mt 3439 3365 L
3441 3316 mt 3491 3366 L
3491 3316 mt 3441 3366 L
3449 3316 mt 3499 3366 L
3499 3316 mt 3449 3366 L
3491 3316 mt 3541 3366 L
3541 3316 mt 3491 3366 L
3504 3316 mt 3554 3366 L
3554 3316 mt 3504 3366 L
3585 3317 mt 3635 3367 L
3635 3317 mt 3585 3367 L
3660 3317 mt 3710 3367 L
3710 3317 mt 3660 3367 L
gs 656 284 3911 3067 rc
/c9 { 1.000000 0.000000 0.000000 sr} bdef
c9
13 0 42 1 8 0 2 0 21 0 39 0 9 0 22 0 
18 0 5 1 15 0 141 0 131 0 36 0 31 1 5 0 
66 0 22 0 36 0 60 1 8 0 14 1 24 0 8 0 
81 1 46 0 17 1 9 0 54 0 114 1 42 0 140 2 
7 0 60 1 84 1 17 1 81 16 182 5 17 18 4 2 
37 2 117 27 64 27 27 47 30 6 27 6 36 28 9 4 
48 54 114 120 49 50 73 175 29 72 5 39 125 590 106 1502 
10 216 892 323 58 MP stroke
gr

c9
  36   36  892  323 FO
  36   36  902  539 FO
  36   36 1008 2041 FO
  36   36 1133 2631 FO
  36   36 1138 2670 FO
  36   36 1167 2742 FO
  36   36 1240 2917 FO
  36   36 1289 2967 FO
  36   36 1403 3087 FO
  36   36 1451 3141 FO
  36   36 1460 3145 FO
  36   36 1496 3173 FO
  36   36 1523 3179 FO
  36   36 1553 3185 FO
  36   36 1580 3232 FO
  36   36 1644 3259 FO
  36   36 1761 3286 FO
  36   36 1798 3288 FO
  36   36 1802 3290 FO
  36   36 1819 3308 FO
  36   36 2001 3313 FO
  36   36 2082 3329 FO
  36   36 2099 3330 FO
  36   36 2183 3331 FO
  36   36 2243 3332 FO
  36   36 2250 3332 FO
  36   36 2390 3334 FO
  36   36 2432 3334 FO
  36   36 2546 3335 FO
  36   36 2600 3335 FO
  36   36 2609 3335 FO
  36   36 2626 3336 FO
  36   36 2672 3336 FO
  36   36 2753 3337 FO
  36   36 2761 3337 FO
  36   36 2785 3337 FO
  36   36 2799 3338 FO
  36   36 2807 3338 FO
  36   36 2867 3339 FO
  36   36 2903 3339 FO
  36   36 2925 3339 FO
  36   36 2991 3339 FO
  36   36 2996 3339 FO
  36   36 3027 3340 FO
  36   36 3063 3340 FO
  36   36 3194 3340 FO
  36   36 3335 3340 FO
  36   36 3350 3340 FO
  36   36 3355 3341 FO
  36   36 3373 3341 FO
  36   36 3395 3341 FO
  36   36 3404 3341 FO
  36   36 3443 3341 FO
  36   36 3464 3341 FO
  36   36 3466 3341 FO
  36   36 3474 3341 FO
  36   36 3516 3342 FO
  36   36 3529 3342 FO
gs 656 284 3911 3067 rc
gr

0 sg
%%IncludeResource: font Helvetica
/Helvetica /WindowsLatin1Encoding 240 FMSR

1750 3726 mt 
(Distance \(Hops\)) s
 346 3107 mt  -90 rotate
(Interference Value \(mW\)) s
90 rotate
%%IncludeResource: font Helvetica
/Helvetica /WindowsLatin1Encoding 120 FMSR

 639 3393 mt 
( ) s
4550  326 mt 
( ) s
6 w
1 sg
0 334 2004 0 0 -334 2503 678 4 MP
PP
-2004 0 0 334 2004 0 0 -334 2503 678 5 MP stroke
4 w
DO
SO
6 w
0 sg
2503  344 mt 4507  344 L
2503  678 mt 4507  678 L
4507  678 mt 4507  344 L
2503  678 mt 2503  344 L
2503  678 mt 4507  678 L
2503  678 mt 2503  344 L
2503  344 mt 4507  344 L
2503  678 mt 4507  678 L
4507  678 mt 4507  344 L
2503  678 mt 2503  344 L
2979  479 mt 
(Original Interference Values) s
gs 2503 344 2005 335 rc
12 w
c8
366 0 2576 436 2 MP stroke
gs 2686 363 147 147 rc
2723  436 mt 2795  436 L
2759  400 mt 2759  472 L
2734  411 mt 2784  461 L
2784  411 mt 2734  461 L
gr

gr

12 w
c8
0 sg
2979  628 mt 
(Recover Interference Values) s
gs 2503 344 2005 335 rc
c9
366 0 2576 585 2 MP stroke
gs 2686 512 147 147 rc
  36   36 2759  585 FO
gr

6 w
gr

6 w
c9

end %%Color Dict

eplot
%%EndObject

epage
end

showpage

%%Trailer
%%EOF
