%!PS-Adobe-3.0 EPSF-3.0
%%Creator: MATLAB, The Mathworks, Inc. Version 7.5.0.342 (R2007b). Operating System: Microsoft Windows XP.
%%Title: H:\Research\Papers\Interference\paper\script1.2\MR_70.eps
%%CreationDate: 07/06/2012  13:49:38
%%DocumentNeededFonts: Helvetica
%%DocumentProcessColors: Cyan Magenta Yellow Black
%%LanguageLevel: 2
%%Pages: 1
%%BoundingBox:    87   262   507   578
%%EndComments

%%BeginProlog
% MathWorks dictionary
/MathWorks 160 dict begin
% definition operators
/bdef {bind def} bind def
/ldef {load def} bind def
/xdef {exch def} bdef
/xstore {exch store} bdef
% operator abbreviations
/c  /clip ldef
/cc /concat ldef
/cp /closepath ldef
/gr /grestore ldef
/gs /gsave ldef
/mt /moveto ldef
/np /newpath ldef
/cm /currentmatrix ldef
/sm /setmatrix ldef
/rm /rmoveto ldef
/rl /rlineto ldef
/s {show newpath} bdef
/sc {setcmykcolor} bdef
/sr /setrgbcolor ldef
/sg /setgray ldef
/w /setlinewidth ldef
/j /setlinejoin ldef
/cap /setlinecap ldef
/rc {rectclip} bdef
/rf {rectfill} bdef
% page state control
/pgsv () def
/bpage {/pgsv save def} bdef
/epage {pgsv restore} bdef
/bplot /gsave ldef
/eplot {stroke grestore} bdef
% orientation switch
/portraitMode 0 def /landscapeMode 1 def /rotateMode 2 def
% coordinate system mappings
/dpi2point 0 def
% font control
/FontSize 0 def
/FMS {/FontSize xstore findfont [FontSize 0 0 FontSize neg 0 0]
  makefont setfont} bdef
/ISOLatin1Encoding where {pop /WindowsLatin1Encoding 256 array bdef
ISOLatin1Encoding WindowsLatin1Encoding copy pop
/.notdef/.notdef/quotesinglbase/florin/quotedblbase/ellipsis/dagger
/daggerdbl/circumflex/perthousand/Scaron/guilsinglleft/OE/.notdef/.notdef
/.notdef/.notdef/quoteleft/quoteright/quotedblleft/quotedblright/bullet
/endash/emdash/tilde/trademark/scaron/guilsinglright/oe/.notdef/.notdef
/Ydieresis WindowsLatin1Encoding 128 32 getinterval astore pop}
{/WindowsLatin1Encoding StandardEncoding bdef} ifelse
/reencode {exch dup where {pop load} {pop StandardEncoding} ifelse
  exch dup 3 1 roll findfont dup length dict begin
  { 1 index /FID ne {def}{pop pop} ifelse } forall
  /Encoding exch def currentdict end definefont pop} bdef
/isroman {findfont /CharStrings get /Agrave known} bdef
/FMSR {3 1 roll 1 index dup isroman {reencode} {pop pop} ifelse
  exch FMS} bdef
/csm {1 dpi2point div -1 dpi2point div scale neg translate
 dup landscapeMode eq {pop -90 rotate}
  {rotateMode eq {90 rotate} if} ifelse} bdef
% line types: solid, dotted, dashed, dotdash
/SO { [] 0 setdash } bdef
/DO { [.5 dpi2point mul 4 dpi2point mul] 0 setdash } bdef
/DA { [6 dpi2point mul] 0 setdash } bdef
/DD { [.5 dpi2point mul 4 dpi2point mul 6 dpi2point mul 4
  dpi2point mul] 0 setdash } bdef
% macros for lines and objects
/L {lineto stroke} bdef
/MP {3 1 roll moveto 1 sub {rlineto} repeat} bdef
/AP {{rlineto} repeat} bdef
/PDlw -1 def
/W {/PDlw currentlinewidth def setlinewidth} def
/PP {closepath eofill} bdef
/DP {closepath stroke} bdef
/MR {4 -2 roll moveto dup  0 exch rlineto exch 0 rlineto
  neg 0 exch rlineto closepath} bdef
/FR {MR stroke} bdef
/PR {MR fill} bdef
/L1i {{currentfile picstr readhexstring pop} image} bdef
/tMatrix matrix def
/MakeOval {newpath tMatrix currentmatrix pop translate scale
0 0 1 0 360 arc tMatrix setmatrix} bdef
/FO {MakeOval stroke} bdef
/PO {MakeOval fill} bdef
/PD {currentlinewidth 2 div 0 360 arc fill
   PDlw -1 eq not {PDlw w /PDlw -1 def} if} def
/FA {newpath tMatrix currentmatrix pop translate scale
  0 0 1 5 -2 roll arc tMatrix setmatrix stroke} bdef
/PA {newpath tMatrix currentmatrix pop	translate 0 0 moveto scale
  0 0 1 5 -2 roll arc closepath tMatrix setmatrix fill} bdef
/FAn {newpath tMatrix currentmatrix pop translate scale
  0 0 1 5 -2 roll arcn tMatrix setmatrix stroke} bdef
/PAn {newpath tMatrix currentmatrix pop translate 0 0 moveto scale
  0 0 1 5 -2 roll arcn closepath tMatrix setmatrix fill} bdef
/vradius 0 def /hradius 0 def /lry 0 def
/lrx 0 def /uly 0 def /ulx 0 def /rad 0 def
/MRR {/vradius xdef /hradius xdef /lry xdef /lrx xdef /uly xdef
  /ulx xdef newpath tMatrix currentmatrix pop ulx hradius add uly
  vradius add translate hradius vradius scale 0 0 1 180 270 arc 
  tMatrix setmatrix lrx hradius sub uly vradius add translate
  hradius vradius scale 0 0 1 270 360 arc tMatrix setmatrix
  lrx hradius sub lry vradius sub translate hradius vradius scale
  0 0 1 0 90 arc tMatrix setmatrix ulx hradius add lry vradius sub
  translate hradius vradius scale 0 0 1 90 180 arc tMatrix setmatrix
  closepath} bdef
/FRR {MRR stroke } bdef
/PRR {MRR fill } bdef
/MlrRR {/lry xdef /lrx xdef /uly xdef /ulx xdef /rad lry uly sub 2 div def
  newpath tMatrix currentmatrix pop ulx rad add uly rad add translate
  rad rad scale 0 0 1 90 270 arc tMatrix setmatrix lrx rad sub lry rad
  sub translate rad rad scale 0 0 1 270 90 arc tMatrix setmatrix
  closepath} bdef
/FlrRR {MlrRR stroke } bdef
/PlrRR {MlrRR fill } bdef
/MtbRR {/lry xdef /lrx xdef /uly xdef /ulx xdef /rad lrx ulx sub 2 div def
  newpath tMatrix currentmatrix pop ulx rad add uly rad add translate
  rad rad scale 0 0 1 180 360 arc tMatrix setmatrix lrx rad sub lry rad
  sub translate rad rad scale 0 0 1 0 180 arc tMatrix setmatrix
  closepath} bdef
/FtbRR {MtbRR stroke } bdef
/PtbRR {MtbRR fill } bdef
/stri 6 array def /dtri 6 array def
/smat 6 array def /dmat 6 array def
/tmat1 6 array def /tmat2 6 array def /dif 3 array def
/asub {/ind2 exch def /ind1 exch def dup dup
  ind1 get exch ind2 get sub exch } bdef
/tri_to_matrix {
  2 0 asub 3 1 asub 4 0 asub 5 1 asub
  dup 0 get exch 1 get 7 -1 roll astore } bdef
/compute_transform {
  dmat dtri tri_to_matrix tmat1 invertmatrix 
  smat stri tri_to_matrix tmat2 concatmatrix } bdef
/ds {stri astore pop} bdef
/dt {dtri astore pop} bdef
/db {2 copy /cols xdef /rows xdef mul dup 3 mul string
  currentfile 
  3 index 0 eq {/ASCIIHexDecode filter}
  {/ASCII85Decode filter 3 index 2 eq {/RunLengthDecode filter} if }
  ifelse exch readstring pop
  dup 0 3 index getinterval /rbmap xdef
  dup 2 index dup getinterval /gbmap xdef
  1 index dup 2 mul exch getinterval /bbmap xdef pop pop}bdef
/it {gs np dtri aload pop moveto lineto lineto cp c
  cols rows 8 compute_transform 
  rbmap gbmap bbmap true 3 colorimage gr}bdef
/il {newpath moveto lineto stroke}bdef
currentdict end def
%%EndProlog

%%BeginSetup
MathWorks begin

0 cap

end
%%EndSetup

%%Page: 1 1
%%BeginPageSetup
%%PageBoundingBox:    87   262   507   578
MathWorks begin
bpage
%%EndPageSetup

%%BeginObject: obj1
bplot

/dpi2point 12 def
portraitMode 1044 6936 csm

    0     0  5045  3782 rc
85 dict begin %Colortable dictionary
/c0 { 0.000000 0.000000 0.000000 sr} bdef
/c1 { 1.000000 1.000000 1.000000 sr} bdef
/c2 { 0.900000 0.000000 0.000000 sr} bdef
/c3 { 0.000000 0.820000 0.000000 sr} bdef
/c4 { 0.000000 0.000000 0.800000 sr} bdef
/c5 { 0.910000 0.820000 0.320000 sr} bdef
/c6 { 1.000000 0.260000 0.820000 sr} bdef
/c7 { 0.000000 0.820000 0.820000 sr} bdef
c0
1 j
1 sg
   0    0 5046 3783 rf
6 w
0 3066 3910 0 0 -3066 656 3350 4 MP
PP
-3910 0 0 3066 3910 0 0 -3066 656 3350 5 MP stroke
4 w
DO
SO
6 w
0 sg
 656 3350 mt 4566 3350 L
 656 3350 mt  656  284 L
 656 3350 mt  656 3310 L
%%IncludeResource: font Helvetica
/Helvetica /WindowsLatin1Encoding 120 FMSR

 623 3495 mt 
(0) s
1047 3350 mt 1047 3310 L
1014 3495 mt 
(1) s
1438 3350 mt 1438 3310 L
1405 3495 mt 
(2) s
1829 3350 mt 1829 3310 L
1796 3495 mt 
(3) s
2220 3350 mt 2220 3310 L
2187 3495 mt 
(4) s
2611 3350 mt 2611 3310 L
2578 3495 mt 
(5) s
3002 3350 mt 3002 3310 L
2969 3495 mt 
(6) s
3393 3350 mt 3393 3310 L
3360 3495 mt 
(7) s
3784 3350 mt 3784 3310 L
3751 3495 mt 
(8) s
4175 3350 mt 4175 3310 L
4142 3495 mt 
(9) s
4566 3350 mt 4566 3310 L
4500 3495 mt 
(10) s
 656 3350 mt  695 3350 L
 555 3394 mt 
(0) s
 656 2941 mt  695 2941 L
 455 2985 mt 
(0.2) s
 656 2532 mt  695 2532 L
 455 2576 mt 
(0.4) s
 656 2123 mt  695 2123 L
 455 2167 mt 
(0.6) s
 656 1714 mt  695 1714 L
 455 1758 mt 
(0.8) s
 656 1306 mt  695 1306 L
 555 1350 mt 
(1) s
 656  897 mt  695  897 L
 455  941 mt 
(1.2) s
 656  488 mt  695  488 L
 455  532 mt 
(1.4) s
gs 656 284 3911 3067 rc
12 w
/c8 { 0.000000 0.000000 1.000000 sr} bdef
c8
251 1 90 0 140 1 10 0 75 0 6 0 28 0 18 0 
15 0 4 0 36 1 50 0 17 0 2 0 69 0 20 0 
72 1 42 0 20 0 5 0 28 1 89 0 16 1 47 0 
49 0 42 1 46 0 60 1 1 0 18 0 3 0 44 1 
15 0 30 1 16 0 18 0 60 1 16 0 51 1 138 3 
60 2 15 0 10 1 22 0 51 2 18 0 34 1 2 1 
108 4 108 5 213 14 4 1 248 30 80 14 29 6 16 4 
216 72 178 120 1 2 4 4 43 45 58 78 219 636 48 296 
87 885 938 1108 66 MP stroke
gr

12 w
c8
 902 1108 mt  974 1108 L
 938 1072 mt  938 1144 L
 989 1993 mt 1061 1993 L
1025 1957 mt 1025 2029 L
1037 2289 mt 1109 2289 L
1073 2253 mt 1073 2325 L
1256 2925 mt 1328 2925 L
1292 2889 mt 1292 2961 L
1314 3003 mt 1386 3003 L
1350 2967 mt 1350 3039 L
1357 3048 mt 1429 3048 L
1393 3012 mt 1393 3084 L
1361 3052 mt 1433 3052 L
1397 3016 mt 1397 3088 L
1362 3054 mt 1434 3054 L
1398 3018 mt 1398 3090 L
1540 3174 mt 1612 3174 L
1576 3138 mt 1576 3210 L
1756 3246 mt 1828 3246 L
1792 3210 mt 1792 3282 L
1772 3250 mt 1844 3250 L
1808 3214 mt 1808 3286 L
1801 3256 mt 1873 3256 L
1837 3220 mt 1837 3292 L
1881 3270 mt 1953 3270 L
1917 3234 mt 1917 3306 L
2129 3300 mt 2201 3300 L
2165 3264 mt 2165 3336 L
2133 3301 mt 2205 3301 L
2169 3265 mt 2169 3337 L
2346 3315 mt 2418 3315 L
2382 3279 mt 2382 3351 L
2454 3320 mt 2526 3320 L
2490 3284 mt 2490 3356 L
2562 3324 mt 2634 3324 L
2598 3288 mt 2598 3360 L
2564 3325 mt 2636 3325 L
2600 3289 mt 2600 3361 L
2598 3326 mt 2670 3326 L
2634 3290 mt 2634 3362 L
2616 3326 mt 2688 3326 L
2652 3290 mt 2652 3362 L
2667 3328 mt 2739 3328 L
2703 3292 mt 2703 3364 L
2689 3328 mt 2761 3328 L
2725 3292 mt 2725 3364 L
2699 3329 mt 2771 3329 L
2735 3293 mt 2735 3365 L
2714 3329 mt 2786 3329 L
2750 3293 mt 2750 3365 L
2774 3331 mt 2846 3331 L
2810 3295 mt 2810 3367 L
2912 3334 mt 2984 3334 L
2948 3298 mt 2948 3370 L
2963 3335 mt 3035 3335 L
2999 3299 mt 2999 3371 L
2979 3335 mt 3051 3335 L
3015 3299 mt 3015 3371 L
3039 3336 mt 3111 3336 L
3075 3300 mt 3075 3372 L
3057 3336 mt 3129 3336 L
3093 3300 mt 3093 3372 L
3073 3336 mt 3145 3336 L
3109 3300 mt 3109 3372 L
3103 3337 mt 3175 3337 L
3139 3301 mt 3139 3373 L
3118 3337 mt 3190 3337 L
3154 3301 mt 3154 3373 L
3162 3338 mt 3234 3338 L
3198 3302 mt 3198 3374 L
3165 3338 mt 3237 3338 L
3201 3302 mt 3201 3374 L
3183 3338 mt 3255 3338 L
3219 3302 mt 3219 3374 L
3184 3338 mt 3256 3338 L
3220 3302 mt 3220 3374 L
3244 3339 mt 3316 3339 L
3280 3303 mt 3280 3375 L
3290 3339 mt 3362 3339 L
3326 3303 mt 3326 3375 L
3332 3340 mt 3404 3340 L
3368 3304 mt 3368 3376 L
3381 3340 mt 3453 3340 L
3417 3304 mt 3417 3376 L
3428 3340 mt 3500 3340 L
3464 3304 mt 3464 3376 L
3444 3341 mt 3516 3341 L
3480 3305 mt 3480 3377 L
3533 3341 mt 3605 3341 L
3569 3305 mt 3569 3377 L
3561 3342 mt 3633 3342 L
3597 3306 mt 3597 3378 L
3566 3342 mt 3638 3342 L
3602 3306 mt 3602 3378 L
3586 3342 mt 3658 3342 L
3622 3306 mt 3622 3378 L
3628 3342 mt 3700 3342 L
3664 3306 mt 3664 3378 L
3700 3343 mt 3772 3343 L
3736 3307 mt 3736 3379 L
3720 3343 mt 3792 3343 L
3756 3307 mt 3756 3379 L
3789 3343 mt 3861 3343 L
3825 3307 mt 3825 3379 L
3791 3343 mt 3863 3343 L
3827 3307 mt 3827 3379 L
3808 3343 mt 3880 3343 L
3844 3307 mt 3844 3379 L
3858 3343 mt 3930 3343 L
3894 3307 mt 3894 3379 L
3894 3344 mt 3966 3344 L
3930 3308 mt 3930 3380 L
3898 3344 mt 3970 3344 L
3934 3308 mt 3934 3380 L
3913 3344 mt 3985 3344 L
3949 3308 mt 3949 3380 L
3931 3344 mt 4003 3344 L
3967 3308 mt 3967 3380 L
3959 3344 mt 4031 3344 L
3995 3308 mt 3995 3380 L
3965 3344 mt 4037 3344 L
4001 3308 mt 4001 3380 L
4040 3344 mt 4112 3344 L
4076 3308 mt 4076 3380 L
4050 3344 mt 4122 3344 L
4086 3308 mt 4086 3380 L
4190 3345 mt 4262 3345 L
4226 3309 mt 4226 3381 L
4280 3345 mt 4352 3345 L
4316 3309 mt 4316 3381 L
 913 1083 mt  963 1133 L
 963 1083 mt  913 1133 L
1000 1968 mt 1050 2018 L
1050 1968 mt 1000 2018 L
1048 2264 mt 1098 2314 L
1098 2264 mt 1048 2314 L
1267 2900 mt 1317 2950 L
1317 2900 mt 1267 2950 L
1325 2978 mt 1375 3028 L
1375 2978 mt 1325 3028 L
1368 3023 mt 1418 3073 L
1418 3023 mt 1368 3073 L
1372 3027 mt 1422 3077 L
1422 3027 mt 1372 3077 L
1373 3029 mt 1423 3079 L
1423 3029 mt 1373 3079 L
1551 3149 mt 1601 3199 L
1601 3149 mt 1551 3199 L
1767 3221 mt 1817 3271 L
1817 3221 mt 1767 3271 L
1783 3225 mt 1833 3275 L
1833 3225 mt 1783 3275 L
1812 3231 mt 1862 3281 L
1862 3231 mt 1812 3281 L
1892 3245 mt 1942 3295 L
1942 3245 mt 1892 3295 L
2140 3275 mt 2190 3325 L
2190 3275 mt 2140 3325 L
2144 3276 mt 2194 3326 L
2194 3276 mt 2144 3326 L
2357 3290 mt 2407 3340 L
2407 3290 mt 2357 3340 L
2465 3295 mt 2515 3345 L
2515 3295 mt 2465 3345 L
2573 3299 mt 2623 3349 L
2623 3299 mt 2573 3349 L
2575 3300 mt 2625 3350 L
2625 3300 mt 2575 3350 L
2609 3301 mt 2659 3351 L
2659 3301 mt 2609 3351 L
2627 3301 mt 2677 3351 L
2677 3301 mt 2627 3351 L
2678 3303 mt 2728 3353 L
2728 3303 mt 2678 3353 L
2700 3303 mt 2750 3353 L
2750 3303 mt 2700 3353 L
2710 3304 mt 2760 3354 L
2760 3304 mt 2710 3354 L
2725 3304 mt 2775 3354 L
2775 3304 mt 2725 3354 L
2785 3306 mt 2835 3356 L
2835 3306 mt 2785 3356 L
2923 3309 mt 2973 3359 L
2973 3309 mt 2923 3359 L
2974 3310 mt 3024 3360 L
3024 3310 mt 2974 3360 L
2990 3310 mt 3040 3360 L
3040 3310 mt 2990 3360 L
3050 3311 mt 3100 3361 L
3100 3311 mt 3050 3361 L
3068 3311 mt 3118 3361 L
3118 3311 mt 3068 3361 L
3084 3311 mt 3134 3361 L
3134 3311 mt 3084 3361 L
3114 3312 mt 3164 3362 L
3164 3312 mt 3114 3362 L
3129 3312 mt 3179 3362 L
3179 3312 mt 3129 3362 L
3173 3313 mt 3223 3363 L
3223 3313 mt 3173 3363 L
3176 3313 mt 3226 3363 L
3226 3313 mt 3176 3363 L
3194 3313 mt 3244 3363 L
3244 3313 mt 3194 3363 L
3195 3313 mt 3245 3363 L
3245 3313 mt 3195 3363 L
3255 3314 mt 3305 3364 L
3305 3314 mt 3255 3364 L
3301 3314 mt 3351 3364 L
3351 3314 mt 3301 3364 L
3343 3315 mt 3393 3365 L
3393 3315 mt 3343 3365 L
3392 3315 mt 3442 3365 L
3442 3315 mt 3392 3365 L
3439 3315 mt 3489 3365 L
3489 3315 mt 3439 3365 L
3455 3316 mt 3505 3366 L
3505 3316 mt 3455 3366 L
3544 3316 mt 3594 3366 L
3594 3316 mt 3544 3366 L
3572 3317 mt 3622 3367 L
3622 3317 mt 3572 3367 L
3577 3317 mt 3627 3367 L
3627 3317 mt 3577 3367 L
3597 3317 mt 3647 3367 L
3647 3317 mt 3597 3367 L
3639 3317 mt 3689 3367 L
3689 3317 mt 3639 3367 L
3711 3318 mt 3761 3368 L
3761 3318 mt 3711 3368 L
3731 3318 mt 3781 3368 L
3781 3318 mt 3731 3368 L
3800 3318 mt 3850 3368 L
3850 3318 mt 3800 3368 L
3802 3318 mt 3852 3368 L
3852 3318 mt 3802 3368 L
3819 3318 mt 3869 3368 L
3869 3318 mt 3819 3368 L
3869 3318 mt 3919 3368 L
3919 3318 mt 3869 3368 L
3905 3319 mt 3955 3369 L
3955 3319 mt 3905 3369 L
3909 3319 mt 3959 3369 L
3959 3319 mt 3909 3369 L
3924 3319 mt 3974 3369 L
3974 3319 mt 3924 3369 L
3942 3319 mt 3992 3369 L
3992 3319 mt 3942 3369 L
3970 3319 mt 4020 3369 L
4020 3319 mt 3970 3369 L
3976 3319 mt 4026 3369 L
4026 3319 mt 3976 3369 L
4051 3319 mt 4101 3369 L
4101 3319 mt 4051 3369 L
4061 3319 mt 4111 3369 L
4111 3319 mt 4061 3369 L
4201 3320 mt 4251 3370 L
4251 3320 mt 4201 3370 L
4291 3320 mt 4341 3370 L
4341 3320 mt 4291 3370 L
gs 656 284 3911 3067 rc
/c9 { 1.000000 0.000000 0.000000 sr} bdef
c9
251 1 90 0 140 0 10 0 75 0 0 1 6 0 28 0 
18 0 15 0 4 0 36 0 50 0 17 0 2 0 69 1 
20 0 72 0 42 0 20 0 5 0 28 0 89 0 16 0 
47 0 49 1 42 0 46 0 60 0 1 0 18 0 3 0 
44 1 15 0 30 0 16 0 18 0 60 0 16 1 51 0 
138 0 60 0 15 1 10 0 22 0 51 1 18 0 34 0 
2 1 108 0 108 0 213 1 4 11 248 2 80 37 29 8 
16 2 216 39 178 70 1 68 4 7 43 49 58 52 219 711 
48 277 87 891 938 1113 67 MP stroke
gr

c9
  36   36  938 1113 FO
  36   36 1025 2004 FO
  36   36 1073 2281 FO
  36   36 1292 2992 FO
  36   36 1350 3044 FO
  36   36 1393 3093 FO
  36   36 1397 3100 FO
  36   36 1398 3168 FO
  36   36 1576 3238 FO
  36   36 1792 3277 FO
  36   36 1808 3279 FO
  36   36 1837 3287 FO
  36   36 1917 3324 FO
  36   36 2165 3326 FO
  36   36 2169 3337 FO
  36   36 2382 3338 FO
  36   36 2490 3338 FO
  36   36 2598 3338 FO
  36   36 2600 3339 FO
  36   36 2634 3339 FO
  36   36 2652 3339 FO
  36   36 2703 3340 FO
  36   36 2725 3340 FO
  36   36 2735 3340 FO
  36   36 2750 3341 FO
  36   36 2810 3341 FO
  36   36 2948 3341 FO
  36   36 2999 3341 FO
  36   36 3015 3342 FO
  36   36 3075 3342 FO
  36   36 3093 3342 FO
  36   36 3109 3342 FO
  36   36 3139 3342 FO
  36   36 3154 3342 FO
  36   36 3198 3343 FO
  36   36 3201 3343 FO
  36   36 3219 3343 FO
  36   36 3220 3343 FO
  36   36 3280 3343 FO
  36   36 3326 3343 FO
  36   36 3368 3343 FO
  36   36 3417 3344 FO
  36   36 3464 3344 FO
  36   36 3480 3344 FO
  36   36 3569 3344 FO
  36   36 3597 3344 FO
  36   36 3602 3344 FO
  36   36 3622 3344 FO
  36   36 3664 3344 FO
  36   36 3736 3344 FO
  36   36 3756 3344 FO
  36   36 3825 3345 FO
  36   36 3827 3345 FO
  36   36 3844 3345 FO
  36   36 3894 3345 FO
  36   36 3930 3345 FO
  36   36 3934 3345 FO
  36   36 3949 3345 FO
  36   36 3967 3345 FO
  36   36 3995 3345 FO
  36   36 4001 3345 FO
  36   36 4001 3346 FO
  36   36 4076 3346 FO
  36   36 4086 3346 FO
  36   36 4226 3346 FO
  36   36 4316 3346 FO
gs 656 284 3911 3067 rc
gr

0 sg
%%IncludeResource: font Helvetica
/Helvetica /WindowsLatin1Encoding 240 FMSR

1750 3726 mt 
(Distance \(Hops\)) s
 346 3107 mt  -90 rotate
(Interference Value \(mW\)) s
90 rotate
%%IncludeResource: font Helvetica
/Helvetica /WindowsLatin1Encoding 120 FMSR

 639 3393 mt 
( ) s
4550  326 mt 
( ) s
6 w
1 sg
0 334 2004 0 0 -334 2503 678 4 MP
PP
-2004 0 0 334 2004 0 0 -334 2503 678 5 MP stroke
4 w
DO
SO
6 w
0 sg
2503  344 mt 4507  344 L
2503  678 mt 4507  678 L
4507  678 mt 4507  344 L
2503  678 mt 2503  344 L
2503  678 mt 4507  678 L
2503  678 mt 2503  344 L
2503  344 mt 4507  344 L
2503  678 mt 4507  678 L
4507  678 mt 4507  344 L
2503  678 mt 2503  344 L
2979  479 mt 
(Original Interference Values) s
gs 2503 344 2005 335 rc
12 w
c8
366 0 2576 436 2 MP stroke
gs 2686 363 147 147 rc
2723  436 mt 2795  436 L
2759  400 mt 2759  472 L
2734  411 mt 2784  461 L
2784  411 mt 2734  461 L
gr

gr

12 w
c8
0 sg
2979  628 mt 
(Recover Interference Values) s
gs 2503 344 2005 335 rc
c9
366 0 2576 585 2 MP stroke
gs 2686 512 147 147 rc
  36   36 2759  585 FO
gr

6 w
gr

6 w
c9

end %%Color Dict

eplot
%%EndObject

epage
end

showpage

%%Trailer
%%EOF
