%!PS-Adobe-3.0 EPSF-3.0
%%Creator: MATLAB, The Mathworks, Inc. Version 7.5.0.342 (R2007b). Operating System: Microsoft Windows XP.
%%Title: H:\Research\Papers\Interference\paper\script1.2\MR_90.eps
%%CreationDate: 07/06/2012  13:47:54
%%DocumentNeededFonts: Helvetica
%%DocumentProcessColors: Cyan Magenta Yellow Black
%%LanguageLevel: 2
%%Pages: 1
%%BoundingBox:    87   262   507   578
%%EndComments

%%BeginProlog
% MathWorks dictionary
/MathWorks 160 dict begin
% definition operators
/bdef {bind def} bind def
/ldef {load def} bind def
/xdef {exch def} bdef
/xstore {exch store} bdef
% operator abbreviations
/c  /clip ldef
/cc /concat ldef
/cp /closepath ldef
/gr /grestore ldef
/gs /gsave ldef
/mt /moveto ldef
/np /newpath ldef
/cm /currentmatrix ldef
/sm /setmatrix ldef
/rm /rmoveto ldef
/rl /rlineto ldef
/s {show newpath} bdef
/sc {setcmykcolor} bdef
/sr /setrgbcolor ldef
/sg /setgray ldef
/w /setlinewidth ldef
/j /setlinejoin ldef
/cap /setlinecap ldef
/rc {rectclip} bdef
/rf {rectfill} bdef
% page state control
/pgsv () def
/bpage {/pgsv save def} bdef
/epage {pgsv restore} bdef
/bplot /gsave ldef
/eplot {stroke grestore} bdef
% orientation switch
/portraitMode 0 def /landscapeMode 1 def /rotateMode 2 def
% coordinate system mappings
/dpi2point 0 def
% font control
/FontSize 0 def
/FMS {/FontSize xstore findfont [FontSize 0 0 FontSize neg 0 0]
  makefont setfont} bdef
/ISOLatin1Encoding where {pop /WindowsLatin1Encoding 256 array bdef
ISOLatin1Encoding WindowsLatin1Encoding copy pop
/.notdef/.notdef/quotesinglbase/florin/quotedblbase/ellipsis/dagger
/daggerdbl/circumflex/perthousand/Scaron/guilsinglleft/OE/.notdef/.notdef
/.notdef/.notdef/quoteleft/quoteright/quotedblleft/quotedblright/bullet
/endash/emdash/tilde/trademark/scaron/guilsinglright/oe/.notdef/.notdef
/Ydieresis WindowsLatin1Encoding 128 32 getinterval astore pop}
{/WindowsLatin1Encoding StandardEncoding bdef} ifelse
/reencode {exch dup where {pop load} {pop StandardEncoding} ifelse
  exch dup 3 1 roll findfont dup length dict begin
  { 1 index /FID ne {def}{pop pop} ifelse } forall
  /Encoding exch def currentdict end definefont pop} bdef
/isroman {findfont /CharStrings get /Agrave known} bdef
/FMSR {3 1 roll 1 index dup isroman {reencode} {pop pop} ifelse
  exch FMS} bdef
/csm {1 dpi2point div -1 dpi2point div scale neg translate
 dup landscapeMode eq {pop -90 rotate}
  {rotateMode eq {90 rotate} if} ifelse} bdef
% line types: solid, dotted, dashed, dotdash
/SO { [] 0 setdash } bdef
/DO { [.5 dpi2point mul 4 dpi2point mul] 0 setdash } bdef
/DA { [6 dpi2point mul] 0 setdash } bdef
/DD { [.5 dpi2point mul 4 dpi2point mul 6 dpi2point mul 4
  dpi2point mul] 0 setdash } bdef
% macros for lines and objects
/L {lineto stroke} bdef
/MP {3 1 roll moveto 1 sub {rlineto} repeat} bdef
/AP {{rlineto} repeat} bdef
/PDlw -1 def
/W {/PDlw currentlinewidth def setlinewidth} def
/PP {closepath eofill} bdef
/DP {closepath stroke} bdef
/MR {4 -2 roll moveto dup  0 exch rlineto exch 0 rlineto
  neg 0 exch rlineto closepath} bdef
/FR {MR stroke} bdef
/PR {MR fill} bdef
/L1i {{currentfile picstr readhexstring pop} image} bdef
/tMatrix matrix def
/MakeOval {newpath tMatrix currentmatrix pop translate scale
0 0 1 0 360 arc tMatrix setmatrix} bdef
/FO {MakeOval stroke} bdef
/PO {MakeOval fill} bdef
/PD {currentlinewidth 2 div 0 360 arc fill
   PDlw -1 eq not {PDlw w /PDlw -1 def} if} def
/FA {newpath tMatrix currentmatrix pop translate scale
  0 0 1 5 -2 roll arc tMatrix setmatrix stroke} bdef
/PA {newpath tMatrix currentmatrix pop	translate 0 0 moveto scale
  0 0 1 5 -2 roll arc closepath tMatrix setmatrix fill} bdef
/FAn {newpath tMatrix currentmatrix pop translate scale
  0 0 1 5 -2 roll arcn tMatrix setmatrix stroke} bdef
/PAn {newpath tMatrix currentmatrix pop translate 0 0 moveto scale
  0 0 1 5 -2 roll arcn closepath tMatrix setmatrix fill} bdef
/vradius 0 def /hradius 0 def /lry 0 def
/lrx 0 def /uly 0 def /ulx 0 def /rad 0 def
/MRR {/vradius xdef /hradius xdef /lry xdef /lrx xdef /uly xdef
  /ulx xdef newpath tMatrix currentmatrix pop ulx hradius add uly
  vradius add translate hradius vradius scale 0 0 1 180 270 arc 
  tMatrix setmatrix lrx hradius sub uly vradius add translate
  hradius vradius scale 0 0 1 270 360 arc tMatrix setmatrix
  lrx hradius sub lry vradius sub translate hradius vradius scale
  0 0 1 0 90 arc tMatrix setmatrix ulx hradius add lry vradius sub
  translate hradius vradius scale 0 0 1 90 180 arc tMatrix setmatrix
  closepath} bdef
/FRR {MRR stroke } bdef
/PRR {MRR fill } bdef
/MlrRR {/lry xdef /lrx xdef /uly xdef /ulx xdef /rad lry uly sub 2 div def
  newpath tMatrix currentmatrix pop ulx rad add uly rad add translate
  rad rad scale 0 0 1 90 270 arc tMatrix setmatrix lrx rad sub lry rad
  sub translate rad rad scale 0 0 1 270 90 arc tMatrix setmatrix
  closepath} bdef
/FlrRR {MlrRR stroke } bdef
/PlrRR {MlrRR fill } bdef
/MtbRR {/lry xdef /lrx xdef /uly xdef /ulx xdef /rad lrx ulx sub 2 div def
  newpath tMatrix currentmatrix pop ulx rad add uly rad add translate
  rad rad scale 0 0 1 180 360 arc tMatrix setmatrix lrx rad sub lry rad
  sub translate rad rad scale 0 0 1 0 180 arc tMatrix setmatrix
  closepath} bdef
/FtbRR {MtbRR stroke } bdef
/PtbRR {MtbRR fill } bdef
/stri 6 array def /dtri 6 array def
/smat 6 array def /dmat 6 array def
/tmat1 6 array def /tmat2 6 array def /dif 3 array def
/asub {/ind2 exch def /ind1 exch def dup dup
  ind1 get exch ind2 get sub exch } bdef
/tri_to_matrix {
  2 0 asub 3 1 asub 4 0 asub 5 1 asub
  dup 0 get exch 1 get 7 -1 roll astore } bdef
/compute_transform {
  dmat dtri tri_to_matrix tmat1 invertmatrix 
  smat stri tri_to_matrix tmat2 concatmatrix } bdef
/ds {stri astore pop} bdef
/dt {dtri astore pop} bdef
/db {2 copy /cols xdef /rows xdef mul dup 3 mul string
  currentfile 
  3 index 0 eq {/ASCIIHexDecode filter}
  {/ASCII85Decode filter 3 index 2 eq {/RunLengthDecode filter} if }
  ifelse exch readstring pop
  dup 0 3 index getinterval /rbmap xdef
  dup 2 index dup getinterval /gbmap xdef
  1 index dup 2 mul exch getinterval /bbmap xdef pop pop}bdef
/it {gs np dtri aload pop moveto lineto lineto cp c
  cols rows 8 compute_transform 
  rbmap gbmap bbmap true 3 colorimage gr}bdef
/il {newpath moveto lineto stroke}bdef
currentdict end def
%%EndProlog

%%BeginSetup
MathWorks begin

0 cap

end
%%EndSetup

%%Page: 1 1
%%BeginPageSetup
%%PageBoundingBox:    87   262   507   578
MathWorks begin
bpage
%%EndPageSetup

%%BeginObject: obj1
bplot

/dpi2point 12 def
portraitMode 1044 6936 csm

    0     0  5045  3782 rc
85 dict begin %Colortable dictionary
/c0 { 0.000000 0.000000 0.000000 sr} bdef
/c1 { 1.000000 1.000000 1.000000 sr} bdef
/c2 { 0.900000 0.000000 0.000000 sr} bdef
/c3 { 0.000000 0.820000 0.000000 sr} bdef
/c4 { 0.000000 0.000000 0.800000 sr} bdef
/c5 { 0.910000 0.820000 0.320000 sr} bdef
/c6 { 1.000000 0.260000 0.820000 sr} bdef
/c7 { 0.000000 0.820000 0.820000 sr} bdef
c0
1 j
1 sg
   0    0 5046 3783 rf
6 w
0 3066 3910 0 0 -3066 656 3350 4 MP
PP
-3910 0 0 3066 3910 0 0 -3066 656 3350 5 MP stroke
4 w
DO
SO
6 w
0 sg
 656 3350 mt 4566 3350 L
 656 3350 mt  656  284 L
 656 3350 mt  656 3310 L
%%IncludeResource: font Helvetica
/Helvetica /WindowsLatin1Encoding 120 FMSR

 623 3495 mt 
(0) s
1047 3350 mt 1047 3310 L
1014 3495 mt 
(1) s
1438 3350 mt 1438 3310 L
1405 3495 mt 
(2) s
1829 3350 mt 1829 3310 L
1796 3495 mt 
(3) s
2220 3350 mt 2220 3310 L
2187 3495 mt 
(4) s
2611 3350 mt 2611 3310 L
2578 3495 mt 
(5) s
3002 3350 mt 3002 3310 L
2969 3495 mt 
(6) s
3393 3350 mt 3393 3310 L
3360 3495 mt 
(7) s
3784 3350 mt 3784 3310 L
3751 3495 mt 
(8) s
4175 3350 mt 4175 3310 L
4142 3495 mt 
(9) s
4566 3350 mt 4566 3310 L
4500 3495 mt 
(10) s
 656 3350 mt  695 3350 L
 555 3394 mt 
(0) s
 656 2941 mt  695 2941 L
 455 2985 mt 
(0.2) s
 656 2532 mt  695 2532 L
 455 2576 mt 
(0.4) s
 656 2123 mt  695 2123 L
 455 2167 mt 
(0.6) s
 656 1714 mt  695 1714 L
 455 1758 mt 
(0.8) s
 656 1306 mt  695 1306 L
 555 1350 mt 
(1) s
 656  897 mt  695  897 L
 455  941 mt 
(1.2) s
 656  488 mt  695  488 L
 455  532 mt 
(1.4) s
gs 656 284 3911 3067 rc
12 w
/c8 { 0.000000 0.000000 1.000000 sr} bdef
c8
1 0 79 0 54 0 102 1 115 0 4 0 19 0 58 0 
6 0 36 1 20 0 64 0 42 0 16 0 48 0 3 1 
46 0 40 0 43 0 17 0 40 1 7 0 23 0 28 0 
37 0 16 0 138 2 19 0 90 1 10 0 41 0 61 1 
4 0 100 1 96 2 7 0 27 0 45 1 4 0 32 1 
6 0 81 2 18 0 2 0 6 0 46 1 23 1 33 1 
16 0 45 2 6 0 22 1 31 1 79 3 29 1 65 3 
22 1 3 0 10 1 39 2 6 0 63 4 30 2 32 3 
2 0 118 10 20 2 64 8 120 18 14 2 2 1 30 5 
8 2 173 46 2 1 34 12 80 37 160 116 19 18 8 9 
77 103 14 23 18 31 49 105 182 780 79 788 24 371 919 816 88 MP stroke
gr

12 w
c8
 883  816 mt  955  816 L
 919  780 mt  919  852 L
 907 1187 mt  979 1187 L
 943 1151 mt  943 1223 L
 986 1975 mt 1058 1975 L
1022 1939 mt 1022 2011 L
1168 2755 mt 1240 2755 L
1204 2719 mt 1204 2791 L
1217 2860 mt 1289 2860 L
1253 2824 mt 1253 2896 L
1235 2891 mt 1307 2891 L
1271 2855 mt 1271 2927 L
1249 2914 mt 1321 2914 L
1285 2878 mt 1285 2950 L
1326 3017 mt 1398 3017 L
1362 2981 mt 1362 3053 L
1334 3026 mt 1406 3026 L
1370 2990 mt 1370 3062 L
1353 3044 mt 1425 3044 L
1389 3008 mt 1389 3080 L
1513 3160 mt 1585 3160 L
1549 3124 mt 1549 3196 L
1593 3197 mt 1665 3197 L
1629 3161 mt 1629 3233 L
1627 3209 mt 1699 3209 L
1663 3173 mt 1663 3245 L
1629 3210 mt 1701 3210 L
1665 3174 mt 1665 3246 L
1802 3256 mt 1874 3256 L
1838 3220 mt 1838 3292 L
1810 3258 mt 1882 3258 L
1846 3222 mt 1846 3294 L
1840 3263 mt 1912 3263 L
1876 3227 mt 1876 3299 L
1842 3264 mt 1914 3264 L
1878 3228 mt 1878 3300 L
1856 3266 mt 1928 3266 L
1892 3230 mt 1892 3302 L
1976 3284 mt 2048 3284 L
2012 3248 mt 2012 3320 L
2040 3292 mt 2112 3292 L
2076 3256 mt 2076 3328 L
2060 3294 mt 2132 3294 L
2096 3258 mt 2096 3330 L
2178 3304 mt 2250 3304 L
2214 3268 mt 2214 3340 L
2180 3304 mt 2252 3304 L
2216 3268 mt 2216 3340 L
2212 3307 mt 2284 3307 L
2248 3271 mt 2248 3343 L
2242 3309 mt 2314 3309 L
2278 3273 mt 2278 3345 L
2305 3313 mt 2377 3313 L
2341 3277 mt 2341 3349 L
2311 3313 mt 2383 3313 L
2347 3277 mt 2347 3349 L
2350 3315 mt 2422 3315 L
2386 3279 mt 2386 3351 L
2360 3316 mt 2432 3316 L
2396 3280 mt 2396 3352 L
2363 3316 mt 2435 3316 L
2399 3280 mt 2399 3352 L
2385 3317 mt 2457 3317 L
2421 3281 mt 2421 3353 L
2450 3320 mt 2522 3320 L
2486 3284 mt 2486 3356 L
2479 3321 mt 2551 3321 L
2515 3285 mt 2515 3357 L
2558 3324 mt 2630 3324 L
2594 3288 mt 2594 3360 L
2589 3325 mt 2661 3325 L
2625 3289 mt 2625 3361 L
2611 3326 mt 2683 3326 L
2647 3290 mt 2647 3362 L
2617 3326 mt 2689 3326 L
2653 3290 mt 2653 3362 L
2662 3328 mt 2734 3328 L
2698 3292 mt 2698 3364 L
2678 3328 mt 2750 3328 L
2714 3292 mt 2714 3364 L
2711 3329 mt 2783 3329 L
2747 3293 mt 2747 3365 L
2734 3330 mt 2806 3330 L
2770 3294 mt 2770 3366 L
2780 3331 mt 2852 3331 L
2816 3295 mt 2816 3367 L
2786 3331 mt 2858 3331 L
2822 3295 mt 2822 3367 L
2788 3331 mt 2860 3331 L
2824 3295 mt 2824 3367 L
2806 3331 mt 2878 3331 L
2842 3295 mt 2842 3367 L
2887 3333 mt 2959 3333 L
2923 3297 mt 2923 3369 L
2893 3333 mt 2965 3333 L
2929 3297 mt 2929 3369 L
2925 3334 mt 2997 3334 L
2961 3298 mt 2961 3370 L
2929 3334 mt 3001 3334 L
2965 3298 mt 2965 3370 L
2974 3335 mt 3046 3335 L
3010 3299 mt 3010 3371 L
3001 3335 mt 3073 3335 L
3037 3299 mt 3037 3371 L
3008 3335 mt 3080 3335 L
3044 3299 mt 3044 3371 L
3104 3337 mt 3176 3337 L
3140 3301 mt 3140 3373 L
3204 3338 mt 3276 3338 L
3240 3302 mt 3240 3374 L
3208 3338 mt 3280 3338 L
3244 3302 mt 3244 3374 L
3269 3339 mt 3341 3339 L
3305 3303 mt 3305 3375 L
3310 3339 mt 3382 3339 L
3346 3303 mt 3346 3375 L
3320 3339 mt 3392 3339 L
3356 3303 mt 3356 3375 L
3410 3340 mt 3482 3340 L
3446 3304 mt 3446 3376 L
3429 3340 mt 3501 3340 L
3465 3304 mt 3465 3376 L
3567 3342 mt 3639 3342 L
3603 3306 mt 3603 3378 L
3583 3342 mt 3655 3342 L
3619 3306 mt 3619 3378 L
3620 3342 mt 3692 3342 L
3656 3306 mt 3656 3378 L
3648 3342 mt 3720 3342 L
3684 3306 mt 3684 3378 L
3671 3342 mt 3743 3342 L
3707 3306 mt 3707 3378 L
3678 3342 mt 3750 3342 L
3714 3306 mt 3714 3378 L
3718 3343 mt 3790 3343 L
3754 3307 mt 3754 3379 L
3735 3343 mt 3807 3343 L
3771 3307 mt 3771 3379 L
3778 3343 mt 3850 3343 L
3814 3307 mt 3814 3379 L
3818 3343 mt 3890 3343 L
3854 3307 mt 3854 3379 L
3864 3343 mt 3936 3343 L
3900 3307 mt 3900 3379 L
3867 3344 mt 3939 3344 L
3903 3308 mt 3903 3380 L
3915 3344 mt 3987 3344 L
3951 3308 mt 3951 3380 L
3931 3344 mt 4003 3344 L
3967 3308 mt 3967 3380 L
3973 3344 mt 4045 3344 L
4009 3308 mt 4009 3380 L
4037 3344 mt 4109 3344 L
4073 3308 mt 4073 3380 L
4057 3344 mt 4129 3344 L
4093 3308 mt 4093 3380 L
4093 3345 mt 4165 3345 L
4129 3309 mt 4129 3381 L
4099 3345 mt 4171 3345 L
4135 3309 mt 4135 3381 L
4157 3345 mt 4229 3345 L
4193 3309 mt 4193 3381 L
4176 3345 mt 4248 3345 L
4212 3309 mt 4212 3381 L
4180 3345 mt 4252 3345 L
4216 3309 mt 4216 3381 L
4295 3345 mt 4367 3345 L
4331 3309 mt 4331 3381 L
4397 3346 mt 4469 3346 L
4433 3310 mt 4433 3382 L
4451 3346 mt 4523 3346 L
4487 3310 mt 4487 3382 L
4530 3346 mt 4602 3346 L
4566 3310 mt 4566 3382 L
 894  791 mt  944  841 L
 944  791 mt  894  841 L
 918 1162 mt  968 1212 L
 968 1162 mt  918 1212 L
 997 1950 mt 1047 2000 L
1047 1950 mt  997 2000 L
1179 2730 mt 1229 2780 L
1229 2730 mt 1179 2780 L
1228 2835 mt 1278 2885 L
1278 2835 mt 1228 2885 L
1246 2866 mt 1296 2916 L
1296 2866 mt 1246 2916 L
1260 2889 mt 1310 2939 L
1310 2889 mt 1260 2939 L
1337 2992 mt 1387 3042 L
1387 2992 mt 1337 3042 L
1345 3001 mt 1395 3051 L
1395 3001 mt 1345 3051 L
1364 3019 mt 1414 3069 L
1414 3019 mt 1364 3069 L
1524 3135 mt 1574 3185 L
1574 3135 mt 1524 3185 L
1604 3172 mt 1654 3222 L
1654 3172 mt 1604 3222 L
1638 3184 mt 1688 3234 L
1688 3184 mt 1638 3234 L
1640 3185 mt 1690 3235 L
1690 3185 mt 1640 3235 L
1813 3231 mt 1863 3281 L
1863 3231 mt 1813 3281 L
1821 3233 mt 1871 3283 L
1871 3233 mt 1821 3283 L
1851 3238 mt 1901 3288 L
1901 3238 mt 1851 3288 L
1853 3239 mt 1903 3289 L
1903 3239 mt 1853 3289 L
1867 3241 mt 1917 3291 L
1917 3241 mt 1867 3291 L
1987 3259 mt 2037 3309 L
2037 3259 mt 1987 3309 L
2051 3267 mt 2101 3317 L
2101 3267 mt 2051 3317 L
2071 3269 mt 2121 3319 L
2121 3269 mt 2071 3319 L
2189 3279 mt 2239 3329 L
2239 3279 mt 2189 3329 L
2191 3279 mt 2241 3329 L
2241 3279 mt 2191 3329 L
2223 3282 mt 2273 3332 L
2273 3282 mt 2223 3332 L
2253 3284 mt 2303 3334 L
2303 3284 mt 2253 3334 L
2316 3288 mt 2366 3338 L
2366 3288 mt 2316 3338 L
2322 3288 mt 2372 3338 L
2372 3288 mt 2322 3338 L
2361 3290 mt 2411 3340 L
2411 3290 mt 2361 3340 L
2371 3291 mt 2421 3341 L
2421 3291 mt 2371 3341 L
2374 3291 mt 2424 3341 L
2424 3291 mt 2374 3341 L
2396 3292 mt 2446 3342 L
2446 3292 mt 2396 3342 L
2461 3295 mt 2511 3345 L
2511 3295 mt 2461 3345 L
2490 3296 mt 2540 3346 L
2540 3296 mt 2490 3346 L
2569 3299 mt 2619 3349 L
2619 3299 mt 2569 3349 L
2600 3300 mt 2650 3350 L
2650 3300 mt 2600 3350 L
2622 3301 mt 2672 3351 L
2672 3301 mt 2622 3351 L
2628 3301 mt 2678 3351 L
2678 3301 mt 2628 3351 L
2673 3303 mt 2723 3353 L
2723 3303 mt 2673 3353 L
2689 3303 mt 2739 3353 L
2739 3303 mt 2689 3353 L
2722 3304 mt 2772 3354 L
2772 3304 mt 2722 3354 L
2745 3305 mt 2795 3355 L
2795 3305 mt 2745 3355 L
2791 3306 mt 2841 3356 L
2841 3306 mt 2791 3356 L
2797 3306 mt 2847 3356 L
2847 3306 mt 2797 3356 L
2799 3306 mt 2849 3356 L
2849 3306 mt 2799 3356 L
2817 3306 mt 2867 3356 L
2867 3306 mt 2817 3356 L
2898 3308 mt 2948 3358 L
2948 3308 mt 2898 3358 L
2904 3308 mt 2954 3358 L
2954 3308 mt 2904 3358 L
2936 3309 mt 2986 3359 L
2986 3309 mt 2936 3359 L
2940 3309 mt 2990 3359 L
2990 3309 mt 2940 3359 L
2985 3310 mt 3035 3360 L
3035 3310 mt 2985 3360 L
3012 3310 mt 3062 3360 L
3062 3310 mt 3012 3360 L
3019 3310 mt 3069 3360 L
3069 3310 mt 3019 3360 L
3115 3312 mt 3165 3362 L
3165 3312 mt 3115 3362 L
3215 3313 mt 3265 3363 L
3265 3313 mt 3215 3363 L
3219 3313 mt 3269 3363 L
3269 3313 mt 3219 3363 L
3280 3314 mt 3330 3364 L
3330 3314 mt 3280 3364 L
3321 3314 mt 3371 3364 L
3371 3314 mt 3321 3364 L
3331 3314 mt 3381 3364 L
3381 3314 mt 3331 3364 L
3421 3315 mt 3471 3365 L
3471 3315 mt 3421 3365 L
3440 3315 mt 3490 3365 L
3490 3315 mt 3440 3365 L
3578 3317 mt 3628 3367 L
3628 3317 mt 3578 3367 L
3594 3317 mt 3644 3367 L
3644 3317 mt 3594 3367 L
3631 3317 mt 3681 3367 L
3681 3317 mt 3631 3367 L
3659 3317 mt 3709 3367 L
3709 3317 mt 3659 3367 L
3682 3317 mt 3732 3367 L
3732 3317 mt 3682 3367 L
3689 3317 mt 3739 3367 L
3739 3317 mt 3689 3367 L
3729 3318 mt 3779 3368 L
3779 3318 mt 3729 3368 L
3746 3318 mt 3796 3368 L
3796 3318 mt 3746 3368 L
3789 3318 mt 3839 3368 L
3839 3318 mt 3789 3368 L
3829 3318 mt 3879 3368 L
3879 3318 mt 3829 3368 L
3875 3318 mt 3925 3368 L
3925 3318 mt 3875 3368 L
3878 3319 mt 3928 3369 L
3928 3319 mt 3878 3369 L
3926 3319 mt 3976 3369 L
3976 3319 mt 3926 3369 L
3942 3319 mt 3992 3369 L
3992 3319 mt 3942 3369 L
3984 3319 mt 4034 3369 L
4034 3319 mt 3984 3369 L
4048 3319 mt 4098 3369 L
4098 3319 mt 4048 3369 L
4068 3319 mt 4118 3369 L
4118 3319 mt 4068 3369 L
4104 3320 mt 4154 3370 L
4154 3320 mt 4104 3370 L
4110 3320 mt 4160 3370 L
4160 3320 mt 4110 3370 L
4168 3320 mt 4218 3370 L
4218 3320 mt 4168 3370 L
4187 3320 mt 4237 3370 L
4237 3320 mt 4187 3370 L
4191 3320 mt 4241 3370 L
4241 3320 mt 4191 3370 L
4306 3320 mt 4356 3370 L
4356 3320 mt 4306 3370 L
4408 3321 mt 4458 3371 L
4458 3321 mt 4408 3371 L
4462 3321 mt 4512 3371 L
4512 3321 mt 4462 3371 L
4541 3321 mt 4591 3371 L
4591 3321 mt 4541 3371 L
gs 656 284 3911 3067 rc
/c9 { 1.000000 0.000000 0.000000 sr} bdef
c9
54 0 102 0 115 0 4 0 19 1 58 0 6 0 36 0 
20 0 64 0 42 0 16 0 48 0 3 0 46 0 40 0 
43 1 17 0 40 0 7 0 23 0 28 0 37 0 16 0 
138 0 19 0 90 1 10 0 41 0 61 0 4 0 100 0 
96 0 0 1 7 0 27 0 45 0 4 1 32 0 6 0 
81 0 18 0 2 1 6 0 46 0 23 0 33 0 16 1 
45 0 6 0 22 0 31 1 79 0 29 0 65 0 22 1 
3 0 10 1 39 0 6 13 63 0 30 2 32 -2 2 0 
118 3 20 2 64 1 120 4 14 12 2 -3 30 32 8 2 
173 10 2 43 34 6 0 -2 80 9 160 137 19 -7 8 48 
77 88 14 3 18 30 49 113 182 801 79 768 24 411 919 812 88 MP stroke
gr

c9
  36   36  919  812 FO
  36   36  943 1223 FO
  36   36 1022 1991 FO
  36   36 1204 2792 FO
  36   36 1253 2905 FO
  36   36 1271 2935 FO
  36   36 1285 2938 FO
  36   36 1362 3026 FO
  36   36 1370 3074 FO
  36   36 1389 3067 FO
  36   36 1549 3204 FO
  36   36 1629 3213 FO
  36   36 1629 3211 FO
  36   36 1663 3217 FO
  36   36 1665 3260 FO
  36   36 1838 3270 FO
  36   36 1846 3272 FO
  36   36 1876 3304 FO
  36   36 1878 3301 FO
  36   36 1892 3313 FO
  36   36 2012 3317 FO
  36   36 2076 3318 FO
  36   36 2096 3320 FO
  36   36 2214 3323 FO
  36   36 2216 3323 FO
  36   36 2248 3321 FO
  36   36 2278 3323 FO
  36   36 2341 3323 FO
  36   36 2347 3336 FO
  36   36 2386 3336 FO
  36   36 2396 3337 FO
  36   36 2399 3337 FO
  36   36 2421 3338 FO
  36   36 2486 3338 FO
  36   36 2515 3338 FO
  36   36 2594 3338 FO
  36   36 2625 3339 FO
  36   36 2647 3339 FO
  36   36 2653 3339 FO
  36   36 2698 3339 FO
  36   36 2714 3340 FO
  36   36 2747 3340 FO
  36   36 2770 3340 FO
  36   36 2816 3340 FO
  36   36 2822 3340 FO
  36   36 2824 3341 FO
  36   36 2842 3341 FO
  36   36 2923 3341 FO
  36   36 2929 3341 FO
  36   36 2961 3341 FO
  36   36 2965 3342 FO
  36   36 3010 3342 FO
  36   36 3037 3342 FO
  36   36 3044 3342 FO
  36   36 3044 3343 FO
  36   36 3140 3343 FO
  36   36 3240 3343 FO
  36   36 3244 3343 FO
  36   36 3305 3343 FO
  36   36 3346 3343 FO
  36   36 3356 3343 FO
  36   36 3446 3344 FO
  36   36 3465 3344 FO
  36   36 3603 3344 FO
  36   36 3619 3344 FO
  36   36 3656 3344 FO
  36   36 3684 3344 FO
  36   36 3707 3344 FO
  36   36 3714 3344 FO
  36   36 3754 3344 FO
  36   36 3771 3344 FO
  36   36 3814 3345 FO
  36   36 3854 3345 FO
  36   36 3900 3345 FO
  36   36 3903 3345 FO
  36   36 3951 3345 FO
  36   36 3967 3345 FO
  36   36 4009 3345 FO
  36   36 4073 3345 FO
  36   36 4093 3345 FO
  36   36 4129 3345 FO
  36   36 4135 3345 FO
  36   36 4193 3345 FO
  36   36 4212 3346 FO
  36   36 4216 3346 FO
  36   36 4331 3346 FO
  36   36 4433 3346 FO
  36   36 4487 3346 FO
gs 656 284 3911 3067 rc
gr

0 sg
%%IncludeResource: font Helvetica
/Helvetica /WindowsLatin1Encoding 240 FMSR

1750 3726 mt 
(Distance \(Hops\)) s
 346 3107 mt  -90 rotate
(Interference Value \(mW\)) s
90 rotate
%%IncludeResource: font Helvetica
/Helvetica /WindowsLatin1Encoding 120 FMSR

 639 3393 mt 
( ) s
4550  326 mt 
( ) s
6 w
1 sg
0 334 2004 0 0 -334 2503 678 4 MP
PP
-2004 0 0 334 2004 0 0 -334 2503 678 5 MP stroke
4 w
DO
SO
6 w
0 sg
2503  344 mt 4507  344 L
2503  678 mt 4507  678 L
4507  678 mt 4507  344 L
2503  678 mt 2503  344 L
2503  678 mt 4507  678 L
2503  678 mt 2503  344 L
2503  344 mt 4507  344 L
2503  678 mt 4507  678 L
4507  678 mt 4507  344 L
2503  678 mt 2503  344 L
2979  479 mt 
(Original Interference Values) s
gs 2503 344 2005 335 rc
12 w
c8
366 0 2576 436 2 MP stroke
gs 2686 363 147 147 rc
2723  436 mt 2795  436 L
2759  400 mt 2759  472 L
2734  411 mt 2784  461 L
2784  411 mt 2734  461 L
gr

gr

12 w
c8
0 sg
2979  628 mt 
(Recover Interference Values) s
gs 2503 344 2005 335 rc
c9
366 0 2576 585 2 MP stroke
gs 2686 512 147 147 rc
  36   36 2759  585 FO
gr

6 w
gr

6 w
c9

end %%Color Dict

eplot
%%EndObject

epage
end

showpage

%%Trailer
%%EOF
