%!PS-Adobe-3.0 EPSF-3.0
%%Creator: MATLAB, The Mathworks, Inc. Version 7.5.0.342 (R2007b). Operating System: Microsoft Windows Vista.
%%Title: C:\Research\SECON & MobiHoc\SECON\figures\overhead.eps
%%CreationDate: 12/14/2012  12:40:17
%%DocumentNeededFonts: Helvetica
%%DocumentProcessColors: Cyan Magenta Yellow Black
%%LanguageLevel: 2
%%Pages: 1
%%BoundingBox:    87   262   507   578
%%EndComments

%%BeginProlog
% MathWorks dictionary
/MathWorks 160 dict begin
% definition operators
/bdef {bind def} bind def
/ldef {load def} bind def
/xdef {exch def} bdef
/xstore {exch store} bdef
% operator abbreviations
/c  /clip ldef
/cc /concat ldef
/cp /closepath ldef
/gr /grestore ldef
/gs /gsave ldef
/mt /moveto ldef
/np /newpath ldef
/cm /currentmatrix ldef
/sm /setmatrix ldef
/rm /rmoveto ldef
/rl /rlineto ldef
/s {show newpath} bdef
/sc {setcmykcolor} bdef
/sr /setrgbcolor ldef
/sg /setgray ldef
/w /setlinewidth ldef
/j /setlinejoin ldef
/cap /setlinecap ldef
/rc {rectclip} bdef
/rf {rectfill} bdef
% page state control
/pgsv () def
/bpage {/pgsv save def} bdef
/epage {pgsv restore} bdef
/bplot /gsave ldef
/eplot {stroke grestore} bdef
% orientation switch
/portraitMode 0 def /landscapeMode 1 def /rotateMode 2 def
% coordinate system mappings
/dpi2point 0 def
% font control
/FontSize 0 def
/FMS {/FontSize xstore findfont [FontSize 0 0 FontSize neg 0 0]
  makefont setfont} bdef
/ISOLatin1Encoding where {pop /WindowsLatin1Encoding 256 array bdef
ISOLatin1Encoding WindowsLatin1Encoding copy pop
/.notdef/.notdef/quotesinglbase/florin/quotedblbase/ellipsis/dagger
/daggerdbl/circumflex/perthousand/Scaron/guilsinglleft/OE/.notdef/.notdef
/.notdef/.notdef/quoteleft/quoteright/quotedblleft/quotedblright/bullet
/endash/emdash/tilde/trademark/scaron/guilsinglright/oe/.notdef/.notdef
/Ydieresis WindowsLatin1Encoding 128 32 getinterval astore pop}
{/WindowsLatin1Encoding StandardEncoding bdef} ifelse
/reencode {exch dup where {pop load} {pop StandardEncoding} ifelse
  exch dup 3 1 roll findfont dup length dict begin
  { 1 index /FID ne {def}{pop pop} ifelse } forall
  /Encoding exch def currentdict end definefont pop} bdef
/isroman {findfont /CharStrings get /Agrave known} bdef
/FMSR {3 1 roll 1 index dup isroman {reencode} {pop pop} ifelse
  exch FMS} bdef
/csm {1 dpi2point div -1 dpi2point div scale neg translate
 dup landscapeMode eq {pop -90 rotate}
  {rotateMode eq {90 rotate} if} ifelse} bdef
% line types: solid, dotted, dashed, dotdash
/SO { [] 0 setdash } bdef
/DO { [.5 dpi2point mul 4 dpi2point mul] 0 setdash } bdef
/DA { [6 dpi2point mul] 0 setdash } bdef
/DD { [.5 dpi2point mul 4 dpi2point mul 6 dpi2point mul 4
  dpi2point mul] 0 setdash } bdef
% macros for lines and objects
/L {lineto stroke} bdef
/MP {3 1 roll moveto 1 sub {rlineto} repeat} bdef
/AP {{rlineto} repeat} bdef
/PDlw -1 def
/W {/PDlw currentlinewidth def setlinewidth} def
/PP {closepath eofill} bdef
/DP {closepath stroke} bdef
/MR {4 -2 roll moveto dup  0 exch rlineto exch 0 rlineto
  neg 0 exch rlineto closepath} bdef
/FR {MR stroke} bdef
/PR {MR fill} bdef
/L1i {{currentfile picstr readhexstring pop} image} bdef
/tMatrix matrix def
/MakeOval {newpath tMatrix currentmatrix pop translate scale
0 0 1 0 360 arc tMatrix setmatrix} bdef
/FO {MakeOval stroke} bdef
/PO {MakeOval fill} bdef
/PD {currentlinewidth 2 div 0 360 arc fill
   PDlw -1 eq not {PDlw w /PDlw -1 def} if} def
/FA {newpath tMatrix currentmatrix pop translate scale
  0 0 1 5 -2 roll arc tMatrix setmatrix stroke} bdef
/PA {newpath tMatrix currentmatrix pop	translate 0 0 moveto scale
  0 0 1 5 -2 roll arc closepath tMatrix setmatrix fill} bdef
/FAn {newpath tMatrix currentmatrix pop translate scale
  0 0 1 5 -2 roll arcn tMatrix setmatrix stroke} bdef
/PAn {newpath tMatrix currentmatrix pop translate 0 0 moveto scale
  0 0 1 5 -2 roll arcn closepath tMatrix setmatrix fill} bdef
/vradius 0 def /hradius 0 def /lry 0 def
/lrx 0 def /uly 0 def /ulx 0 def /rad 0 def
/MRR {/vradius xdef /hradius xdef /lry xdef /lrx xdef /uly xdef
  /ulx xdef newpath tMatrix currentmatrix pop ulx hradius add uly
  vradius add translate hradius vradius scale 0 0 1 180 270 arc 
  tMatrix setmatrix lrx hradius sub uly vradius add translate
  hradius vradius scale 0 0 1 270 360 arc tMatrix setmatrix
  lrx hradius sub lry vradius sub translate hradius vradius scale
  0 0 1 0 90 arc tMatrix setmatrix ulx hradius add lry vradius sub
  translate hradius vradius scale 0 0 1 90 180 arc tMatrix setmatrix
  closepath} bdef
/FRR {MRR stroke } bdef
/PRR {MRR fill } bdef
/MlrRR {/lry xdef /lrx xdef /uly xdef /ulx xdef /rad lry uly sub 2 div def
  newpath tMatrix currentmatrix pop ulx rad add uly rad add translate
  rad rad scale 0 0 1 90 270 arc tMatrix setmatrix lrx rad sub lry rad
  sub translate rad rad scale 0 0 1 270 90 arc tMatrix setmatrix
  closepath} bdef
/FlrRR {MlrRR stroke } bdef
/PlrRR {MlrRR fill } bdef
/MtbRR {/lry xdef /lrx xdef /uly xdef /ulx xdef /rad lrx ulx sub 2 div def
  newpath tMatrix currentmatrix pop ulx rad add uly rad add translate
  rad rad scale 0 0 1 180 360 arc tMatrix setmatrix lrx rad sub lry rad
  sub translate rad rad scale 0 0 1 0 180 arc tMatrix setmatrix
  closepath} bdef
/FtbRR {MtbRR stroke } bdef
/PtbRR {MtbRR fill } bdef
/stri 6 array def /dtri 6 array def
/smat 6 array def /dmat 6 array def
/tmat1 6 array def /tmat2 6 array def /dif 3 array def
/asub {/ind2 exch def /ind1 exch def dup dup
  ind1 get exch ind2 get sub exch } bdef
/tri_to_matrix {
  2 0 asub 3 1 asub 4 0 asub 5 1 asub
  dup 0 get exch 1 get 7 -1 roll astore } bdef
/compute_transform {
  dmat dtri tri_to_matrix tmat1 invertmatrix 
  smat stri tri_to_matrix tmat2 concatmatrix } bdef
/ds {stri astore pop} bdef
/dt {dtri astore pop} bdef
/db {2 copy /cols xdef /rows xdef mul dup 3 mul string
  currentfile 
  3 index 0 eq {/ASCIIHexDecode filter}
  {/ASCII85Decode filter 3 index 2 eq {/RunLengthDecode filter} if }
  ifelse exch readstring pop
  dup 0 3 index getinterval /rbmap xdef
  dup 2 index dup getinterval /gbmap xdef
  1 index dup 2 mul exch getinterval /bbmap xdef pop pop}bdef
/it {gs np dtri aload pop moveto lineto lineto cp c
  cols rows 8 compute_transform 
  rbmap gbmap bbmap true 3 colorimage gr}bdef
/il {newpath moveto lineto stroke}bdef
currentdict end def
%%EndProlog

%%BeginSetup
MathWorks begin

0 cap

end
%%EndSetup

%%Page: 1 1
%%BeginPageSetup
%%PageBoundingBox:    87   262   507   578
MathWorks begin
bpage
%%EndPageSetup

%%BeginObject: obj1
bplot

/dpi2point 12 def
portraitMode 1044 6936 csm

    0     0  5045  3782 rc
85 dict begin %Colortable dictionary
/c0 { 0.000000 0.000000 0.000000 sr} bdef
/c1 { 1.000000 1.000000 1.000000 sr} bdef
/c2 { 0.900000 0.000000 0.000000 sr} bdef
/c3 { 0.000000 0.820000 0.000000 sr} bdef
/c4 { 0.000000 0.000000 0.800000 sr} bdef
/c5 { 0.910000 0.820000 0.320000 sr} bdef
/c6 { 1.000000 0.260000 0.820000 sr} bdef
/c7 { 0.000000 0.820000 0.820000 sr} bdef
c0
1 j
1 sg
   0    0 5046 3783 rf
6 w
0 3032 3910 0 0 -3032 656 3316 4 MP
PP
-3910 0 0 3032 3910 0 0 -3032 656 3316 5 MP stroke
4 w
DO
SO
6 w
0 sg
 656  284 mt 4566  284 L
 656 3316 mt 4566 3316 L
4566 3316 mt 4566  284 L
 656 3316 mt  656  284 L
 656 3316 mt 4566 3316 L
 656 3316 mt  656  284 L
 656 3316 mt  656 3276 L
 656  284 mt  656  323 L
%%IncludeResource: font Helvetica
/Helvetica /WindowsLatin1Encoding 156 FMSR

 570 3495 mt 
(25) s
1144 3316 mt 1144 3276 L
1144  284 mt 1144  323 L
1058 3495 mt 
(30) s
1633 3316 mt 1633 3276 L
1633  284 mt 1633  323 L
1547 3495 mt 
(35) s
2122 3316 mt 2122 3276 L
2122  284 mt 2122  323 L
2036 3495 mt 
(40) s
2611 3316 mt 2611 3276 L
2611  284 mt 2611  323 L
2525 3495 mt 
(45) s
3099 3316 mt 3099 3276 L
3099  284 mt 3099  323 L
3013 3495 mt 
(50) s
3588 3316 mt 3588 3276 L
3588  284 mt 3588  323 L
3502 3495 mt 
(55) s
4077 3316 mt 4077 3276 L
4077  284 mt 4077  323 L
3991 3495 mt 
(60) s
4566 3316 mt 4566 3276 L
4566  284 mt 4566  323 L
4480 3495 mt 
(65) s
 656 3316 mt  695 3316 L
4566 3316 mt 4526 3316 L
 535 3374 mt 
(0) s
 656 2709 mt  695 2709 L
4566 2709 mt 4526 2709 L
 535 2767 mt 
(1) s
 656 2103 mt  695 2103 L
4566 2103 mt 4526 2103 L
 535 2161 mt 
(2) s
 656 1496 mt  695 1496 L
4566 1496 mt 4526 1496 L
 535 1554 mt 
(3) s
 656  890 mt  695  890 L
4566  890 mt 4526  890 L
 535  948 mt 
(4) s
 656  284 mt  695  284 L
4566  284 mt 4526  284 L
 535  342 mt 
(5) s
 656  284 mt 4566  284 L
 656 3316 mt 4566 3316 L
4566 3316 mt 4566  284 L
 656 3316 mt  656  284 L
gs 656 284 3911 3033 rc
/c8 { 0.000000 0.000000 1.000000 sr} bdef
c8
978 -141 977 -96 978 -210 1144 1288 4 MP stroke
gr

c8
1108 1288 mt 1180 1288 L
1144 1252 mt 1144 1324 L
2086 1078 mt 2158 1078 L
2122 1042 mt 2122 1114 L
3063  982 mt 3135  982 L
3099  946 mt 3099 1018 L
4041  841 mt 4113  841 L
4077  805 mt 4077  877 L
1119 1263 mt 1169 1313 L
1169 1263 mt 1119 1313 L
2097 1053 mt 2147 1103 L
2147 1053 mt 2097 1103 L
3074  957 mt 3124 1007 L
3124  957 mt 3074 1007 L
4052  816 mt 4102  866 L
4102  816 mt 4052  866 L
gs 656 284 3911 3033 rc
/c9 { 0.000000 0.500000 0.000000 sr} bdef
c9
978 -149 977 -200 978 -135 1144 1111 4 MP stroke
gr

c9
0 j
-41 71 -41 -71 82 0 1103 1135 4 MP
DP
-41 71 -41 -71 82 0 2081 1000 4 MP
DP
-41 71 -41 -71 82 0 3058 800 4 MP
DP
-41 71 -41 -71 82 0 4036 651 4 MP
DP
gs 656 284 3911 3033 rc
/c10 { 1.000000 0.000000 0.000000 sr} bdef
c10
978 -156 977 -180 978 -162 1144 947 4 MP stroke
gr

c10
  36   36 1144  947 FO
  36   36 2122  785 FO
  36   36 3099  605 FO
  36   36 4077  449 FO
gs 656 284 3911 3033 rc
/c11 { 0.000000 0.750000 0.750000 sr} bdef
c11
978 -51 977 -50 978 -77 1144 1378 4 MP stroke
gr

c11
0 -58 -58 0 0 58 58 0 1115 1349 5 MP
DP
0 -58 -58 0 0 58 58 0 2093 1272 5 MP
DP
0 -58 -58 0 0 58 58 0 3070 1222 5 MP
DP
0 -58 -58 0 0 58 58 0 4048 1171 5 MP
DP
gs 656 284 3911 3033 rc
/c12 { 0.750000 0.000000 0.750000 sr} bdef
c12
978 -48 977 -92 978 -89 1144 1787 4 MP stroke
gr

c12
-41 71 -41 -71 82 0 1103 1811 4 MP
DP
-41 71 -41 -71 82 0 2081 1722 4 MP
DP
-41 71 -41 -71 82 0 3058 1630 4 MP
DP
-41 71 -41 -71 82 0 4036 1582 4 MP
DP
gs 656 284 3911 3033 rc
gr

0 sg
%%IncludeResource: font Helvetica
/Helvetica /WindowsLatin1Encoding 240 FMSR

1450 3726 mt 
(Sensor Node Number) s
 426 3102 mt  -90 rotate
(Packets \(in log10-scale\)) s
90 rotate
%%IncludeResource: font Helvetica
/Helvetica /WindowsLatin1Encoding 120 FMSR

 639 3359 mt 
( ) s
4550  326 mt 
( ) s
1 sg
0 982 1689 0 0 -982 716 3257 4 MP
PP
-1689 0 0 982 1689 0 0 -982 716 3257 5 MP stroke
4 w
DO
SO
6 w
0 sg
 716 2275 mt 2405 2275 L
 716 3257 mt 2405 3257 L
2405 3257 mt 2405 2275 L
 716 3257 mt  716 2275 L
 716 3257 mt 2405 3257 L
 716 3257 mt  716 2275 L
 716 2275 mt 2405 2275 L
 716 3257 mt 2405 3257 L
2405 3257 mt 2405 2275 L
 716 3257 mt  716 2275 L
%%IncludeResource: font Helvetica
/Helvetica /WindowsLatin1Encoding 156 FMSR

1169 2443 mt 
(aim\(rounds=100\)) s
gs 716 2275 1690 983 rc
c8
348 0 785 2388 2 MP stroke
gs 886 2315 147 147 rc
 923 2388 mt  995 2388 L
 959 2352 mt  959 2424 L
 934 2363 mt  984 2413 L
 984 2363 mt  934 2413 L
gr

gr

c8
0 sg
1169 2632 mt 
(aim\(rounds=300\)) s
gs 716 2275 1690 983 rc
c9
348 0 785 2577 2 MP stroke
gs 886 2504 147 147 rc
-41 71 -41 -71 82 0 918 2601 4 MP
DP
gr

gr

c9
0 sg
1169 2822 mt 
(aim\(rounds=500\)) s
gs 716 2275 1690 983 rc
c10
348 0 785 2766 2 MP stroke
gs 886 2693 147 147 rc
  36   36  959 2766 FO
gr

gr

c10
0 sg
1169 3011 mt 
(pim) s
gs 716 2275 1690 983 rc
c11
348 0 785 2954 2 MP stroke
gs 886 2881 147 147 rc
0 -58 -58 0 0 58 58 0 930 2925 5 MP
DP
gr

gr

c11
0 sg
1169 3200 mt 
(eim) s
gs 716 2275 1690 983 rc
c12
348 0 785 3143 2 MP stroke
gs 886 3070 147 147 rc
-41 71 -41 -71 82 0 918 3167 4 MP
DP
gr

gr

c12

end %%Color Dict

eplot
%%EndObject

epage
end

showpage

%%Trailer
%%EOF
