%!PS-Adobe-3.0 EPSF-3.0
%%Creator: MATLAB, The Mathworks, Inc. Version 7.5.0.342 (R2007b). Operating System: Microsoft Windows Vista.
%%Title: C:\Research\SECON & MobiHoc\sinr_prr_40.eps
%%CreationDate: 12/11/2012  16:11:11
%%DocumentNeededFonts: Helvetica
%%DocumentProcessColors: Cyan Magenta Yellow Black
%%LanguageLevel: 2
%%Pages: 1
%%BoundingBox:    87   262   507   578
%%EndComments

%%BeginProlog
% MathWorks dictionary
/MathWorks 160 dict begin
% definition operators
/bdef {bind def} bind def
/ldef {load def} bind def
/xdef {exch def} bdef
/xstore {exch store} bdef
% operator abbreviations
/c  /clip ldef
/cc /concat ldef
/cp /closepath ldef
/gr /grestore ldef
/gs /gsave ldef
/mt /moveto ldef
/np /newpath ldef
/cm /currentmatrix ldef
/sm /setmatrix ldef
/rm /rmoveto ldef
/rl /rlineto ldef
/s {show newpath} bdef
/sc {setcmykcolor} bdef
/sr /setrgbcolor ldef
/sg /setgray ldef
/w /setlinewidth ldef
/j /setlinejoin ldef
/cap /setlinecap ldef
/rc {rectclip} bdef
/rf {rectfill} bdef
% page state control
/pgsv () def
/bpage {/pgsv save def} bdef
/epage {pgsv restore} bdef
/bplot /gsave ldef
/eplot {stroke grestore} bdef
% orientation switch
/portraitMode 0 def /landscapeMode 1 def /rotateMode 2 def
% coordinate system mappings
/dpi2point 0 def
% font control
/FontSize 0 def
/FMS {/FontSize xstore findfont [FontSize 0 0 FontSize neg 0 0]
  makefont setfont} bdef
/ISOLatin1Encoding where {pop /WindowsLatin1Encoding 256 array bdef
ISOLatin1Encoding WindowsLatin1Encoding copy pop
/.notdef/.notdef/quotesinglbase/florin/quotedblbase/ellipsis/dagger
/daggerdbl/circumflex/perthousand/Scaron/guilsinglleft/OE/.notdef/.notdef
/.notdef/.notdef/quoteleft/quoteright/quotedblleft/quotedblright/bullet
/endash/emdash/tilde/trademark/scaron/guilsinglright/oe/.notdef/.notdef
/Ydieresis WindowsLatin1Encoding 128 32 getinterval astore pop}
{/WindowsLatin1Encoding StandardEncoding bdef} ifelse
/reencode {exch dup where {pop load} {pop StandardEncoding} ifelse
  exch dup 3 1 roll findfont dup length dict begin
  { 1 index /FID ne {def}{pop pop} ifelse } forall
  /Encoding exch def currentdict end definefont pop} bdef
/isroman {findfont /CharStrings get /Agrave known} bdef
/FMSR {3 1 roll 1 index dup isroman {reencode} {pop pop} ifelse
  exch FMS} bdef
/csm {1 dpi2point div -1 dpi2point div scale neg translate
 dup landscapeMode eq {pop -90 rotate}
  {rotateMode eq {90 rotate} if} ifelse} bdef
% line types: solid, dotted, dashed, dotdash
/SO { [] 0 setdash } bdef
/DO { [.5 dpi2point mul 4 dpi2point mul] 0 setdash } bdef
/DA { [6 dpi2point mul] 0 setdash } bdef
/DD { [.5 dpi2point mul 4 dpi2point mul 6 dpi2point mul 4
  dpi2point mul] 0 setdash } bdef
% macros for lines and objects
/L {lineto stroke} bdef
/MP {3 1 roll moveto 1 sub {rlineto} repeat} bdef
/AP {{rlineto} repeat} bdef
/PDlw -1 def
/W {/PDlw currentlinewidth def setlinewidth} def
/PP {closepath eofill} bdef
/DP {closepath stroke} bdef
/MR {4 -2 roll moveto dup  0 exch rlineto exch 0 rlineto
  neg 0 exch rlineto closepath} bdef
/FR {MR stroke} bdef
/PR {MR fill} bdef
/L1i {{currentfile picstr readhexstring pop} image} bdef
/tMatrix matrix def
/MakeOval {newpath tMatrix currentmatrix pop translate scale
0 0 1 0 360 arc tMatrix setmatrix} bdef
/FO {MakeOval stroke} bdef
/PO {MakeOval fill} bdef
/PD {currentlinewidth 2 div 0 360 arc fill
   PDlw -1 eq not {PDlw w /PDlw -1 def} if} def
/FA {newpath tMatrix currentmatrix pop translate scale
  0 0 1 5 -2 roll arc tMatrix setmatrix stroke} bdef
/PA {newpath tMatrix currentmatrix pop	translate 0 0 moveto scale
  0 0 1 5 -2 roll arc closepath tMatrix setmatrix fill} bdef
/FAn {newpath tMatrix currentmatrix pop translate scale
  0 0 1 5 -2 roll arcn tMatrix setmatrix stroke} bdef
/PAn {newpath tMatrix currentmatrix pop translate 0 0 moveto scale
  0 0 1 5 -2 roll arcn closepath tMatrix setmatrix fill} bdef
/vradius 0 def /hradius 0 def /lry 0 def
/lrx 0 def /uly 0 def /ulx 0 def /rad 0 def
/MRR {/vradius xdef /hradius xdef /lry xdef /lrx xdef /uly xdef
  /ulx xdef newpath tMatrix currentmatrix pop ulx hradius add uly
  vradius add translate hradius vradius scale 0 0 1 180 270 arc 
  tMatrix setmatrix lrx hradius sub uly vradius add translate
  hradius vradius scale 0 0 1 270 360 arc tMatrix setmatrix
  lrx hradius sub lry vradius sub translate hradius vradius scale
  0 0 1 0 90 arc tMatrix setmatrix ulx hradius add lry vradius sub
  translate hradius vradius scale 0 0 1 90 180 arc tMatrix setmatrix
  closepath} bdef
/FRR {MRR stroke } bdef
/PRR {MRR fill } bdef
/MlrRR {/lry xdef /lrx xdef /uly xdef /ulx xdef /rad lry uly sub 2 div def
  newpath tMatrix currentmatrix pop ulx rad add uly rad add translate
  rad rad scale 0 0 1 90 270 arc tMatrix setmatrix lrx rad sub lry rad
  sub translate rad rad scale 0 0 1 270 90 arc tMatrix setmatrix
  closepath} bdef
/FlrRR {MlrRR stroke } bdef
/PlrRR {MlrRR fill } bdef
/MtbRR {/lry xdef /lrx xdef /uly xdef /ulx xdef /rad lrx ulx sub 2 div def
  newpath tMatrix currentmatrix pop ulx rad add uly rad add translate
  rad rad scale 0 0 1 180 360 arc tMatrix setmatrix lrx rad sub lry rad
  sub translate rad rad scale 0 0 1 0 180 arc tMatrix setmatrix
  closepath} bdef
/FtbRR {MtbRR stroke } bdef
/PtbRR {MtbRR fill } bdef
/stri 6 array def /dtri 6 array def
/smat 6 array def /dmat 6 array def
/tmat1 6 array def /tmat2 6 array def /dif 3 array def
/asub {/ind2 exch def /ind1 exch def dup dup
  ind1 get exch ind2 get sub exch } bdef
/tri_to_matrix {
  2 0 asub 3 1 asub 4 0 asub 5 1 asub
  dup 0 get exch 1 get 7 -1 roll astore } bdef
/compute_transform {
  dmat dtri tri_to_matrix tmat1 invertmatrix 
  smat stri tri_to_matrix tmat2 concatmatrix } bdef
/ds {stri astore pop} bdef
/dt {dtri astore pop} bdef
/db {2 copy /cols xdef /rows xdef mul dup 3 mul string
  currentfile 
  3 index 0 eq {/ASCIIHexDecode filter}
  {/ASCII85Decode filter 3 index 2 eq {/RunLengthDecode filter} if }
  ifelse exch readstring pop
  dup 0 3 index getinterval /rbmap xdef
  dup 2 index dup getinterval /gbmap xdef
  1 index dup 2 mul exch getinterval /bbmap xdef pop pop}bdef
/it {gs np dtri aload pop moveto lineto lineto cp c
  cols rows 8 compute_transform 
  rbmap gbmap bbmap true 3 colorimage gr}bdef
/il {newpath moveto lineto stroke}bdef
currentdict end def
%%EndProlog

%%BeginSetup
MathWorks begin

0 cap

end
%%EndSetup

%%Page: 1 1
%%BeginPageSetup
%%PageBoundingBox:    87   262   507   578
MathWorks begin
bpage
%%EndPageSetup

%%BeginObject: obj1
bplot

/dpi2point 12 def
portraitMode 1044 6936 csm

    0     0  5045  3782 rc
85 dict begin %Colortable dictionary
/c0 { 0.000000 0.000000 0.000000 sr} bdef
/c1 { 1.000000 1.000000 1.000000 sr} bdef
/c2 { 0.900000 0.000000 0.000000 sr} bdef
/c3 { 0.000000 0.820000 0.000000 sr} bdef
/c4 { 0.000000 0.000000 0.800000 sr} bdef
/c5 { 0.910000 0.820000 0.320000 sr} bdef
/c6 { 1.000000 0.260000 0.820000 sr} bdef
/c7 { 0.000000 0.820000 0.820000 sr} bdef
c0
1 j
1 sg
   0    0 5046 3783 rf
6 w
0 3032 3910 0 0 -3032 656 3316 4 MP
PP
-3910 0 0 3032 3910 0 0 -3032 656 3316 5 MP stroke
4 w
DO
SO
6 w
0 sg
 656  284 mt 4566  284 L
 656 3316 mt 4566 3316 L
4566 3316 mt 4566  284 L
 656 3316 mt  656  284 L
 656 3316 mt 4566 3316 L
 656 3316 mt  656  284 L
 656 3316 mt  656 3276 L
 656  284 mt  656  323 L
%%IncludeResource: font Helvetica
/Helvetica /WindowsLatin1Encoding 156 FMSR

 523 3495 mt 
(-2) s
1144 3316 mt 1144 3276 L
1144  284 mt 1144  323 L
 946 3495 mt 
(-1.5) s
1633 3316 mt 1633 3276 L
1633  284 mt 1633  323 L
1500 3495 mt 
(-1) s
2122 3316 mt 2122 3276 L
2122  284 mt 2122  323 L
1924 3495 mt 
(-0.5) s
2611 3316 mt 2611 3276 L
2611  284 mt 2611  323 L
2568 3495 mt 
(0) s
3099 3316 mt 3099 3276 L
3099  284 mt 3099  323 L
2991 3495 mt 
(0.5) s
3588 3316 mt 3588 3276 L
3588  284 mt 3588  323 L
3545 3495 mt 
(1) s
4077 3316 mt 4077 3276 L
4077  284 mt 4077  323 L
3969 3495 mt 
(1.5) s
4566 3316 mt 4566 3276 L
4566  284 mt 4566  323 L
4523 3495 mt 
(2) s
 656 3316 mt  695 3316 L
4566 3316 mt 4526 3316 L
 535 3374 mt 
(0) s
 656 3012 mt  695 3012 L
4566 3012 mt 4526 3012 L
 448 3070 mt 
(10) s
 656 2709 mt  695 2709 L
4566 2709 mt 4526 2709 L
 448 2767 mt 
(20) s
 656 2406 mt  695 2406 L
4566 2406 mt 4526 2406 L
 448 2464 mt 
(30) s
 656 2103 mt  695 2103 L
4566 2103 mt 4526 2103 L
 448 2161 mt 
(40) s
 656 1800 mt  695 1800 L
4566 1800 mt 4526 1800 L
 448 1858 mt 
(50) s
 656 1496 mt  695 1496 L
4566 1496 mt 4526 1496 L
 448 1554 mt 
(60) s
 656 1193 mt  695 1193 L
4566 1193 mt 4526 1193 L
 448 1251 mt 
(70) s
 656  890 mt  695  890 L
4566  890 mt 4526  890 L
 448  948 mt 
(80) s
 656  587 mt  695  587 L
4566  587 mt 4526  587 L
 448  645 mt 
(90) s
 656  284 mt  695  284 L
4566  284 mt 4526  284 L
 361  342 mt 
(100) s
 656  284 mt 4566  284 L
 656 3316 mt 4566 3316 L
4566 3316 mt 4566  284 L
 656 3316 mt  656  284 L
gs 656 284 3911 3033 rc
/c8 { 0.000000 0.000000 1.000000 sr} bdef
c8
196 -151 195 -124 196 -507 195 -4 196 97 195 -365 196 -618 195 535 
196 -326 195 23 196 -379 195 87 196 -347 195 -459 196 58 195 -215 
196 31 195 -230 196 115 195 -253 656 3316 21 MP stroke
gr

c8
 620 3316 mt  692 3316 L
 656 3280 mt  656 3352 L
 815 3063 mt  887 3063 L
 851 3027 mt  851 3099 L
1011 3178 mt 1083 3178 L
1047 3142 mt 1047 3214 L
1206 2948 mt 1278 2948 L
1242 2912 mt 1242 2984 L
1402 2979 mt 1474 2979 L
1438 2943 mt 1438 3015 L
1597 2764 mt 1669 2764 L
1633 2728 mt 1633 2800 L
1793 2822 mt 1865 2822 L
1829 2786 mt 1829 2858 L
1988 2363 mt 2060 2363 L
2024 2327 mt 2024 2399 L
2184 2016 mt 2256 2016 L
2220 1980 mt 2220 2052 L
2379 2103 mt 2451 2103 L
2415 2067 mt 2415 2139 L
2575 1724 mt 2647 1724 L
2611 1688 mt 2611 1760 L
2770 1747 mt 2842 1747 L
2806 1711 mt 2806 1783 L
2966 1421 mt 3038 1421 L
3002 1385 mt 3002 1457 L
3161 1956 mt 3233 1956 L
3197 1920 mt 3197 1992 L
3357 1338 mt 3429 1338 L
3393 1302 mt 3393 1374 L
3552  973 mt 3624  973 L
3588  937 mt 3588 1009 L
3748 1070 mt 3820 1070 L
3784 1034 mt 3784 1106 L
3943 1066 mt 4015 1066 L
3979 1030 mt 3979 1102 L
4139  559 mt 4211  559 L
4175  523 mt 4175  595 L
4334  435 mt 4406  435 L
4370  399 mt 4370  471 L
4530  284 mt 4602  284 L
4566  248 mt 4566  320 L
 631 3291 mt  681 3341 L
 681 3291 mt  631 3341 L
 826 3038 mt  876 3088 L
 876 3038 mt  826 3088 L
1022 3153 mt 1072 3203 L
1072 3153 mt 1022 3203 L
1217 2923 mt 1267 2973 L
1267 2923 mt 1217 2973 L
1413 2954 mt 1463 3004 L
1463 2954 mt 1413 3004 L
1608 2739 mt 1658 2789 L
1658 2739 mt 1608 2789 L
1804 2797 mt 1854 2847 L
1854 2797 mt 1804 2847 L
1999 2338 mt 2049 2388 L
2049 2338 mt 1999 2388 L
2195 1991 mt 2245 2041 L
2245 1991 mt 2195 2041 L
2390 2078 mt 2440 2128 L
2440 2078 mt 2390 2128 L
2586 1699 mt 2636 1749 L
2636 1699 mt 2586 1749 L
2781 1722 mt 2831 1772 L
2831 1722 mt 2781 1772 L
2977 1396 mt 3027 1446 L
3027 1396 mt 2977 1446 L
3172 1931 mt 3222 1981 L
3222 1931 mt 3172 1981 L
3368 1313 mt 3418 1363 L
3418 1313 mt 3368 1363 L
3563  948 mt 3613  998 L
3613  948 mt 3563  998 L
3759 1045 mt 3809 1095 L
3809 1045 mt 3759 1095 L
3954 1041 mt 4004 1091 L
4004 1041 mt 3954 1091 L
4150  534 mt 4200  584 L
4200  534 mt 4150  584 L
4345  410 mt 4395  460 L
4395  410 mt 4345  460 L
4541  259 mt 4591  309 L
4591  259 mt 4541  309 L
gs 656 284 3911 3033 rc
/c9 { 0.000000 0.500000 0.000000 sr} bdef
c9
196 -2 195 -276 196 -65 195 -90 196 -5 195 -363 196 -43 195 -135 
196 -204 195 -222 196 -74 195 -353 196 226 195 -443 196 -111 195 -24 
196 -267 195 46 196 -262 195 -156 656 3233 21 MP stroke
gr

c9
0 j
-41 71 -41 -71 82 0 615 3257 4 MP
DP
-41 71 -41 -71 82 0 810 3101 4 MP
DP
-41 71 -41 -71 82 0 1006 2839 4 MP
DP
-41 71 -41 -71 82 0 1201 2885 4 MP
DP
-41 71 -41 -71 82 0 1397 2618 4 MP
DP
-41 71 -41 -71 82 0 1592 2594 4 MP
DP
-41 71 -41 -71 82 0 1788 2483 4 MP
DP
-41 71 -41 -71 82 0 1983 2040 4 MP
DP
-41 71 -41 -71 82 0 2179 2266 4 MP
DP
-41 71 -41 -71 82 0 2374 1913 4 MP
DP
-41 71 -41 -71 82 0 2570 1839 4 MP
DP
-41 71 -41 -71 82 0 2765 1617 4 MP
DP
-41 71 -41 -71 82 0 2961 1413 4 MP
DP
-41 71 -41 -71 82 0 3156 1278 4 MP
DP
-41 71 -41 -71 82 0 3352 1235 4 MP
DP
-41 71 -41 -71 82 0 3547 872 4 MP
DP
-41 71 -41 -71 82 0 3743 867 4 MP
DP
-41 71 -41 -71 82 0 3938 777 4 MP
DP
-41 71 -41 -71 82 0 4134 712 4 MP
DP
-41 71 -41 -71 82 0 4329 436 4 MP
DP
-41 71 -41 -71 82 0 4525 434 4 MP
DP
gs 656 284 3911 3033 rc
/c10 { 1.000000 0.000000 0.000000 sr} bdef
c10
196 -134 195 -121 196 -259 195 -129 196 37 195 -214 196 -215 195 -302 
196 -254 195 139 196 -150 195 -224 196 -21 195 -76 196 -266 195 -206 
196 -178 195 -274 196 -47 195 -111 656 3289 21 MP stroke
gr

c10
  36   36  656 3289 FO
  36   36  851 3178 FO
  36   36 1047 3131 FO
  36   36 1242 2857 FO
  36   36 1438 2679 FO
  36   36 1633 2473 FO
  36   36 1829 2207 FO
  36   36 2024 2131 FO
  36   36 2220 2110 FO
  36   36 2415 1886 FO
  36   36 2611 1736 FO
  36   36 2806 1875 FO
  36   36 3002 1621 FO
  36   36 3197 1319 FO
  36   36 3393 1104 FO
  36   36 3588  890 FO
  36   36 3784  927 FO
  36   36 3979  798 FO
  36   36 4175  539 FO
  36   36 4370  418 FO
  36   36 4566  284 FO
gs 656 284 3911 3033 rc
/c11 { 0.000000 0.750000 0.750000 sr} bdef
c11
196 -138 195 -142 196 -205 195 -170 196 -161 195 -29 196 -186 195 -114 
196 -192 195 -181 196 -73 195 -204 196 -121 195 -97 196 -168 195 -169 
196 -155 195 -171 196 -106 195 -157 656 3274 21 MP stroke
gr

c11
0 -58 -58 0 0 58 58 0 627 3245 5 MP
DP
0 -58 -58 0 0 58 58 0 822 3088 5 MP
DP
0 -58 -58 0 0 58 58 0 1018 2982 5 MP
DP
0 -58 -58 0 0 58 58 0 1213 2811 5 MP
DP
0 -58 -58 0 0 58 58 0 1409 2656 5 MP
DP
0 -58 -58 0 0 58 58 0 1604 2487 5 MP
DP
0 -58 -58 0 0 58 58 0 1800 2319 5 MP
DP
0 -58 -58 0 0 58 58 0 1995 2222 5 MP
DP
0 -58 -58 0 0 58 58 0 2191 2101 5 MP
DP
0 -58 -58 0 0 58 58 0 2386 1897 5 MP
DP
0 -58 -58 0 0 58 58 0 2582 1824 5 MP
DP
0 -58 -58 0 0 58 58 0 2777 1643 5 MP
DP
0 -58 -58 0 0 58 58 0 2973 1451 5 MP
DP
0 -58 -58 0 0 58 58 0 3168 1337 5 MP
DP
0 -58 -58 0 0 58 58 0 3364 1151 5 MP
DP
0 -58 -58 0 0 58 58 0 3559 1122 5 MP
DP
0 -58 -58 0 0 58 58 0 3755 961 5 MP
DP
0 -58 -58 0 0 58 58 0 3950 791 5 MP
DP
0 -58 -58 0 0 58 58 0 4146 586 5 MP
DP
0 -58 -58 0 0 58 58 0 4341 444 5 MP
DP
0 -58 -58 0 0 58 58 0 4537 306 5 MP
DP
gs 656 284 3911 3033 rc
/c12 { 0.750000 0.000000 0.750000 sr} bdef
c12
196 -119 195 -200 196 -113 195 -270 196 -51 195 -108 196 -128 195 -89 
196 -175 195 -178 196 -154 195 -96 196 -320 195 -119 196 -84 195 -94 
196 -204 195 -127 196 -205 195 -140 656 3299 21 MP stroke
gr

c12
-41 71 -41 -71 82 0 615 3323 4 MP
DP
-41 71 -41 -71 82 0 810 3183 4 MP
DP
-41 71 -41 -71 82 0 1006 2978 4 MP
DP
-41 71 -41 -71 82 0 1201 2851 4 MP
DP
-41 71 -41 -71 82 0 1397 2647 4 MP
DP
-41 71 -41 -71 82 0 1592 2553 4 MP
DP
-41 71 -41 -71 82 0 1788 2469 4 MP
DP
-41 71 -41 -71 82 0 1983 2350 4 MP
DP
-41 71 -41 -71 82 0 2179 2030 4 MP
DP
-41 71 -41 -71 82 0 2374 1934 4 MP
DP
-41 71 -41 -71 82 0 2570 1780 4 MP
DP
-41 71 -41 -71 82 0 2765 1602 4 MP
DP
-41 71 -41 -71 82 0 2961 1427 4 MP
DP
-41 71 -41 -71 82 0 3156 1338 4 MP
DP
-41 71 -41 -71 82 0 3352 1210 4 MP
DP
-41 71 -41 -71 82 0 3547 1102 4 MP
DP
-41 71 -41 -71 82 0 3743 1051 4 MP
DP
-41 71 -41 -71 82 0 3938 781 4 MP
DP
-41 71 -41 -71 82 0 4134 668 4 MP
DP
-41 71 -41 -71 82 0 4329 468 4 MP
DP
-41 71 -41 -71 82 0 4525 349 4 MP
DP
gs 656 284 3911 3033 rc
gr

0 sg
%%IncludeResource: font Helvetica
/Helvetica /WindowsLatin1Encoding 240 FMSR

1711 3726 mt 
(SINR Values\(dB\)) s
 252 2595 mt  -90 rotate
(Percentage\(%\)) s
90 rotate
%%IncludeResource: font Helvetica
/Helvetica /WindowsLatin1Encoding 120 FMSR

 639 3359 mt 
( ) s
4550  326 mt 
( ) s
1 sg
0 982 1689 0 0 -982 716 1326 4 MP
PP
-1689 0 0 982 1689 0 0 -982 716 1326 5 MP stroke
4 w
DO
SO
6 w
0 sg
 716  344 mt 2405  344 L
 716 1326 mt 2405 1326 L
2405 1326 mt 2405  344 L
 716 1326 mt  716  344 L
 716 1326 mt 2405 1326 L
 716 1326 mt  716  344 L
 716  344 mt 2405  344 L
 716 1326 mt 2405 1326 L
2405 1326 mt 2405  344 L
 716 1326 mt  716  344 L
%%IncludeResource: font Helvetica
/Helvetica /WindowsLatin1Encoding 156 FMSR

1169  512 mt 
(aim\(rounds=100\)) s
gs 716 344 1690 983 rc
c8
348 0 785 457 2 MP stroke
gs 886 384 147 147 rc
 923  457 mt  995  457 L
 959  421 mt  959  493 L
 934  432 mt  984  482 L
 984  432 mt  934  482 L
gr

gr

c8
0 sg
1169  701 mt 
(aim\(rounds=300\)) s
gs 716 344 1690 983 rc
c9
348 0 785 646 2 MP stroke
gs 886 573 147 147 rc
-41 71 -41 -71 82 0 918 670 4 MP
DP
gr

gr

c9
0 sg
1169  891 mt 
(aim\(rounds=500\)) s
gs 716 344 1690 983 rc
c10
348 0 785 835 2 MP stroke
gs 886 762 147 147 rc
  36   36  959  835 FO
gr

gr

c10
0 sg
1169 1080 mt 
(pim) s
gs 716 344 1690 983 rc
c11
348 0 785 1023 2 MP stroke
gs 886 950 147 147 rc
0 -58 -58 0 0 58 58 0 930 994 5 MP
DP
gr

gr

c11
0 sg
1169 1269 mt 
(eim) s
gs 716 344 1690 983 rc
c12
348 0 785 1212 2 MP stroke
gs 886 1139 147 147 rc
-41 71 -41 -71 82 0 918 1236 4 MP
DP
gr

gr

c12

end %%Color Dict

eplot
%%EndObject

epage
end

showpage

%%Trailer
%%EOF
