%!PS-Adobe-3.0 EPSF-3.0
%%Creator: MATLAB, The Mathworks, Inc. Version 7.5.0.342 (R2007b). Operating System: Microsoft Windows XP.
%%Title: H:\Research\Papers\Interference\paper\script1.2\SR_Log.eps
%%CreationDate: 07/06/2012  15:29:00
%%DocumentNeededFonts: Helvetica
%%DocumentProcessColors: Cyan Magenta Yellow Black
%%LanguageLevel: 2
%%Pages: 1
%%BoundingBox:    87   262   507   578
%%EndComments

%%BeginProlog
% MathWorks dictionary
/MathWorks 160 dict begin
% definition operators
/bdef {bind def} bind def
/ldef {load def} bind def
/xdef {exch def} bdef
/xstore {exch store} bdef
% operator abbreviations
/c  /clip ldef
/cc /concat ldef
/cp /closepath ldef
/gr /grestore ldef
/gs /gsave ldef
/mt /moveto ldef
/np /newpath ldef
/cm /currentmatrix ldef
/sm /setmatrix ldef
/rm /rmoveto ldef
/rl /rlineto ldef
/s {show newpath} bdef
/sc {setcmykcolor} bdef
/sr /setrgbcolor ldef
/sg /setgray ldef
/w /setlinewidth ldef
/j /setlinejoin ldef
/cap /setlinecap ldef
/rc {rectclip} bdef
/rf {rectfill} bdef
% page state control
/pgsv () def
/bpage {/pgsv save def} bdef
/epage {pgsv restore} bdef
/bplot /gsave ldef
/eplot {stroke grestore} bdef
% orientation switch
/portraitMode 0 def /landscapeMode 1 def /rotateMode 2 def
% coordinate system mappings
/dpi2point 0 def
% font control
/FontSize 0 def
/FMS {/FontSize xstore findfont [FontSize 0 0 FontSize neg 0 0]
  makefont setfont} bdef
/ISOLatin1Encoding where {pop /WindowsLatin1Encoding 256 array bdef
ISOLatin1Encoding WindowsLatin1Encoding copy pop
/.notdef/.notdef/quotesinglbase/florin/quotedblbase/ellipsis/dagger
/daggerdbl/circumflex/perthousand/Scaron/guilsinglleft/OE/.notdef/.notdef
/.notdef/.notdef/quoteleft/quoteright/quotedblleft/quotedblright/bullet
/endash/emdash/tilde/trademark/scaron/guilsinglright/oe/.notdef/.notdef
/Ydieresis WindowsLatin1Encoding 128 32 getinterval astore pop}
{/WindowsLatin1Encoding StandardEncoding bdef} ifelse
/reencode {exch dup where {pop load} {pop StandardEncoding} ifelse
  exch dup 3 1 roll findfont dup length dict begin
  { 1 index /FID ne {def}{pop pop} ifelse } forall
  /Encoding exch def currentdict end definefont pop} bdef
/isroman {findfont /CharStrings get /Agrave known} bdef
/FMSR {3 1 roll 1 index dup isroman {reencode} {pop pop} ifelse
  exch FMS} bdef
/csm {1 dpi2point div -1 dpi2point div scale neg translate
 dup landscapeMode eq {pop -90 rotate}
  {rotateMode eq {90 rotate} if} ifelse} bdef
% line types: solid, dotted, dashed, dotdash
/SO { [] 0 setdash } bdef
/DO { [.5 dpi2point mul 4 dpi2point mul] 0 setdash } bdef
/DA { [6 dpi2point mul] 0 setdash } bdef
/DD { [.5 dpi2point mul 4 dpi2point mul 6 dpi2point mul 4
  dpi2point mul] 0 setdash } bdef
% macros for lines and objects
/L {lineto stroke} bdef
/MP {3 1 roll moveto 1 sub {rlineto} repeat} bdef
/AP {{rlineto} repeat} bdef
/PDlw -1 def
/W {/PDlw currentlinewidth def setlinewidth} def
/PP {closepath eofill} bdef
/DP {closepath stroke} bdef
/MR {4 -2 roll moveto dup  0 exch rlineto exch 0 rlineto
  neg 0 exch rlineto closepath} bdef
/FR {MR stroke} bdef
/PR {MR fill} bdef
/L1i {{currentfile picstr readhexstring pop} image} bdef
/tMatrix matrix def
/MakeOval {newpath tMatrix currentmatrix pop translate scale
0 0 1 0 360 arc tMatrix setmatrix} bdef
/FO {MakeOval stroke} bdef
/PO {MakeOval fill} bdef
/PD {currentlinewidth 2 div 0 360 arc fill
   PDlw -1 eq not {PDlw w /PDlw -1 def} if} def
/FA {newpath tMatrix currentmatrix pop translate scale
  0 0 1 5 -2 roll arc tMatrix setmatrix stroke} bdef
/PA {newpath tMatrix currentmatrix pop	translate 0 0 moveto scale
  0 0 1 5 -2 roll arc closepath tMatrix setmatrix fill} bdef
/FAn {newpath tMatrix currentmatrix pop translate scale
  0 0 1 5 -2 roll arcn tMatrix setmatrix stroke} bdef
/PAn {newpath tMatrix currentmatrix pop translate 0 0 moveto scale
  0 0 1 5 -2 roll arcn closepath tMatrix setmatrix fill} bdef
/vradius 0 def /hradius 0 def /lry 0 def
/lrx 0 def /uly 0 def /ulx 0 def /rad 0 def
/MRR {/vradius xdef /hradius xdef /lry xdef /lrx xdef /uly xdef
  /ulx xdef newpath tMatrix currentmatrix pop ulx hradius add uly
  vradius add translate hradius vradius scale 0 0 1 180 270 arc 
  tMatrix setmatrix lrx hradius sub uly vradius add translate
  hradius vradius scale 0 0 1 270 360 arc tMatrix setmatrix
  lrx hradius sub lry vradius sub translate hradius vradius scale
  0 0 1 0 90 arc tMatrix setmatrix ulx hradius add lry vradius sub
  translate hradius vradius scale 0 0 1 90 180 arc tMatrix setmatrix
  closepath} bdef
/FRR {MRR stroke } bdef
/PRR {MRR fill } bdef
/MlrRR {/lry xdef /lrx xdef /uly xdef /ulx xdef /rad lry uly sub 2 div def
  newpath tMatrix currentmatrix pop ulx rad add uly rad add translate
  rad rad scale 0 0 1 90 270 arc tMatrix setmatrix lrx rad sub lry rad
  sub translate rad rad scale 0 0 1 270 90 arc tMatrix setmatrix
  closepath} bdef
/FlrRR {MlrRR stroke } bdef
/PlrRR {MlrRR fill } bdef
/MtbRR {/lry xdef /lrx xdef /uly xdef /ulx xdef /rad lrx ulx sub 2 div def
  newpath tMatrix currentmatrix pop ulx rad add uly rad add translate
  rad rad scale 0 0 1 180 360 arc tMatrix setmatrix lrx rad sub lry rad
  sub translate rad rad scale 0 0 1 0 180 arc tMatrix setmatrix
  closepath} bdef
/FtbRR {MtbRR stroke } bdef
/PtbRR {MtbRR fill } bdef
/stri 6 array def /dtri 6 array def
/smat 6 array def /dmat 6 array def
/tmat1 6 array def /tmat2 6 array def /dif 3 array def
/asub {/ind2 exch def /ind1 exch def dup dup
  ind1 get exch ind2 get sub exch } bdef
/tri_to_matrix {
  2 0 asub 3 1 asub 4 0 asub 5 1 asub
  dup 0 get exch 1 get 7 -1 roll astore } bdef
/compute_transform {
  dmat dtri tri_to_matrix tmat1 invertmatrix 
  smat stri tri_to_matrix tmat2 concatmatrix } bdef
/ds {stri astore pop} bdef
/dt {dtri astore pop} bdef
/db {2 copy /cols xdef /rows xdef mul dup 3 mul string
  currentfile 
  3 index 0 eq {/ASCIIHexDecode filter}
  {/ASCII85Decode filter 3 index 2 eq {/RunLengthDecode filter} if }
  ifelse exch readstring pop
  dup 0 3 index getinterval /rbmap xdef
  dup 2 index dup getinterval /gbmap xdef
  1 index dup 2 mul exch getinterval /bbmap xdef pop pop}bdef
/it {gs np dtri aload pop moveto lineto lineto cp c
  cols rows 8 compute_transform 
  rbmap gbmap bbmap true 3 colorimage gr}bdef
/il {newpath moveto lineto stroke}bdef
currentdict end def
%%EndProlog

%%BeginSetup
MathWorks begin

0 cap

end
%%EndSetup

%%Page: 1 1
%%BeginPageSetup
%%PageBoundingBox:    87   262   507   578
MathWorks begin
bpage
%%EndPageSetup

%%BeginObject: obj1
bplot

/dpi2point 12 def
portraitMode 1044 6936 csm

    0     0  5045  3782 rc
85 dict begin %Colortable dictionary
/c0 { 0.000000 0.000000 0.000000 sr} bdef
/c1 { 1.000000 1.000000 1.000000 sr} bdef
/c2 { 0.900000 0.000000 0.000000 sr} bdef
/c3 { 0.000000 0.820000 0.000000 sr} bdef
/c4 { 0.000000 0.000000 0.800000 sr} bdef
/c5 { 0.910000 0.820000 0.320000 sr} bdef
/c6 { 1.000000 0.260000 0.820000 sr} bdef
/c7 { 0.000000 0.820000 0.820000 sr} bdef
c0
1 j
1 sg
   0    0 5046 3783 rf
6 w
0 3066 3864 0 0 -3066 702 3350 4 MP
PP
-3864 0 0 3066 3864 0 0 -3066 702 3350 5 MP stroke
4 w
DO
SO
6 w
0 sg
 702  284 mt 4566  284 L
 702 3350 mt 4566 3350 L
4566 3350 mt 4566  284 L
 702 3350 mt  702  284 L
 702 3350 mt 4566 3350 L
 702 3350 mt  702  284 L
 702 3350 mt  702 3311 L
 702  284 mt  702  322 L
%%IncludeResource: font Helvetica
/Helvetica /WindowsLatin1Encoding 120 FMSR

 669 3495 mt 
(0) s
1185 3350 mt 1185 3311 L
1185  284 mt 1185  322 L
1152 3495 mt 
(5) s
1668 3350 mt 1668 3311 L
1668  284 mt 1668  322 L
1602 3495 mt 
(10) s
2151 3350 mt 2151 3311 L
2151  284 mt 2151  322 L
2085 3495 mt 
(15) s
2634 3350 mt 2634 3311 L
2634  284 mt 2634  322 L
2568 3495 mt 
(20) s
3117 3350 mt 3117 3311 L
3117  284 mt 3117  322 L
3051 3495 mt 
(25) s
3600 3350 mt 3600 3311 L
3600  284 mt 3600  322 L
3534 3495 mt 
(30) s
4083 3350 mt 4083 3311 L
4083  284 mt 4083  322 L
4017 3495 mt 
(35) s
4566 3350 mt 4566 3311 L
4566  284 mt 4566  322 L
4500 3495 mt 
(40) s
 702 3350 mt  741 3350 L
4566 3350 mt 4527 3350 L
 602 3394 mt 
(0) s
 702 2328 mt  741 2328 L
4566 2328 mt 4527 2328 L
 402 2372 mt 
(5000) s
 702 1306 mt  741 1306 L
4566 1306 mt 4527 1306 L
 335 1350 mt 
(10000) s
 702  284 mt  741  284 L
4566  284 mt 4527  284 L
 335  328 mt 
(15000) s
 702  284 mt 4566  284 L
 702 3350 mt 4566 3350 L
4566 3350 mt 4566  284 L
 702 3350 mt  702  284 L
gs 703 284 3864 3067 rc
/c8 { 0.000000 0.000000 1.000000 sr} bdef
c8
483 -22 483 -18 483 -10 483 -7 483 -28 483 -14 965 -27 703 3350 8 MP stroke
gr

c8
1632 3323 mt 1704 3323 L
1668 3287 mt 1668 3359 L
2115 3309 mt 2187 3309 L
2151 3273 mt 2151 3345 L
2598 3281 mt 2670 3281 L
2634 3245 mt 2634 3317 L
3081 3274 mt 3153 3274 L
3117 3238 mt 3117 3310 L
3564 3264 mt 3636 3264 L
3600 3228 mt 3600 3300 L
4047 3246 mt 4119 3246 L
4083 3210 mt 4083 3282 L
4530 3224 mt 4602 3224 L
4566 3188 mt 4566 3260 L
1643 3298 mt 1693 3348 L
1693 3298 mt 1643 3348 L
2126 3284 mt 2176 3334 L
2176 3284 mt 2126 3334 L
2609 3256 mt 2659 3306 L
2659 3256 mt 2609 3306 L
3092 3249 mt 3142 3299 L
3142 3249 mt 3092 3299 L
3575 3239 mt 3625 3289 L
3625 3239 mt 3575 3289 L
4058 3221 mt 4108 3271 L
4108 3221 mt 4058 3271 L
4541 3199 mt 4591 3249 L
4591 3199 mt 4541 3249 L
gs 703 284 3864 3067 rc
/c9 { 0.000000 0.500000 0.000000 sr} bdef
c9
483 -826 483 -1088 483 -511 483 -428 483 -48 483 -14 965 -111 703 3350 8 MP stroke
gr

c9
  36   36 1668 3239 FO
  36   36 2151 3225 FO
  36   36 2634 3177 FO
  36   36 3117 2749 FO
  36   36 3600 2238 FO
  36   36 4083 1150 FO
  36   36 4566  324 FO
gs 703 284 3864 3067 rc
gr

0 sg
%%IncludeResource: font Helvetica
/Helvetica /WindowsLatin1Encoding 240 FMSR

1533 3726 mt 
(Guest Node Number) s
 226 2385 mt  -90 rotate
(Time Slots) s
90 rotate
%%IncludeResource: font Helvetica
/Helvetica /WindowsLatin1Encoding 120 FMSR

 686 3393 mt 
( ) s
4550  326 mt 
( ) s
1765 3324 mt 
(130) s
2151 3290 mt 
(199) s
2634 3241 mt 
(336) s
3117 3235 mt 
(367) s
3600 3224 mt 
(419) s
4083 3206 mt 
(506) s
4566 3184 mt 
(613) s
1668 3199 mt 
(540) s
2151 3185 mt 
(610) s
2634 3138 mt 
(842) s
3117 2710 mt 
(2936) s
3600 2198 mt 
(5440) s
4083 1110 mt 
(10760) s
4566  285 mt 
(14800) s
1 sg
0 334 2082 0 0 -334 763 678 4 MP
PP
-2082 0 0 334 2082 0 0 -334 763 678 5 MP stroke
4 w
DO
SO
6 w
0 sg
 763  344 mt 2845  344 L
 763  678 mt 2845  678 L
2845  678 mt 2845  344 L
 763  678 mt  763  344 L
 763  678 mt 2845  678 L
 763  678 mt  763  344 L
 763  344 mt 2845  344 L
 763  678 mt 2845  678 L
2845  678 mt 2845  344 L
 763  678 mt  763  344 L
1232  479 mt 
(Transmit Probability: 1/N) s
gs 763 344 2083 335 rc
c8
360 0 835 436 2 MP stroke
gs 942 363 147 147 rc
 979  436 mt 1051  436 L
1015  400 mt 1015  472 L
 990  411 mt 1040  461 L
1040  411 mt  990  461 L
gr

gr

c8
0 sg
1232  628 mt 
(Transmit Probability: 1/sqrt\(N\)) s
gs 763 344 2083 335 rc
c9
360 0 835 585 2 MP stroke
gs 942 512 147 147 rc
  36   36 1015  585 FO
gr

gr

c9

end %%Color Dict

eplot
%%EndObject

epage
end

showpage

%%Trailer
%%EOF
