%!PS-Adobe-3.0 EPSF-3.0
%%Creator: MATLAB, The Mathworks, Inc. Version 7.5.0.342 (R2007b). Operating System: Microsoft Windows Vista.
%%Title: I:\Interference Measurement\paper draft\wiopt\figures\deployment_nodes.eps
%%CreationDate: 01/12/2013  16:30:56
%%DocumentNeededFonts: Arial
%%DocumentProcessColors: Cyan Magenta Yellow Black
%%LanguageLevel: 2
%%Pages: 1
%%BoundingBox:    96   238   515   553
%%EndComments

%%BeginProlog
% MathWorks dictionary
/MathWorks 160 dict begin
% definition operators
/bdef {bind def} bind def
/ldef {load def} bind def
/xdef {exch def} bdef
/xstore {exch store} bdef
% operator abbreviations
/c  /clip ldef
/cc /concat ldef
/cp /closepath ldef
/gr /grestore ldef
/gs /gsave ldef
/mt /moveto ldef
/np /newpath ldef
/cm /currentmatrix ldef
/sm /setmatrix ldef
/rm /rmoveto ldef
/rl /rlineto ldef
/s {show newpath} bdef
/sc {setcmykcolor} bdef
/sr /setrgbcolor ldef
/sg /setgray ldef
/w /setlinewidth ldef
/j /setlinejoin ldef
/cap /setlinecap ldef
/rc {rectclip} bdef
/rf {rectfill} bdef
% page state control
/pgsv () def
/bpage {/pgsv save def} bdef
/epage {pgsv restore} bdef
/bplot /gsave ldef
/eplot {stroke grestore} bdef
% orientation switch
/portraitMode 0 def /landscapeMode 1 def /rotateMode 2 def
% coordinate system mappings
/dpi2point 0 def
% font control
/FontSize 0 def
/FMS {/FontSize xstore findfont [FontSize 0 0 FontSize neg 0 0]
  makefont setfont} bdef
/ISOLatin1Encoding where {pop /WindowsLatin1Encoding 256 array bdef
ISOLatin1Encoding WindowsLatin1Encoding copy pop
/.notdef/.notdef/quotesinglbase/florin/quotedblbase/ellipsis/dagger
/daggerdbl/circumflex/perthousand/Scaron/guilsinglleft/OE/.notdef/.notdef
/.notdef/.notdef/quoteleft/quoteright/quotedblleft/quotedblright/bullet
/endash/emdash/tilde/trademark/scaron/guilsinglright/oe/.notdef/.notdef
/Ydieresis WindowsLatin1Encoding 128 32 getinterval astore pop}
{/WindowsLatin1Encoding StandardEncoding bdef} ifelse
/reencode {exch dup where {pop load} {pop StandardEncoding} ifelse
  exch dup 3 1 roll findfont dup length dict begin
  { 1 index /FID ne {def}{pop pop} ifelse } forall
  /Encoding exch def currentdict end definefont pop} bdef
/isroman {findfont /CharStrings get /Agrave known} bdef
/FMSR {3 1 roll 1 index dup isroman {reencode} {pop pop} ifelse
  exch FMS} bdef
/csm {1 dpi2point div -1 dpi2point div scale neg translate
 dup landscapeMode eq {pop -90 rotate}
  {rotateMode eq {90 rotate} if} ifelse} bdef
% line types: solid, dotted, dashed, dotdash
/SO { [] 0 setdash } bdef
/DO { [.5 dpi2point mul 4 dpi2point mul] 0 setdash } bdef
/DA { [6 dpi2point mul] 0 setdash } bdef
/DD { [.5 dpi2point mul 4 dpi2point mul 6 dpi2point mul 4
  dpi2point mul] 0 setdash } bdef
% macros for lines and objects
/L {lineto stroke} bdef
/MP {3 1 roll moveto 1 sub {rlineto} repeat} bdef
/AP {{rlineto} repeat} bdef
/PDlw -1 def
/W {/PDlw currentlinewidth def setlinewidth} def
/PP {closepath eofill} bdef
/DP {closepath stroke} bdef
/MR {4 -2 roll moveto dup  0 exch rlineto exch 0 rlineto
  neg 0 exch rlineto closepath} bdef
/FR {MR stroke} bdef
/PR {MR fill} bdef
/L1i {{currentfile picstr readhexstring pop} image} bdef
/tMatrix matrix def
/MakeOval {newpath tMatrix currentmatrix pop translate scale
0 0 1 0 360 arc tMatrix setmatrix} bdef
/FO {MakeOval stroke} bdef
/PO {MakeOval fill} bdef
/PD {currentlinewidth 2 div 0 360 arc fill
   PDlw -1 eq not {PDlw w /PDlw -1 def} if} def
/FA {newpath tMatrix currentmatrix pop translate scale
  0 0 1 5 -2 roll arc tMatrix setmatrix stroke} bdef
/PA {newpath tMatrix currentmatrix pop	translate 0 0 moveto scale
  0 0 1 5 -2 roll arc closepath tMatrix setmatrix fill} bdef
/FAn {newpath tMatrix currentmatrix pop translate scale
  0 0 1 5 -2 roll arcn tMatrix setmatrix stroke} bdef
/PAn {newpath tMatrix currentmatrix pop translate 0 0 moveto scale
  0 0 1 5 -2 roll arcn closepath tMatrix setmatrix fill} bdef
/vradius 0 def /hradius 0 def /lry 0 def
/lrx 0 def /uly 0 def /ulx 0 def /rad 0 def
/MRR {/vradius xdef /hradius xdef /lry xdef /lrx xdef /uly xdef
  /ulx xdef newpath tMatrix currentmatrix pop ulx hradius add uly
  vradius add translate hradius vradius scale 0 0 1 180 270 arc 
  tMatrix setmatrix lrx hradius sub uly vradius add translate
  hradius vradius scale 0 0 1 270 360 arc tMatrix setmatrix
  lrx hradius sub lry vradius sub translate hradius vradius scale
  0 0 1 0 90 arc tMatrix setmatrix ulx hradius add lry vradius sub
  translate hradius vradius scale 0 0 1 90 180 arc tMatrix setmatrix
  closepath} bdef
/FRR {MRR stroke } bdef
/PRR {MRR fill } bdef
/MlrRR {/lry xdef /lrx xdef /uly xdef /ulx xdef /rad lry uly sub 2 div def
  newpath tMatrix currentmatrix pop ulx rad add uly rad add translate
  rad rad scale 0 0 1 90 270 arc tMatrix setmatrix lrx rad sub lry rad
  sub translate rad rad scale 0 0 1 270 90 arc tMatrix setmatrix
  closepath} bdef
/FlrRR {MlrRR stroke } bdef
/PlrRR {MlrRR fill } bdef
/MtbRR {/lry xdef /lrx xdef /uly xdef /ulx xdef /rad lrx ulx sub 2 div def
  newpath tMatrix currentmatrix pop ulx rad add uly rad add translate
  rad rad scale 0 0 1 180 360 arc tMatrix setmatrix lrx rad sub lry rad
  sub translate rad rad scale 0 0 1 0 180 arc tMatrix setmatrix
  closepath} bdef
/FtbRR {MtbRR stroke } bdef
/PtbRR {MtbRR fill } bdef
/stri 6 array def /dtri 6 array def
/smat 6 array def /dmat 6 array def
/tmat1 6 array def /tmat2 6 array def /dif 3 array def
/asub {/ind2 exch def /ind1 exch def dup dup
  ind1 get exch ind2 get sub exch } bdef
/tri_to_matrix {
  2 0 asub 3 1 asub 4 0 asub 5 1 asub
  dup 0 get exch 1 get 7 -1 roll astore } bdef
/compute_transform {
  dmat dtri tri_to_matrix tmat1 invertmatrix 
  smat stri tri_to_matrix tmat2 concatmatrix } bdef
/ds {stri astore pop} bdef
/dt {dtri astore pop} bdef
/db {2 copy /cols xdef /rows xdef mul dup 3 mul string
  currentfile 
  3 index 0 eq {/ASCIIHexDecode filter}
  {/ASCII85Decode filter 3 index 2 eq {/RunLengthDecode filter} if }
  ifelse exch readstring pop
  dup 0 3 index getinterval /rbmap xdef
  dup 2 index dup getinterval /gbmap xdef
  1 index dup 2 mul exch getinterval /bbmap xdef pop pop}bdef
/it {gs np dtri aload pop moveto lineto lineto cp c
  cols rows 8 compute_transform 
  rbmap gbmap bbmap true 3 colorimage gr}bdef
/il {newpath moveto lineto stroke}bdef
currentdict end def
%%EndProlog

%%BeginSetup
MathWorks begin

0 cap

end
%%EndSetup

%%Page: 1 1
%%BeginPageSetup
%%PageBoundingBox:    96   238   515   553
MathWorks begin
bpage
%%EndPageSetup

%%BeginObject: obj1
bplot

/dpi2point 12 def
portraitMode 1152 6636 csm

    0     0  5039  3780 rc
85 dict begin %Colortable dictionary
/c0 { 0.000000 0.000000 0.000000 sr} bdef
/c1 { 1.000000 1.000000 1.000000 sr} bdef
/c2 { 0.900000 0.000000 0.000000 sr} bdef
/c3 { 0.000000 0.820000 0.000000 sr} bdef
/c4 { 0.000000 0.000000 0.800000 sr} bdef
/c5 { 0.910000 0.820000 0.320000 sr} bdef
/c6 { 1.000000 0.260000 0.820000 sr} bdef
/c7 { 0.000000 0.820000 0.820000 sr} bdef
c0
1 j
1 sg
   0    0 5040 3781 rf
6 w
0 3081 3905 0 0 -3081 655 3364 4 MP
PP
-3905 0 0 3081 3905 0 0 -3081 655 3364 5 MP stroke
4 w
DO
SO
6 w
0 sg
 655  283 mt 4560  283 L
 655 3364 mt 4560 3364 L
4560 3364 mt 4560  283 L
 655 3364 mt  655  283 L
 655 3364 mt 4560 3364 L
 655 3364 mt  655  283 L
 655 3364 mt  655 3324 L
 655  283 mt  655  322 L
%%IncludeResource: font Arial
/Arial /WindowsLatin1Encoding 180 FMSR

 605 3565 mt 
(0) s
1436 3364 mt 1436 3324 L
1436  283 mt 1436  322 L
1386 3565 mt 
(2) s
2217 3364 mt 2217 3324 L
2217  283 mt 2217  322 L
2167 3565 mt 
(4) s
2998 3364 mt 2998 3324 L
2998  283 mt 2998  322 L
2948 3565 mt 
(6) s
3779 3364 mt 3779 3324 L
3779  283 mt 3779  322 L
3729 3565 mt 
(8) s
4560 3364 mt 4560 3324 L
4560  283 mt 4560  322 L
4460 3565 mt 
(10) s
 655 3364 mt  694 3364 L
4560 3364 mt 4520 3364 L
 520 3430 mt 
(0) s
 655 2747 mt  694 2747 L
4560 2747 mt 4520 2747 L
 520 2813 mt 
(2) s
 655 2131 mt  694 2131 L
4560 2131 mt 4520 2131 L
 520 2197 mt 
(4) s
 655 1515 mt  694 1515 L
4560 1515 mt 4520 1515 L
 520 1581 mt 
(6) s
 655  899 mt  694  899 L
4560  899 mt 4520  899 L
 520  965 mt 
(8) s
 655  283 mt  694  283 L
4560  283 mt 4520  283 L
 420  349 mt 
(10) s
 655  283 mt 4560  283 L
 655 3364 mt 4560 3364 L
4560 3364 mt 4560  283 L
 655 3364 mt  655  283 L
gs 655 283 3906 3082 rc
gr

60 W
/c8 { 1.000000 0.000000 0.000000 sr} bdef
c8
3432 801 PD
60 W
1456 2903 PD
60 W
1577 543 PD
60 W
1126 536 PD
60 W
2659 1487 PD
60 W
2236 2326 PD
60 W
1237 1994 PD
60 W
3498 3103 PD
60 W
3760 1882 PD
60 W
4303 1024 PD
60 W
899 3276 PD
60 W
2078 3039 PD
60 W
4529 1418 PD
60 W
669 1761 PD
60 W
4483 2374 PD
60 W
3855 2759 PD
60 W
3236 2392 PD
60 W
3909 1153 PD
60 W
4017 675 PD
60 W
767 2924 PD
60 W
4347 2064 PD
60 W
3754 2447 PD
60 W
2076 882 PD
60 W
818 1122 PD
60 W
4128 3250 PD
60 W
2470 2679 PD
60 W
2789 3059 PD
60 W
3688 445 PD
60 W
2399 1099 PD
60 W
3108 427 PD
60 W
1384 1298 PD
60 W
3464 1249 PD
60 W
1400 1627 PD
60 W
2896 2236 PD
60 W
4474 1760 PD
60 W
1855 1420 PD
60 W
2060 2016 PD
60 W
1616 2577 PD
60 W
2516 564 PD
60 W
3249 1989 PD
60 W
2956 1156 PD
60 W
2785 1925 PD
60 W
3066 1673 PD
60 W
1986 426 PD
60 W
3937 1500 PD
60 W
1674 3176 PD
60 W
1011 2478 PD
60 W
1336 880 PD
60 W
1685 1877 PD
60 W
2201 1643 PD
gs 655 283 3906 3082 rc
gr

/c9 { 0.000000 0.000000 1.000000 sr} bdef
c9
2569 1487 mt 2749 1487 L
2659 1397 mt 2659 1577 L
2596 1424 mt 2722 1550 L
2722 1424 mt 2596 1550 L
gs 655 283 3906 3082 rc
0 sg
781 0 2217 2131 2 MP stroke
0 -616 1436 3055 2 MP stroke
1172 0 1826 899 2 MP stroke
0 -616 3779 1823 2 MP stroke
gr

0 sg
%%IncludeResource: font Arial
/Arial /WindowsLatin1Encoding 120 FMSR

 638 3407 mt 
( ) s
4544  325 mt 
( ) s
1 sg
0 687 1466 0 0 -687 3034 1030 4 MP
PP
-1466 0 0 687 1466 0 0 -687 3034 1030 5 MP stroke
4 w
DO
SO
6 w
0 sg
3034  343 mt 4500  343 L
3034 1030 mt 4500 1030 L
4500 1030 mt 4500  343 L
3034 1030 mt 3034  343 L
3034 1030 mt 4500 1030 L
3034 1030 mt 3034  343 L
3034  343 mt 4500  343 L
3034 1030 mt 4500 1030 L
4500 1030 mt 4500  343 L
3034 1030 mt 3034  343 L
%%IncludeResource: font Arial
/Arial /WindowsLatin1Encoding 180 FMSR

3502  535 mt 
(Guest Node) s
gs 3034 343 1467 688 rc
gr

gs 3104 289 363 363 rc
60 W
c8
3285 470 PD
gr

c8
gs 3034 343 1467 688 rc
gr

0 sg
3502  751 mt 
(Host Node) s
gs 3034 343 1467 688 rc
gs 3104 505 363 363 rc
c9
3195  686 mt 3375  686 L
3285  596 mt 3285  776 L
3222  623 mt 3348  749 L
3348  623 mt 3222  749 L
gr

c9
gr

c9
0 sg
3502  967 mt 
(Obstacle) s
gs 3034 343 1467 688 rc
360 0 3105 902 2 MP stroke
gr


end %%Color Dict

eplot
%%EndObject

epage
end

showpage

%%Trailer
%%EOF
