%!PS-Adobe-3.0 EPSF-3.0
%%Creator: MATLAB, The Mathworks, Inc. Version 7.5.0.342 (R2007b). Operating System: Microsoft Windows Vista.
%%Title: C:\Research\Interference Measurement\paper draft\v0122\figures\interference_host.eps
%%CreationDate: 01/21/2013  22:14:27
%%DocumentNeededFonts: Arial
%%DocumentProcessColors: Cyan Magenta Yellow Black
%%LanguageLevel: 2
%%Pages: 1
%%BoundingBox:    87   262   507   578
%%EndComments

%%BeginProlog
% MathWorks dictionary
/MathWorks 160 dict begin
% definition operators
/bdef {bind def} bind def
/ldef {load def} bind def
/xdef {exch def} bdef
/xstore {exch store} bdef
% operator abbreviations
/c  /clip ldef
/cc /concat ldef
/cp /closepath ldef
/gr /grestore ldef
/gs /gsave ldef
/mt /moveto ldef
/np /newpath ldef
/cm /currentmatrix ldef
/sm /setmatrix ldef
/rm /rmoveto ldef
/rl /rlineto ldef
/s {show newpath} bdef
/sc {setcmykcolor} bdef
/sr /setrgbcolor ldef
/sg /setgray ldef
/w /setlinewidth ldef
/j /setlinejoin ldef
/cap /setlinecap ldef
/rc {rectclip} bdef
/rf {rectfill} bdef
% page state control
/pgsv () def
/bpage {/pgsv save def} bdef
/epage {pgsv restore} bdef
/bplot /gsave ldef
/eplot {stroke grestore} bdef
% orientation switch
/portraitMode 0 def /landscapeMode 1 def /rotateMode 2 def
% coordinate system mappings
/dpi2point 0 def
% font control
/FontSize 0 def
/FMS {/FontSize xstore findfont [FontSize 0 0 FontSize neg 0 0]
  makefont setfont} bdef
/ISOLatin1Encoding where {pop /WindowsLatin1Encoding 256 array bdef
ISOLatin1Encoding WindowsLatin1Encoding copy pop
/.notdef/.notdef/quotesinglbase/florin/quotedblbase/ellipsis/dagger
/daggerdbl/circumflex/perthousand/Scaron/guilsinglleft/OE/.notdef/.notdef
/.notdef/.notdef/quoteleft/quoteright/quotedblleft/quotedblright/bullet
/endash/emdash/tilde/trademark/scaron/guilsinglright/oe/.notdef/.notdef
/Ydieresis WindowsLatin1Encoding 128 32 getinterval astore pop}
{/WindowsLatin1Encoding StandardEncoding bdef} ifelse
/reencode {exch dup where {pop load} {pop StandardEncoding} ifelse
  exch dup 3 1 roll findfont dup length dict begin
  { 1 index /FID ne {def}{pop pop} ifelse } forall
  /Encoding exch def currentdict end definefont pop} bdef
/isroman {findfont /CharStrings get /Agrave known} bdef
/FMSR {3 1 roll 1 index dup isroman {reencode} {pop pop} ifelse
  exch FMS} bdef
/csm {1 dpi2point div -1 dpi2point div scale neg translate
 dup landscapeMode eq {pop -90 rotate}
  {rotateMode eq {90 rotate} if} ifelse} bdef
% line types: solid, dotted, dashed, dotdash
/SO { [] 0 setdash } bdef
/DO { [.5 dpi2point mul 4 dpi2point mul] 0 setdash } bdef
/DA { [6 dpi2point mul] 0 setdash } bdef
/DD { [.5 dpi2point mul 4 dpi2point mul 6 dpi2point mul 4
  dpi2point mul] 0 setdash } bdef
% macros for lines and objects
/L {lineto stroke} bdef
/MP {3 1 roll moveto 1 sub {rlineto} repeat} bdef
/AP {{rlineto} repeat} bdef
/PDlw -1 def
/W {/PDlw currentlinewidth def setlinewidth} def
/PP {closepath eofill} bdef
/DP {closepath stroke} bdef
/MR {4 -2 roll moveto dup  0 exch rlineto exch 0 rlineto
  neg 0 exch rlineto closepath} bdef
/FR {MR stroke} bdef
/PR {MR fill} bdef
/L1i {{currentfile picstr readhexstring pop} image} bdef
/tMatrix matrix def
/MakeOval {newpath tMatrix currentmatrix pop translate scale
0 0 1 0 360 arc tMatrix setmatrix} bdef
/FO {MakeOval stroke} bdef
/PO {MakeOval fill} bdef
/PD {currentlinewidth 2 div 0 360 arc fill
   PDlw -1 eq not {PDlw w /PDlw -1 def} if} def
/FA {newpath tMatrix currentmatrix pop translate scale
  0 0 1 5 -2 roll arc tMatrix setmatrix stroke} bdef
/PA {newpath tMatrix currentmatrix pop	translate 0 0 moveto scale
  0 0 1 5 -2 roll arc closepath tMatrix setmatrix fill} bdef
/FAn {newpath tMatrix currentmatrix pop translate scale
  0 0 1 5 -2 roll arcn tMatrix setmatrix stroke} bdef
/PAn {newpath tMatrix currentmatrix pop translate 0 0 moveto scale
  0 0 1 5 -2 roll arcn closepath tMatrix setmatrix fill} bdef
/vradius 0 def /hradius 0 def /lry 0 def
/lrx 0 def /uly 0 def /ulx 0 def /rad 0 def
/MRR {/vradius xdef /hradius xdef /lry xdef /lrx xdef /uly xdef
  /ulx xdef newpath tMatrix currentmatrix pop ulx hradius add uly
  vradius add translate hradius vradius scale 0 0 1 180 270 arc 
  tMatrix setmatrix lrx hradius sub uly vradius add translate
  hradius vradius scale 0 0 1 270 360 arc tMatrix setmatrix
  lrx hradius sub lry vradius sub translate hradius vradius scale
  0 0 1 0 90 arc tMatrix setmatrix ulx hradius add lry vradius sub
  translate hradius vradius scale 0 0 1 90 180 arc tMatrix setmatrix
  closepath} bdef
/FRR {MRR stroke } bdef
/PRR {MRR fill } bdef
/MlrRR {/lry xdef /lrx xdef /uly xdef /ulx xdef /rad lry uly sub 2 div def
  newpath tMatrix currentmatrix pop ulx rad add uly rad add translate
  rad rad scale 0 0 1 90 270 arc tMatrix setmatrix lrx rad sub lry rad
  sub translate rad rad scale 0 0 1 270 90 arc tMatrix setmatrix
  closepath} bdef
/FlrRR {MlrRR stroke } bdef
/PlrRR {MlrRR fill } bdef
/MtbRR {/lry xdef /lrx xdef /uly xdef /ulx xdef /rad lrx ulx sub 2 div def
  newpath tMatrix currentmatrix pop ulx rad add uly rad add translate
  rad rad scale 0 0 1 180 360 arc tMatrix setmatrix lrx rad sub lry rad
  sub translate rad rad scale 0 0 1 0 180 arc tMatrix setmatrix
  closepath} bdef
/FtbRR {MtbRR stroke } bdef
/PtbRR {MtbRR fill } bdef
/stri 6 array def /dtri 6 array def
/smat 6 array def /dmat 6 array def
/tmat1 6 array def /tmat2 6 array def /dif 3 array def
/asub {/ind2 exch def /ind1 exch def dup dup
  ind1 get exch ind2 get sub exch } bdef
/tri_to_matrix {
  2 0 asub 3 1 asub 4 0 asub 5 1 asub
  dup 0 get exch 1 get 7 -1 roll astore } bdef
/compute_transform {
  dmat dtri tri_to_matrix tmat1 invertmatrix 
  smat stri tri_to_matrix tmat2 concatmatrix } bdef
/ds {stri astore pop} bdef
/dt {dtri astore pop} bdef
/db {2 copy /cols xdef /rows xdef mul dup 3 mul string
  currentfile 
  3 index 0 eq {/ASCIIHexDecode filter}
  {/ASCII85Decode filter 3 index 2 eq {/RunLengthDecode filter} if }
  ifelse exch readstring pop
  dup 0 3 index getinterval /rbmap xdef
  dup 2 index dup getinterval /gbmap xdef
  1 index dup 2 mul exch getinterval /bbmap xdef pop pop}bdef
/it {gs np dtri aload pop moveto lineto lineto cp c
  cols rows 8 compute_transform 
  rbmap gbmap bbmap true 3 colorimage gr}bdef
/il {newpath moveto lineto stroke}bdef
currentdict end def
%%EndProlog

%%BeginSetup
MathWorks begin

0 cap

end
%%EndSetup

%%Page: 1 1
%%BeginPageSetup
%%PageBoundingBox:    87   262   507   578
MathWorks begin
bpage
%%EndPageSetup

%%BeginObject: obj1
bplot

/dpi2point 12 def
portraitMode 1044 6936 csm

    0     0  5045  3782 rc
85 dict begin %Colortable dictionary
/c0 { 0.000000 0.000000 0.000000 sr} bdef
/c1 { 1.000000 1.000000 1.000000 sr} bdef
/c2 { 0.900000 0.000000 0.000000 sr} bdef
/c3 { 0.000000 0.820000 0.000000 sr} bdef
/c4 { 0.000000 0.000000 0.800000 sr} bdef
/c5 { 0.910000 0.820000 0.320000 sr} bdef
/c6 { 1.000000 0.260000 0.820000 sr} bdef
/c7 { 0.000000 0.820000 0.820000 sr} bdef
c0
1 j
1 sg
   0    0 5046 3783 rf
6 w
0 3010 3910 0 0 -3010 656 3294 4 MP
PP
-3910 0 0 3010 3910 0 0 -3010 656 3294 5 MP stroke
4 w
DO
SO
6 w
0 sg
 656  284 mt 4566  284 L
 656 3294 mt 4566 3294 L
4566 3294 mt 4566  284 L
 656 3294 mt  656  284 L
 656 3294 mt 4566 3294 L
 656 3294 mt  656  284 L
 656 3294 mt  656 3254 L
 656  284 mt  656  323 L
%%IncludeResource: font Arial
/Arial /WindowsLatin1Encoding 180 FMSR

 606 3495 mt 
(1) s
1090 3294 mt 1090 3254 L
1090  284 mt 1090  323 L
1040 3495 mt 
(2) s
1524 3294 mt 1524 3254 L
1524  284 mt 1524  323 L
1474 3495 mt 
(3) s
1959 3294 mt 1959 3254 L
1959  284 mt 1959  323 L
1909 3495 mt 
(4) s
2393 3294 mt 2393 3254 L
2393  284 mt 2393  323 L
2343 3495 mt 
(5) s
2828 3294 mt 2828 3254 L
2828  284 mt 2828  323 L
2778 3495 mt 
(6) s
3262 3294 mt 3262 3254 L
3262  284 mt 3262  323 L
3212 3495 mt 
(7) s
3697 3294 mt 3697 3254 L
3697  284 mt 3697  323 L
3647 3495 mt 
(8) s
4131 3294 mt 4131 3254 L
4131  284 mt 4131  323 L
4081 3495 mt 
(9) s
4566 3294 mt 4566 3254 L
4566  284 mt 4566  323 L
4466 3495 mt 
(10) s
 656 3294 mt  695 3294 L
4566 3294 mt 4526 3294 L
 521 3360 mt 
(0) s
 656 2541 mt  695 2541 L
4566 2541 mt 4526 2541 L
 371 2607 mt 
(0.5) s
 656 1789 mt  695 1789 L
4566 1789 mt 4526 1789 L
 521 1855 mt 
(1) s
 656 1036 mt  695 1036 L
4566 1036 mt 4526 1036 L
 371 1102 mt 
(1.5) s
 656  284 mt  695  284 L
4566  284 mt 4526  284 L
 521  350 mt 
(2) s
 656  284 mt 4566  284 L
 656 3294 mt 4566 3294 L
4566 3294 mt 4566  284 L
 656 3294 mt  656  284 L
gs 656 284 3911 3011 rc
36 w
/c8 { 0.000000 0.000000 1.000000 sr} bdef
c8
218 3 54 0 299 6 160 4 59 2 20 1 78 3 23 1 
35 1 14 1 12 0 52 3 59 3 28 1 27 2 8 1 
106 7 15 1 31 3 34 3 41 4 27 3 58 6 34 5 
8 1 22 3 97 15 107 23 25 6 14 3 7 2 7 2 
69 21 35 13 17 6 19 8 60 28 126 81 18 14 70 68 
36 42 9 12 56 85 266 942 15 112 47 418 17 181 31 411 
745 721 49 MP stroke
gr

36 w
c8
  36   36  745  721 FO
  36   36  776 1132 FO
  36   36  793 1313 FO
  36   36  840 1731 FO
  36   36  855 1843 FO
  36   36 1121 2785 FO
  36   36 1177 2870 FO
  36   36 1186 2882 FO
  36   36 1222 2924 FO
  36   36 1292 2992 FO
  36   36 1310 3006 FO
  36   36 1436 3087 FO
  36   36 1496 3115 FO
  36   36 1515 3123 FO
  36   36 1532 3129 FO
  36   36 1567 3142 FO
  36   36 1636 3163 FO
  36   36 1643 3165 FO
  36   36 1650 3167 FO
  36   36 1664 3170 FO
  36   36 1689 3176 FO
  36   36 1796 3199 FO
  36   36 1893 3214 FO
  36   36 1915 3217 FO
  36   36 1923 3218 FO
  36   36 1957 3223 FO
  36   36 2015 3229 FO
  36   36 2042 3232 FO
  36   36 2083 3236 FO
  36   36 2117 3239 FO
  36   36 2148 3242 FO
  36   36 2163 3243 FO
  36   36 2269 3250 FO
  36   36 2277 3251 FO
  36   36 2304 3253 FO
  36   36 2332 3254 FO
  36   36 2391 3257 FO
  36   36 2443 3260 FO
  36   36 2455 3260 FO
  36   36 2469 3261 FO
  36   36 2504 3262 FO
  36   36 2527 3263 FO
  36   36 2605 3266 FO
  36   36 2625 3267 FO
  36   36 2684 3269 FO
  36   36 2844 3273 FO
  36   36 3143 3279 FO
  36   36 3197 3279 FO
  36   36 3415 3282 FO
gs 656 284 3911 3011 rc
DO
/c9 { 1.000000 0.000000 0.000000 sr} bdef
c9
218 11 54 0 299 -7 160 2 59 17 20 1 78 3 23 -18 
35 20 14 1 12 -20 52 23 59 3 28 -23 27 0 8 27 
106 7 15 1 31 3 34 3 41 4 27 -37 58 46 34 5 
8 -41 22 1 97 7 107 75 25 6 14 3 7 -111 7 115 
69 21 35 -92 17 111 19 -129 60 165 126 -166 18 -32 70 361 
36 42 9 12 56 85 266 942 15 112 47 418 17 181 31 411 
745 721 49 MP stroke
gr

c9
DO
SO
 709  721 mt  781  721 L
 745  685 mt  745  757 L
 740 1132 mt  812 1132 L
 776 1096 mt  776 1168 L
 757 1313 mt  829 1313 L
 793 1277 mt  793 1349 L
 804 1731 mt  876 1731 L
 840 1695 mt  840 1767 L
 819 1843 mt  891 1843 L
 855 1807 mt  855 1879 L
1085 2785 mt 1157 2785 L
1121 2749 mt 1121 2821 L
1141 2870 mt 1213 2870 L
1177 2834 mt 1177 2906 L
1150 2882 mt 1222 2882 L
1186 2846 mt 1186 2918 L
1186 2924 mt 1258 2924 L
1222 2888 mt 1222 2960 L
1256 3285 mt 1328 3285 L
1292 3249 mt 1292 3321 L
1274 3253 mt 1346 3253 L
1310 3217 mt 1310 3289 L
1400 3087 mt 1472 3087 L
1436 3051 mt 1436 3123 L
1460 3252 mt 1532 3252 L
1496 3216 mt 1496 3288 L
1479 3123 mt 1551 3123 L
1515 3087 mt 1515 3159 L
1496 3234 mt 1568 3234 L
1532 3198 mt 1532 3270 L
1531 3142 mt 1603 3142 L
1567 3106 mt 1567 3178 L
1600 3163 mt 1672 3163 L
1636 3127 mt 1636 3199 L
1607 3278 mt 1679 3278 L
1643 3242 mt 1643 3314 L
1614 3167 mt 1686 3167 L
1650 3131 mt 1650 3203 L
1628 3170 mt 1700 3170 L
1664 3134 mt 1664 3206 L
1653 3176 mt 1725 3176 L
1689 3140 mt 1689 3212 L
1760 3251 mt 1832 3251 L
1796 3215 mt 1796 3287 L
1857 3258 mt 1929 3258 L
1893 3222 mt 1893 3294 L
1879 3259 mt 1951 3259 L
1915 3223 mt 1915 3295 L
1887 3218 mt 1959 3218 L
1923 3182 mt 1923 3254 L
1921 3223 mt 1993 3223 L
1957 3187 mt 1957 3259 L
1979 3269 mt 2051 3269 L
2015 3233 mt 2015 3305 L
2006 3232 mt 2078 3232 L
2042 3196 mt 2042 3268 L
2047 3236 mt 2119 3236 L
2083 3200 mt 2083 3272 L
2081 3239 mt 2153 3239 L
2117 3203 mt 2117 3275 L
2112 3242 mt 2184 3242 L
2148 3206 mt 2148 3278 L
2127 3243 mt 2199 3243 L
2163 3207 mt 2163 3279 L
2233 3250 mt 2305 3250 L
2269 3214 mt 2269 3286 L
2241 3277 mt 2313 3277 L
2277 3241 mt 2277 3313 L
2268 3277 mt 2340 3277 L
2304 3241 mt 2304 3313 L
2296 3254 mt 2368 3254 L
2332 3218 mt 2332 3290 L
2355 3257 mt 2427 3257 L
2391 3221 mt 2391 3293 L
2407 3280 mt 2479 3280 L
2443 3244 mt 2443 3316 L
2419 3260 mt 2491 3260 L
2455 3224 mt 2455 3296 L
2433 3261 mt 2505 3261 L
2469 3225 mt 2469 3297 L
2468 3281 mt 2540 3281 L
2504 3245 mt 2504 3317 L
2491 3263 mt 2563 3263 L
2527 3227 mt 2527 3299 L
2569 3266 mt 2641 3266 L
2605 3230 mt 2605 3302 L
2589 3267 mt 2661 3267 L
2625 3231 mt 2625 3303 L
2648 3284 mt 2720 3284 L
2684 3248 mt 2684 3320 L
2808 3286 mt 2880 3286 L
2844 3250 mt 2844 3322 L
3107 3279 mt 3179 3279 L
3143 3243 mt 3143 3315 L
3161 3279 mt 3233 3279 L
3197 3243 mt 3197 3315 L
3379 3290 mt 3451 3290 L
3415 3254 mt 3415 3326 L
 720  696 mt  770  746 L
 770  696 mt  720  746 L
 751 1107 mt  801 1157 L
 801 1107 mt  751 1157 L
 768 1288 mt  818 1338 L
 818 1288 mt  768 1338 L
 815 1706 mt  865 1756 L
 865 1706 mt  815 1756 L
 830 1818 mt  880 1868 L
 880 1818 mt  830 1868 L
1096 2760 mt 1146 2810 L
1146 2760 mt 1096 2810 L
1152 2845 mt 1202 2895 L
1202 2845 mt 1152 2895 L
1161 2857 mt 1211 2907 L
1211 2857 mt 1161 2907 L
1197 2899 mt 1247 2949 L
1247 2899 mt 1197 2949 L
1267 3260 mt 1317 3310 L
1317 3260 mt 1267 3310 L
1285 3228 mt 1335 3278 L
1335 3228 mt 1285 3278 L
1411 3062 mt 1461 3112 L
1461 3062 mt 1411 3112 L
1471 3227 mt 1521 3277 L
1521 3227 mt 1471 3277 L
1490 3098 mt 1540 3148 L
1540 3098 mt 1490 3148 L
1507 3209 mt 1557 3259 L
1557 3209 mt 1507 3259 L
1542 3117 mt 1592 3167 L
1592 3117 mt 1542 3167 L
1611 3138 mt 1661 3188 L
1661 3138 mt 1611 3188 L
1618 3253 mt 1668 3303 L
1668 3253 mt 1618 3303 L
1625 3142 mt 1675 3192 L
1675 3142 mt 1625 3192 L
1639 3145 mt 1689 3195 L
1689 3145 mt 1639 3195 L
1664 3151 mt 1714 3201 L
1714 3151 mt 1664 3201 L
1771 3226 mt 1821 3276 L
1821 3226 mt 1771 3276 L
1868 3233 mt 1918 3283 L
1918 3233 mt 1868 3283 L
1890 3234 mt 1940 3284 L
1940 3234 mt 1890 3284 L
1898 3193 mt 1948 3243 L
1948 3193 mt 1898 3243 L
1932 3198 mt 1982 3248 L
1982 3198 mt 1932 3248 L
1990 3244 mt 2040 3294 L
2040 3244 mt 1990 3294 L
2017 3207 mt 2067 3257 L
2067 3207 mt 2017 3257 L
2058 3211 mt 2108 3261 L
2108 3211 mt 2058 3261 L
2092 3214 mt 2142 3264 L
2142 3214 mt 2092 3264 L
2123 3217 mt 2173 3267 L
2173 3217 mt 2123 3267 L
2138 3218 mt 2188 3268 L
2188 3218 mt 2138 3268 L
2244 3225 mt 2294 3275 L
2294 3225 mt 2244 3275 L
2252 3252 mt 2302 3302 L
2302 3252 mt 2252 3302 L
2279 3252 mt 2329 3302 L
2329 3252 mt 2279 3302 L
2307 3229 mt 2357 3279 L
2357 3229 mt 2307 3279 L
2366 3232 mt 2416 3282 L
2416 3232 mt 2366 3282 L
2418 3255 mt 2468 3305 L
2468 3255 mt 2418 3305 L
2430 3235 mt 2480 3285 L
2480 3235 mt 2430 3285 L
2444 3236 mt 2494 3286 L
2494 3236 mt 2444 3286 L
2479 3256 mt 2529 3306 L
2529 3256 mt 2479 3306 L
2502 3238 mt 2552 3288 L
2552 3238 mt 2502 3288 L
2580 3241 mt 2630 3291 L
2630 3241 mt 2580 3291 L
2600 3242 mt 2650 3292 L
2650 3242 mt 2600 3292 L
2659 3259 mt 2709 3309 L
2709 3259 mt 2659 3309 L
2819 3261 mt 2869 3311 L
2869 3261 mt 2819 3311 L
3118 3254 mt 3168 3304 L
3168 3254 mt 3118 3304 L
3172 3254 mt 3222 3304 L
3222 3254 mt 3172 3304 L
3390 3265 mt 3440 3315 L
3440 3265 mt 3390 3315 L
DO
gs 656 284 3911 3011 rc
gr

0 sg
%%IncludeResource: font Arial
/Arial /WindowsLatin1Encoding 240 FMSR

1230 3726 mt 
(Distance to Host Node\(m\)) s
 262 3012 mt  -90 rotate
(Interference Value\(nW\)) s
90 rotate
%%IncludeResource: font Arial
/Arial /WindowsLatin1Encoding 120 FMSR

 639 3337 mt 
( ) s
4550  326 mt 
( ) s
SO
6 w
1 sg
0 472 1627 0 0 -472 2880 816 4 MP
PP
-1627 0 0 472 1627 0 0 -472 2880 816 5 MP stroke
4 w
DO
SO
6 w
0 sg
2880  344 mt 4507  344 L
2880  816 mt 4507  816 L
4507  816 mt 4507  344 L
2880  816 mt 2880  344 L
2880  816 mt 4507  816 L
2880  816 mt 2880  344 L
2880  344 mt 4507  344 L
2880  816 mt 4507  816 L
4507  816 mt 4507  344 L
2880  816 mt 2880  344 L
%%IncludeResource: font Arial
/Arial /WindowsLatin1Encoding 180 FMSR

3345  536 mt 
(No Obstacle) s
gs 2880 344 1628 473 rc
36 w
c8
358 0 2951 471 2 MP stroke
gs 3020 361 221 221 rc
  36   36 3130  471 FO
gr

gr

36 w
c8
0 sg
3345  753 mt 
(With Obstacle) s
gs 2880 344 1628 473 rc
DO
c9
358 0 2951 688 2 MP stroke
SO
gs 3020 578 221 221 rc
3094  688 mt 3166  688 L
3130  652 mt 3130  724 L
3105  663 mt 3155  713 L
3155  663 mt 3105  713 L
gr

6 w
gr

6 w
c9

end %%Color Dict

eplot
%%EndObject

epage
end

showpage

%%Trailer
%%EOF
