%!PS-Adobe-3.0 EPSF-3.0
%%Creator: MATLAB, The Mathworks, Inc. Version 7.5.0.342 (R2007b). Operating System: Microsoft Windows XP.
%%Title: H:\Research\Papers\Interference\paper\script1.2\MR_50.eps
%%CreationDate: 07/06/2012  13:50:59
%%DocumentNeededFonts: Arial
%%DocumentProcessColors: Cyan Magenta Yellow Black
%%LanguageLevel: 2
%%Pages: 1
%%BoundingBox:    87   262   507   578
%%EndComments

%%BeginProlog
% MathWorks dictionary
/MathWorks 160 dict begin
% definition operators
/bdef {bind def} bind def
/ldef {load def} bind def
/xdef {exch def} bdef
/xstore {exch store} bdef
% operator abbreviations
/c  /clip ldef
/cc /concat ldef
/cp /closepath ldef
/gr /grestore ldef
/gs /gsave ldef
/mt /moveto ldef
/np /newpath ldef
/cm /currentmatrix ldef
/sm /setmatrix ldef
/rm /rmoveto ldef
/rl /rlineto ldef
/s {show newpath} bdef
/sc {setcmykcolor} bdef
/sr /setrgbcolor ldef
/sg /setgray ldef
/w /setlinewidth ldef
/j /setlinejoin ldef
/cap /setlinecap ldef
/rc {rectclip} bdef
/rf {rectfill} bdef
% page state control
/pgsv () def
/bpage {/pgsv save def} bdef
/epage {pgsv restore} bdef
/bplot /gsave ldef
/eplot {stroke grestore} bdef
% orientation switch
/portraitMode 0 def /landscapeMode 1 def /rotateMode 2 def
% coordinate system mappings
/dpi2point 0 def
% font control
/FontSize 0 def
/FMS {/FontSize xstore findfont [FontSize 0 0 FontSize neg 0 0]
  makefont setfont} bdef
/ISOLatin1Encoding where {pop /WindowsLatin1Encoding 256 array bdef
ISOLatin1Encoding WindowsLatin1Encoding copy pop
/.notdef/.notdef/quotesinglbase/florin/quotedblbase/ellipsis/dagger
/daggerdbl/circumflex/perthousand/Scaron/guilsinglleft/OE/.notdef/.notdef
/.notdef/.notdef/quoteleft/quoteright/quotedblleft/quotedblright/bullet
/endash/emdash/tilde/trademark/scaron/guilsinglright/oe/.notdef/.notdef
/Ydieresis WindowsLatin1Encoding 128 32 getinterval astore pop}
{/WindowsLatin1Encoding StandardEncoding bdef} ifelse
/reencode {exch dup where {pop load} {pop StandardEncoding} ifelse
  exch dup 3 1 roll findfont dup length dict begin
  { 1 index /FID ne {def}{pop pop} ifelse } forall
  /Encoding exch def currentdict end definefont pop} bdef
/isroman {findfont /CharStrings get /Agrave known} bdef
/FMSR {3 1 roll 1 index dup isroman {reencode} {pop pop} ifelse
  exch FMS} bdef
/csm {1 dpi2point div -1 dpi2point div scale neg translate
 dup landscapeMode eq {pop -90 rotate}
  {rotateMode eq {90 rotate} if} ifelse} bdef
% line types: solid, dotted, dashed, dotdash
/SO { [] 0 setdash } bdef
/DO { [.5 dpi2point mul 4 dpi2point mul] 0 setdash } bdef
/DA { [6 dpi2point mul] 0 setdash } bdef
/DD { [.5 dpi2point mul 4 dpi2point mul 6 dpi2point mul 4
  dpi2point mul] 0 setdash } bdef
% macros for lines and objects
/L {lineto stroke} bdef
/MP {3 1 roll moveto 1 sub {rlineto} repeat} bdef
/AP {{rlineto} repeat} bdef
/PDlw -1 def
/W {/PDlw currentlinewidth def setlinewidth} def
/PP {closepath eofill} bdef
/DP {closepath stroke} bdef
/MR {4 -2 roll moveto dup  0 exch rlineto exch 0 rlineto
  neg 0 exch rlineto closepath} bdef
/FR {MR stroke} bdef
/PR {MR fill} bdef
/L1i {{currentfile picstr readhexstring pop} image} bdef
/tMatrix matrix def
/MakeOval {newpath tMatrix currentmatrix pop translate scale
0 0 1 0 360 arc tMatrix setmatrix} bdef
/FO {MakeOval stroke} bdef
/PO {MakeOval fill} bdef
/PD {currentlinewidth 2 div 0 360 arc fill
   PDlw -1 eq not {PDlw w /PDlw -1 def} if} def
/FA {newpath tMatrix currentmatrix pop translate scale
  0 0 1 5 -2 roll arc tMatrix setmatrix stroke} bdef
/PA {newpath tMatrix currentmatrix pop	translate 0 0 moveto scale
  0 0 1 5 -2 roll arc closepath tMatrix setmatrix fill} bdef
/FAn {newpath tMatrix currentmatrix pop translate scale
  0 0 1 5 -2 roll arcn tMatrix setmatrix stroke} bdef
/PAn {newpath tMatrix currentmatrix pop translate 0 0 moveto scale
  0 0 1 5 -2 roll arcn closepath tMatrix setmatrix fill} bdef
/vradius 0 def /hradius 0 def /lry 0 def
/lrx 0 def /uly 0 def /ulx 0 def /rad 0 def
/MRR {/vradius xdef /hradius xdef /lry xdef /lrx xdef /uly xdef
  /ulx xdef newpath tMatrix currentmatrix pop ulx hradius add uly
  vradius add translate hradius vradius scale 0 0 1 180 270 arc 
  tMatrix setmatrix lrx hradius sub uly vradius add translate
  hradius vradius scale 0 0 1 270 360 arc tMatrix setmatrix
  lrx hradius sub lry vradius sub translate hradius vradius scale
  0 0 1 0 90 arc tMatrix setmatrix ulx hradius add lry vradius sub
  translate hradius vradius scale 0 0 1 90 180 arc tMatrix setmatrix
  closepath} bdef
/FRR {MRR stroke } bdef
/PRR {MRR fill } bdef
/MlrRR {/lry xdef /lrx xdef /uly xdef /ulx xdef /rad lry uly sub 2 div def
  newpath tMatrix currentmatrix pop ulx rad add uly rad add translate
  rad rad scale 0 0 1 90 270 arc tMatrix setmatrix lrx rad sub lry rad
  sub translate rad rad scale 0 0 1 270 90 arc tMatrix setmatrix
  closepath} bdef
/FlrRR {MlrRR stroke } bdef
/PlrRR {MlrRR fill } bdef
/MtbRR {/lry xdef /lrx xdef /uly xdef /ulx xdef /rad lrx ulx sub 2 div def
  newpath tMatrix currentmatrix pop ulx rad add uly rad add translate
  rad rad scale 0 0 1 180 360 arc tMatrix setmatrix lrx rad sub lry rad
  sub translate rad rad scale 0 0 1 0 180 arc tMatrix setmatrix
  closepath} bdef
/FtbRR {MtbRR stroke } bdef
/PtbRR {MtbRR fill } bdef
/stri 6 array def /dtri 6 array def
/smat 6 array def /dmat 6 array def
/tmat1 6 array def /tmat2 6 array def /dif 3 array def
/asub {/ind2 exch def /ind1 exch def dup dup
  ind1 get exch ind2 get sub exch } bdef
/tri_to_matrix {
  2 0 asub 3 1 asub 4 0 asub 5 1 asub
  dup 0 get exch 1 get 7 -1 roll astore } bdef
/compute_transform {
  dmat dtri tri_to_matrix tmat1 invertmatrix 
  smat stri tri_to_matrix tmat2 concatmatrix } bdef
/ds {stri astore pop} bdef
/dt {dtri astore pop} bdef
/db {2 copy /cols xdef /rows xdef mul dup 3 mul string
  currentfile 
  3 index 0 eq {/ASCIIHexDecode filter}
  {/ASCII85Decode filter 3 index 2 eq {/RunLengthDecode filter} if }
  ifelse exch readstring pop
  dup 0 3 index getinterval /rbmap xdef
  dup 2 index dup getinterval /gbmap xdef
  1 index dup 2 mul exch getinterval /bbmap xdef pop pop}bdef
/it {gs np dtri aload pop moveto lineto lineto cp c
  cols rows 8 compute_transform 
  rbmap gbmap bbmap true 3 colorimage gr}bdef
/il {newpath moveto lineto stroke}bdef
currentdict end def
%%EndProlog

%%BeginSetup
MathWorks begin

0 cap

end
%%EndSetup

%%Page: 1 1
%%BeginPageSetup
%%PageBoundingBox:    87   262   507   578
MathWorks begin
bpage
%%EndPageSetup

%%BeginObject: obj1
bplot

/dpi2point 12 def
portraitMode 1044 6936 csm

    0     0  5045  3782 rc
85 dict begin %Colortable dictionary
/c0 { 0.000000 0.000000 0.000000 sr} bdef
/c1 { 1.000000 1.000000 1.000000 sr} bdef
/c2 { 0.900000 0.000000 0.000000 sr} bdef
/c3 { 0.000000 0.820000 0.000000 sr} bdef
/c4 { 0.000000 0.000000 0.800000 sr} bdef
/c5 { 0.910000 0.820000 0.320000 sr} bdef
/c6 { 1.000000 0.260000 0.820000 sr} bdef
/c7 { 0.000000 0.820000 0.820000 sr} bdef
c0
1 j
1 sg
   0    0 5046 3783 rf
6 w
0 3066 3910 0 0 -3066 656 3350 4 MP
PP
-3910 0 0 3066 3910 0 0 -3066 656 3350 5 MP stroke
4 w
DO
SO
6 w
0 sg
 656 3350 mt 4566 3350 L
 656 3350 mt  656  284 L
 656 3350 mt  656 3310 L
%%IncludeResource: font Arial
/Arial /WindowsLatin1Encoding 120 FMSR

 623 3495 mt 
(0) s
1047 3350 mt 1047 3310 L
1014 3495 mt 
(1) s
1438 3350 mt 1438 3310 L
1405 3495 mt 
(2) s
1829 3350 mt 1829 3310 L
1796 3495 mt 
(3) s
2220 3350 mt 2220 3310 L
2187 3495 mt 
(4) s
2611 3350 mt 2611 3310 L
2578 3495 mt 
(5) s
3002 3350 mt 3002 3310 L
2969 3495 mt 
(6) s
3393 3350 mt 3393 3310 L
3360 3495 mt 
(7) s
3784 3350 mt 3784 3310 L
3751 3495 mt 
(8) s
4175 3350 mt 4175 3310 L
4142 3495 mt 
(9) s
4566 3350 mt 4566 3310 L
4500 3495 mt 
(10) s
 656 3350 mt  695 3350 L
 555 3394 mt 
(0) s
 656 2941 mt  695 2941 L
 455 2985 mt 
(0.2) s
 656 2532 mt  695 2532 L
 455 2576 mt 
(0.4) s
 656 2123 mt  695 2123 L
 455 2167 mt 
(0.6) s
 656 1714 mt  695 1714 L
 455 1758 mt 
(0.8) s
 656 1306 mt  695 1306 L
 555 1350 mt 
(1) s
 656  897 mt  695  897 L
 455  941 mt 
(1.2) s
 656  488 mt  695  488 L
 455  532 mt 
(1.4) s
gs 656 284 3911 3067 rc
12 w
/c8 { 0.000000 0.000000 1.000000 sr} bdef
c8
1 0 19 0 71 1 21 0 104 2 115 3 13 0 21 0 
36 1 105 3 56 2 26 1 6 0 19 1 133 5 28 2 
56 3 64 4 14 1 7 0 9 1 19 1 125 11 41 4 
7 1 22 3 95 12 7 1 53 9 17 3 86 19 3 1 
51 13 66 21 13 5 46 18 12 5 29 14 107 66 59 51 
27 27 25 28 49 67 148 338 73 307 74 502 56 613 45 756 
897 411 49 MP stroke
gr

12 w
c8
 861  411 mt  933  411 L
 897  375 mt  897  447 L
 906 1167 mt  978 1167 L
 942 1131 mt  942 1203 L
 962 1780 mt 1034 1780 L
 998 1744 mt  998 1816 L
1036 2282 mt 1108 2282 L
1072 2246 mt 1072 2318 L
1109 2589 mt 1181 2589 L
1145 2553 mt 1145 2625 L
1257 2927 mt 1329 2927 L
1293 2891 mt 1293 2963 L
1306 2994 mt 1378 2994 L
1342 2958 mt 1342 3030 L
1331 3022 mt 1403 3022 L
1367 2986 mt 1367 3058 L
1358 3049 mt 1430 3049 L
1394 3013 mt 1394 3085 L
1417 3100 mt 1489 3100 L
1453 3064 mt 1453 3136 L
1524 3166 mt 1596 3166 L
1560 3130 mt 1560 3202 L
1553 3180 mt 1625 3180 L
1589 3144 mt 1589 3216 L
1565 3185 mt 1637 3185 L
1601 3149 mt 1601 3221 L
1611 3203 mt 1683 3203 L
1647 3167 mt 1647 3239 L
1624 3208 mt 1696 3208 L
1660 3172 mt 1660 3244 L
1690 3229 mt 1762 3229 L
1726 3193 mt 1726 3265 L
1741 3242 mt 1813 3242 L
1777 3206 mt 1777 3278 L
1744 3243 mt 1816 3243 L
1780 3207 mt 1780 3279 L
1830 3262 mt 1902 3262 L
1866 3226 mt 1866 3298 L
1847 3265 mt 1919 3265 L
1883 3229 mt 1883 3301 L
1900 3274 mt 1972 3274 L
1936 3238 mt 1936 3310 L
1907 3275 mt 1979 3275 L
1943 3239 mt 1943 3311 L
2002 3287 mt 2074 3287 L
2038 3251 mt 2038 3323 L
2024 3290 mt 2096 3290 L
2060 3254 mt 2060 3326 L
2031 3291 mt 2103 3291 L
2067 3255 mt 2067 3327 L
2072 3295 mt 2144 3295 L
2108 3259 mt 2108 3331 L
2197 3306 mt 2269 3306 L
2233 3270 mt 2233 3342 L
2216 3307 mt 2288 3307 L
2252 3271 mt 2252 3343 L
2225 3308 mt 2297 3308 L
2261 3272 mt 2261 3344 L
2232 3308 mt 2304 3308 L
2268 3272 mt 2268 3344 L
2246 3309 mt 2318 3309 L
2282 3273 mt 2282 3345 L
2310 3313 mt 2382 3313 L
2346 3277 mt 2346 3349 L
2366 3316 mt 2438 3316 L
2402 3280 mt 2402 3352 L
2394 3318 mt 2466 3318 L
2430 3282 mt 2430 3354 L
2527 3323 mt 2599 3323 L
2563 3287 mt 2563 3359 L
2546 3324 mt 2618 3324 L
2582 3288 mt 2582 3360 L
2552 3324 mt 2624 3324 L
2588 3288 mt 2588 3360 L
2578 3325 mt 2650 3325 L
2614 3289 mt 2614 3361 L
2634 3327 mt 2706 3327 L
2670 3291 mt 2670 3363 L
2739 3330 mt 2811 3330 L
2775 3294 mt 2775 3366 L
2775 3331 mt 2847 3331 L
2811 3295 mt 2811 3367 L
2796 3331 mt 2868 3331 L
2832 3295 mt 2832 3367 L
2809 3331 mt 2881 3331 L
2845 3295 mt 2845 3367 L
2924 3334 mt 2996 3334 L
2960 3298 mt 2960 3370 L
3028 3336 mt 3100 3336 L
3064 3300 mt 3064 3372 L
3049 3336 mt 3121 3336 L
3085 3300 mt 3085 3372 L
3120 3337 mt 3192 3337 L
3156 3301 mt 3156 3373 L
3139 3337 mt 3211 3337 L
3175 3301 mt 3175 3373 L
3140 3337 mt 3212 3337 L
3176 3301 mt 3176 3373 L
 872  386 mt  922  436 L
 922  386 mt  872  436 L
 917 1142 mt  967 1192 L
 967 1142 mt  917 1192 L
 973 1755 mt 1023 1805 L
1023 1755 mt  973 1805 L
1047 2257 mt 1097 2307 L
1097 2257 mt 1047 2307 L
1120 2564 mt 1170 2614 L
1170 2564 mt 1120 2614 L
1268 2902 mt 1318 2952 L
1318 2902 mt 1268 2952 L
1317 2969 mt 1367 3019 L
1367 2969 mt 1317 3019 L
1342 2997 mt 1392 3047 L
1392 2997 mt 1342 3047 L
1369 3024 mt 1419 3074 L
1419 3024 mt 1369 3074 L
1428 3075 mt 1478 3125 L
1478 3075 mt 1428 3125 L
1535 3141 mt 1585 3191 L
1585 3141 mt 1535 3191 L
1564 3155 mt 1614 3205 L
1614 3155 mt 1564 3205 L
1576 3160 mt 1626 3210 L
1626 3160 mt 1576 3210 L
1622 3178 mt 1672 3228 L
1672 3178 mt 1622 3228 L
1635 3183 mt 1685 3233 L
1685 3183 mt 1635 3233 L
1701 3204 mt 1751 3254 L
1751 3204 mt 1701 3254 L
1752 3217 mt 1802 3267 L
1802 3217 mt 1752 3267 L
1755 3218 mt 1805 3268 L
1805 3218 mt 1755 3268 L
1841 3237 mt 1891 3287 L
1891 3237 mt 1841 3287 L
1858 3240 mt 1908 3290 L
1908 3240 mt 1858 3290 L
1911 3249 mt 1961 3299 L
1961 3249 mt 1911 3299 L
1918 3250 mt 1968 3300 L
1968 3250 mt 1918 3300 L
2013 3262 mt 2063 3312 L
2063 3262 mt 2013 3312 L
2035 3265 mt 2085 3315 L
2085 3265 mt 2035 3315 L
2042 3266 mt 2092 3316 L
2092 3266 mt 2042 3316 L
2083 3270 mt 2133 3320 L
2133 3270 mt 2083 3320 L
2208 3281 mt 2258 3331 L
2258 3281 mt 2208 3331 L
2227 3282 mt 2277 3332 L
2277 3282 mt 2227 3332 L
2236 3283 mt 2286 3333 L
2286 3283 mt 2236 3333 L
2243 3283 mt 2293 3333 L
2293 3283 mt 2243 3333 L
2257 3284 mt 2307 3334 L
2307 3284 mt 2257 3334 L
2321 3288 mt 2371 3338 L
2371 3288 mt 2321 3338 L
2377 3291 mt 2427 3341 L
2427 3291 mt 2377 3341 L
2405 3293 mt 2455 3343 L
2455 3293 mt 2405 3343 L
2538 3298 mt 2588 3348 L
2588 3298 mt 2538 3348 L
2557 3299 mt 2607 3349 L
2607 3299 mt 2557 3349 L
2563 3299 mt 2613 3349 L
2613 3299 mt 2563 3349 L
2589 3300 mt 2639 3350 L
2639 3300 mt 2589 3350 L
2645 3302 mt 2695 3352 L
2695 3302 mt 2645 3352 L
2750 3305 mt 2800 3355 L
2800 3305 mt 2750 3355 L
2786 3306 mt 2836 3356 L
2836 3306 mt 2786 3356 L
2807 3306 mt 2857 3356 L
2857 3306 mt 2807 3356 L
2820 3306 mt 2870 3356 L
2870 3306 mt 2820 3356 L
2935 3309 mt 2985 3359 L
2985 3309 mt 2935 3359 L
3039 3311 mt 3089 3361 L
3089 3311 mt 3039 3361 L
3060 3311 mt 3110 3361 L
3110 3311 mt 3060 3361 L
3131 3312 mt 3181 3362 L
3181 3312 mt 3131 3362 L
3150 3312 mt 3200 3362 L
3200 3312 mt 3150 3362 L
3151 3312 mt 3201 3362 L
3201 3312 mt 3151 3362 L
gs 656 284 3911 3067 rc
/c9 { 1.000000 0.000000 0.000000 sr} bdef
c9
1 0 19 0 71 0 21 0 104 1 115 0 13 1 21 0 
36 1 105 1 56 1 26 0 6 1 19 0 133 1 28 0 
56 1 64 1 14 1 7 1 9 1 19 0 125 2 41 1 
7 2 22 1 95 2 7 2 53 1 17 24 86 1 3 3 
51 6 66 39 13 4 46 13 12 4 0 8 29 32 107 18 
59 64 27 41 25 14 49 45 148 344 73 219 74 590 56 371 
45 987 897 487 50 MP stroke
gr

c9
  36   36  897  487 FO
  36   36  942 1474 FO
  36   36  998 1845 FO
  36   36 1072 2435 FO
  36   36 1145 2654 FO
  36   36 1293 2998 FO
  36   36 1342 3043 FO
  36   36 1367 3057 FO
  36   36 1394 3098 FO
  36   36 1453 3162 FO
  36   36 1560 3180 FO
  36   36 1589 3212 FO
  36   36 1589 3220 FO
  36   36 1601 3224 FO
  36   36 1647 3237 FO
  36   36 1660 3241 FO
  36   36 1726 3280 FO
  36   36 1777 3286 FO
  36   36 1780 3289 FO
  36   36 1866 3290 FO
  36   36 1883 3314 FO
  36   36 1936 3315 FO
  36   36 1943 3317 FO
  36   36 2038 3319 FO
  36   36 2060 3320 FO
  36   36 2067 3322 FO
  36   36 2108 3323 FO
  36   36 2233 3325 FO
  36   36 2252 3325 FO
  36   36 2261 3326 FO
  36   36 2268 3327 FO
  36   36 2282 3328 FO
  36   36 2346 3329 FO
  36   36 2402 3330 FO
  36   36 2430 3330 FO
  36   36 2563 3331 FO
  36   36 2582 3331 FO
  36   36 2588 3332 FO
  36   36 2614 3332 FO
  36   36 2670 3333 FO
  36   36 2775 3334 FO
  36   36 2811 3335 FO
  36   36 2832 3335 FO
  36   36 2845 3336 FO
  36   36 2960 3336 FO
  36   36 3064 3337 FO
  36   36 3085 3337 FO
  36   36 3156 3337 FO
  36   36 3175 3337 FO
  36   36 3176 3337 FO
gs 656 284 3911 3067 rc
gr

0 sg
%%IncludeResource: font Arial
/Arial /WindowsLatin1Encoding 240 FMSR

1750 3726 mt 
(Distance \(Hops\)) s
 346 3107 mt  -90 rotate
(Interference Value \(mW\)) s
90 rotate
%%IncludeResource: font Arial
/Arial /WindowsLatin1Encoding 120 FMSR

 639 3393 mt 
( ) s
4550  326 mt 
( ) s
6 w
1 sg
0 334 2004 0 0 -334 2503 678 4 MP
PP
-2004 0 0 334 2004 0 0 -334 2503 678 5 MP stroke
4 w
DO
SO
6 w
0 sg
2503  344 mt 4507  344 L
2503  678 mt 4507  678 L
4507  678 mt 4507  344 L
2503  678 mt 2503  344 L
2503  678 mt 4507  678 L
2503  678 mt 2503  344 L
2503  344 mt 4507  344 L
2503  678 mt 4507  678 L
4507  678 mt 4507  344 L
2503  678 mt 2503  344 L
2979  479 mt 
(Original Interference Values) s
gs 2503 344 2005 335 rc
12 w
c8
366 0 2576 436 2 MP stroke
gs 2686 363 147 147 rc
2723  436 mt 2795  436 L
2759  400 mt 2759  472 L
2734  411 mt 2784  461 L
2784  411 mt 2734  461 L
gr

gr

12 w
c8
0 sg
2979  628 mt 
(Recover Interference Values) s
gs 2503 344 2005 335 rc
c9
366 0 2576 585 2 MP stroke
gs 2686 512 147 147 rc
  36   36 2759  585 FO
gr

6 w
gr

6 w
c9

end %%Color Dict

eplot
%%EndObject

epage
end

showpage

%%Trailer
%%EOF
