%!PS-Adobe-3.0 EPSF-3.0
%%Creator: MATLAB, The Mathworks, Inc. Version 7.5.0.342 (R2007b). Operating System: Microsoft Windows XP.
%%Title: H:\Research\Papers\Interference\paper\script1.2\MR_80.eps
%%CreationDate: 07/06/2012  13:48:34
%%DocumentNeededFonts: Arial
%%DocumentProcessColors: Cyan Magenta Yellow Black
%%LanguageLevel: 2
%%Pages: 1
%%BoundingBox:    87   262   507   578
%%EndComments

%%BeginProlog
% MathWorks dictionary
/MathWorks 160 dict begin
% definition operators
/bdef {bind def} bind def
/ldef {load def} bind def
/xdef {exch def} bdef
/xstore {exch store} bdef
% operator abbreviations
/c  /clip ldef
/cc /concat ldef
/cp /closepath ldef
/gr /grestore ldef
/gs /gsave ldef
/mt /moveto ldef
/np /newpath ldef
/cm /currentmatrix ldef
/sm /setmatrix ldef
/rm /rmoveto ldef
/rl /rlineto ldef
/s {show newpath} bdef
/sc {setcmykcolor} bdef
/sr /setrgbcolor ldef
/sg /setgray ldef
/w /setlinewidth ldef
/j /setlinejoin ldef
/cap /setlinecap ldef
/rc {rectclip} bdef
/rf {rectfill} bdef
% page state control
/pgsv () def
/bpage {/pgsv save def} bdef
/epage {pgsv restore} bdef
/bplot /gsave ldef
/eplot {stroke grestore} bdef
% orientation switch
/portraitMode 0 def /landscapeMode 1 def /rotateMode 2 def
% coordinate system mappings
/dpi2point 0 def
% font control
/FontSize 0 def
/FMS {/FontSize xstore findfont [FontSize 0 0 FontSize neg 0 0]
  makefont setfont} bdef
/ISOLatin1Encoding where {pop /WindowsLatin1Encoding 256 array bdef
ISOLatin1Encoding WindowsLatin1Encoding copy pop
/.notdef/.notdef/quotesinglbase/florin/quotedblbase/ellipsis/dagger
/daggerdbl/circumflex/perthousand/Scaron/guilsinglleft/OE/.notdef/.notdef
/.notdef/.notdef/quoteleft/quoteright/quotedblleft/quotedblright/bullet
/endash/emdash/tilde/trademark/scaron/guilsinglright/oe/.notdef/.notdef
/Ydieresis WindowsLatin1Encoding 128 32 getinterval astore pop}
{/WindowsLatin1Encoding StandardEncoding bdef} ifelse
/reencode {exch dup where {pop load} {pop StandardEncoding} ifelse
  exch dup 3 1 roll findfont dup length dict begin
  { 1 index /FID ne {def}{pop pop} ifelse } forall
  /Encoding exch def currentdict end definefont pop} bdef
/isroman {findfont /CharStrings get /Agrave known} bdef
/FMSR {3 1 roll 1 index dup isroman {reencode} {pop pop} ifelse
  exch FMS} bdef
/csm {1 dpi2point div -1 dpi2point div scale neg translate
 dup landscapeMode eq {pop -90 rotate}
  {rotateMode eq {90 rotate} if} ifelse} bdef
% line types: solid, dotted, dashed, dotdash
/SO { [] 0 setdash } bdef
/DO { [.5 dpi2point mul 4 dpi2point mul] 0 setdash } bdef
/DA { [6 dpi2point mul] 0 setdash } bdef
/DD { [.5 dpi2point mul 4 dpi2point mul 6 dpi2point mul 4
  dpi2point mul] 0 setdash } bdef
% macros for lines and objects
/L {lineto stroke} bdef
/MP {3 1 roll moveto 1 sub {rlineto} repeat} bdef
/AP {{rlineto} repeat} bdef
/PDlw -1 def
/W {/PDlw currentlinewidth def setlinewidth} def
/PP {closepath eofill} bdef
/DP {closepath stroke} bdef
/MR {4 -2 roll moveto dup  0 exch rlineto exch 0 rlineto
  neg 0 exch rlineto closepath} bdef
/FR {MR stroke} bdef
/PR {MR fill} bdef
/L1i {{currentfile picstr readhexstring pop} image} bdef
/tMatrix matrix def
/MakeOval {newpath tMatrix currentmatrix pop translate scale
0 0 1 0 360 arc tMatrix setmatrix} bdef
/FO {MakeOval stroke} bdef
/PO {MakeOval fill} bdef
/PD {currentlinewidth 2 div 0 360 arc fill
   PDlw -1 eq not {PDlw w /PDlw -1 def} if} def
/FA {newpath tMatrix currentmatrix pop translate scale
  0 0 1 5 -2 roll arc tMatrix setmatrix stroke} bdef
/PA {newpath tMatrix currentmatrix pop	translate 0 0 moveto scale
  0 0 1 5 -2 roll arc closepath tMatrix setmatrix fill} bdef
/FAn {newpath tMatrix currentmatrix pop translate scale
  0 0 1 5 -2 roll arcn tMatrix setmatrix stroke} bdef
/PAn {newpath tMatrix currentmatrix pop translate 0 0 moveto scale
  0 0 1 5 -2 roll arcn closepath tMatrix setmatrix fill} bdef
/vradius 0 def /hradius 0 def /lry 0 def
/lrx 0 def /uly 0 def /ulx 0 def /rad 0 def
/MRR {/vradius xdef /hradius xdef /lry xdef /lrx xdef /uly xdef
  /ulx xdef newpath tMatrix currentmatrix pop ulx hradius add uly
  vradius add translate hradius vradius scale 0 0 1 180 270 arc 
  tMatrix setmatrix lrx hradius sub uly vradius add translate
  hradius vradius scale 0 0 1 270 360 arc tMatrix setmatrix
  lrx hradius sub lry vradius sub translate hradius vradius scale
  0 0 1 0 90 arc tMatrix setmatrix ulx hradius add lry vradius sub
  translate hradius vradius scale 0 0 1 90 180 arc tMatrix setmatrix
  closepath} bdef
/FRR {MRR stroke } bdef
/PRR {MRR fill } bdef
/MlrRR {/lry xdef /lrx xdef /uly xdef /ulx xdef /rad lry uly sub 2 div def
  newpath tMatrix currentmatrix pop ulx rad add uly rad add translate
  rad rad scale 0 0 1 90 270 arc tMatrix setmatrix lrx rad sub lry rad
  sub translate rad rad scale 0 0 1 270 90 arc tMatrix setmatrix
  closepath} bdef
/FlrRR {MlrRR stroke } bdef
/PlrRR {MlrRR fill } bdef
/MtbRR {/lry xdef /lrx xdef /uly xdef /ulx xdef /rad lrx ulx sub 2 div def
  newpath tMatrix currentmatrix pop ulx rad add uly rad add translate
  rad rad scale 0 0 1 180 360 arc tMatrix setmatrix lrx rad sub lry rad
  sub translate rad rad scale 0 0 1 0 180 arc tMatrix setmatrix
  closepath} bdef
/FtbRR {MtbRR stroke } bdef
/PtbRR {MtbRR fill } bdef
/stri 6 array def /dtri 6 array def
/smat 6 array def /dmat 6 array def
/tmat1 6 array def /tmat2 6 array def /dif 3 array def
/asub {/ind2 exch def /ind1 exch def dup dup
  ind1 get exch ind2 get sub exch } bdef
/tri_to_matrix {
  2 0 asub 3 1 asub 4 0 asub 5 1 asub
  dup 0 get exch 1 get 7 -1 roll astore } bdef
/compute_transform {
  dmat dtri tri_to_matrix tmat1 invertmatrix 
  smat stri tri_to_matrix tmat2 concatmatrix } bdef
/ds {stri astore pop} bdef
/dt {dtri astore pop} bdef
/db {2 copy /cols xdef /rows xdef mul dup 3 mul string
  currentfile 
  3 index 0 eq {/ASCIIHexDecode filter}
  {/ASCII85Decode filter 3 index 2 eq {/RunLengthDecode filter} if }
  ifelse exch readstring pop
  dup 0 3 index getinterval /rbmap xdef
  dup 2 index dup getinterval /gbmap xdef
  1 index dup 2 mul exch getinterval /bbmap xdef pop pop}bdef
/it {gs np dtri aload pop moveto lineto lineto cp c
  cols rows 8 compute_transform 
  rbmap gbmap bbmap true 3 colorimage gr}bdef
/il {newpath moveto lineto stroke}bdef
currentdict end def
%%EndProlog

%%BeginSetup
MathWorks begin

0 cap

end
%%EndSetup

%%Page: 1 1
%%BeginPageSetup
%%PageBoundingBox:    87   262   507   578
MathWorks begin
bpage
%%EndPageSetup

%%BeginObject: obj1
bplot

/dpi2point 12 def
portraitMode 1044 6936 csm

    0     0  5045  3782 rc
85 dict begin %Colortable dictionary
/c0 { 0.000000 0.000000 0.000000 sr} bdef
/c1 { 1.000000 1.000000 1.000000 sr} bdef
/c2 { 0.900000 0.000000 0.000000 sr} bdef
/c3 { 0.000000 0.820000 0.000000 sr} bdef
/c4 { 0.000000 0.000000 0.800000 sr} bdef
/c5 { 0.910000 0.820000 0.320000 sr} bdef
/c6 { 1.000000 0.260000 0.820000 sr} bdef
/c7 { 0.000000 0.820000 0.820000 sr} bdef
c0
1 j
1 sg
   0    0 5046 3783 rf
6 w
0 3066 3910 0 0 -3066 656 3350 4 MP
PP
-3910 0 0 3066 3910 0 0 -3066 656 3350 5 MP stroke
4 w
DO
SO
6 w
0 sg
 656 3350 mt 4566 3350 L
 656 3350 mt  656  284 L
 656 3350 mt  656 3310 L
%%IncludeResource: font Arial
/Arial /WindowsLatin1Encoding 120 FMSR

 623 3495 mt 
(0) s
1047 3350 mt 1047 3310 L
1014 3495 mt 
(1) s
1438 3350 mt 1438 3310 L
1405 3495 mt 
(2) s
1829 3350 mt 1829 3310 L
1796 3495 mt 
(3) s
2220 3350 mt 2220 3310 L
2187 3495 mt 
(4) s
2611 3350 mt 2611 3310 L
2578 3495 mt 
(5) s
3002 3350 mt 3002 3310 L
2969 3495 mt 
(6) s
3393 3350 mt 3393 3310 L
3360 3495 mt 
(7) s
3784 3350 mt 3784 3310 L
3751 3495 mt 
(8) s
4175 3350 mt 4175 3310 L
4142 3495 mt 
(9) s
4566 3350 mt 4566 3310 L
4500 3495 mt 
(10) s
 656 3350 mt  695 3350 L
 555 3394 mt 
(0) s
 656 2941 mt  695 2941 L
 455 2985 mt 
(0.2) s
 656 2532 mt  695 2532 L
 455 2576 mt 
(0.4) s
 656 2123 mt  695 2123 L
 455 2167 mt 
(0.6) s
 656 1714 mt  695 1714 L
 455 1758 mt 
(0.8) s
 656 1306 mt  695 1306 L
 555 1350 mt 
(1) s
 656  897 mt  695  897 L
 455  941 mt 
(1.2) s
 656  488 mt  695  488 L
 455  532 mt 
(1.4) s
gs 656 284 3911 3067 rc
12 w
/c8 { 0.000000 0.000000 1.000000 sr} bdef
c8
230 1 140 0 10 0 25 1 49 0 111 0 154 2 29 0 
136 1 53 1 60 0 59 1 7 0 13 0 6 0 18 0 
66 1 27 1 35 0 30 1 3 0 23 0 6 0 103 2 
19 1 13 0 19 0 4 0 24 1 30 1 35 1 31 0 
4 0 35 1 25 1 13 1 10 0 35 1 43 2 76 3 
17 0 48 3 61 3 70 4 15 1 31 2 20 2 36 3 
11 0 18 2 3 0 31 3 19 2 65 7 48 6 29 4 
116 19 12 2 191 53 4 1 25 10 51 23 9 4 24 12 
15 9 16 9 12 8 67 49 23 21 64 68 33 44 26 40 
43 77 131 384 10 44 127 900 5 59 14 172 950 1270 79 MP stroke
gr

12 w
c8
 914 1270 mt  986 1270 L
 950 1234 mt  950 1306 L
 928 1442 mt 1000 1442 L
 964 1406 mt  964 1478 L
 933 1501 mt 1005 1501 L
 969 1465 mt  969 1537 L
1060 2401 mt 1132 2401 L
1096 2365 mt 1096 2437 L
1070 2445 mt 1142 2445 L
1106 2409 mt 1106 2481 L
1201 2829 mt 1273 2829 L
1237 2793 mt 1237 2865 L
1244 2906 mt 1316 2906 L
1280 2870 mt 1280 2942 L
1270 2946 mt 1342 2946 L
1306 2910 mt 1306 2982 L
1303 2990 mt 1375 2990 L
1339 2954 mt 1339 3026 L
1367 3058 mt 1439 3058 L
1403 3022 mt 1403 3094 L
1390 3079 mt 1462 3079 L
1426 3043 mt 1426 3115 L
1457 3128 mt 1529 3128 L
1493 3092 mt 1493 3164 L
1469 3136 mt 1541 3136 L
1505 3100 mt 1505 3172 L
1485 3145 mt 1557 3145 L
1521 3109 mt 1521 3181 L
1500 3154 mt 1572 3154 L
1536 3118 mt 1536 3190 L
1524 3166 mt 1596 3166 L
1560 3130 mt 1560 3202 L
1533 3170 mt 1605 3170 L
1569 3134 mt 1569 3206 L
1584 3193 mt 1656 3193 L
1620 3157 mt 1620 3229 L
1609 3203 mt 1681 3203 L
1645 3167 mt 1645 3239 L
1613 3204 mt 1685 3204 L
1649 3168 mt 1649 3240 L
1804 3257 mt 1876 3257 L
1840 3221 mt 1840 3293 L
1816 3259 mt 1888 3259 L
1852 3223 mt 1852 3295 L
1932 3278 mt 2004 3278 L
1968 3242 mt 1968 3314 L
1961 3282 mt 2033 3282 L
1997 3246 mt 1997 3318 L
2009 3288 mt 2081 3288 L
2045 3252 mt 2045 3324 L
2074 3295 mt 2146 3295 L
2110 3259 mt 2110 3331 L
2093 3297 mt 2165 3297 L
2129 3261 mt 2129 3333 L
2124 3300 mt 2196 3300 L
2160 3264 mt 2160 3336 L
2127 3300 mt 2199 3300 L
2163 3264 mt 2163 3336 L
2145 3302 mt 2217 3302 L
2181 3266 mt 2181 3338 L
2156 3302 mt 2228 3302 L
2192 3266 mt 2192 3338 L
2192 3305 mt 2264 3305 L
2228 3269 mt 2228 3341 L
2212 3307 mt 2284 3307 L
2248 3271 mt 2248 3343 L
2243 3309 mt 2315 3309 L
2279 3273 mt 2279 3345 L
2258 3310 mt 2330 3310 L
2294 3274 mt 2294 3346 L
2328 3314 mt 2400 3314 L
2364 3278 mt 2364 3350 L
2389 3317 mt 2461 3317 L
2425 3281 mt 2425 3353 L
2437 3320 mt 2509 3320 L
2473 3284 mt 2473 3356 L
2454 3320 mt 2526 3320 L
2490 3284 mt 2490 3356 L
2530 3323 mt 2602 3323 L
2566 3287 mt 2566 3359 L
2573 3325 mt 2645 3325 L
2609 3289 mt 2609 3361 L
2608 3326 mt 2680 3326 L
2644 3290 mt 2644 3362 L
2618 3326 mt 2690 3326 L
2654 3290 mt 2654 3362 L
2631 3327 mt 2703 3327 L
2667 3291 mt 2667 3363 L
2656 3328 mt 2728 3328 L
2692 3292 mt 2692 3364 L
2691 3329 mt 2763 3329 L
2727 3293 mt 2727 3365 L
2695 3329 mt 2767 3329 L
2731 3293 mt 2731 3365 L
2726 3329 mt 2798 3329 L
2762 3293 mt 2762 3365 L
2761 3330 mt 2833 3330 L
2797 3294 mt 2797 3366 L
2791 3331 mt 2863 3331 L
2827 3295 mt 2827 3367 L
2815 3332 mt 2887 3332 L
2851 3296 mt 2851 3368 L
2819 3332 mt 2891 3332 L
2855 3296 mt 2855 3368 L
2838 3332 mt 2910 3332 L
2874 3296 mt 2874 3368 L
2851 3332 mt 2923 3332 L
2887 3296 mt 2887 3368 L
2870 3333 mt 2942 3333 L
2906 3297 mt 2906 3369 L
2973 3335 mt 3045 3335 L
3009 3299 mt 3009 3371 L
2979 3335 mt 3051 3335 L
3015 3299 mt 3015 3371 L
3002 3335 mt 3074 3335 L
3038 3299 mt 3038 3371 L
3005 3335 mt 3077 3335 L
3041 3299 mt 3041 3371 L
3035 3336 mt 3107 3336 L
3071 3300 mt 3071 3372 L
3070 3336 mt 3142 3336 L
3106 3300 mt 3106 3372 L
3097 3337 mt 3169 3337 L
3133 3301 mt 3133 3373 L
3163 3338 mt 3235 3338 L
3199 3302 mt 3199 3374 L
3181 3338 mt 3253 3338 L
3217 3302 mt 3217 3374 L
3187 3338 mt 3259 3338 L
3223 3302 mt 3223 3374 L
3200 3338 mt 3272 3338 L
3236 3302 mt 3236 3374 L
3207 3338 mt 3279 3338 L
3243 3302 mt 3243 3374 L
3266 3339 mt 3338 3339 L
3302 3303 mt 3302 3375 L
3326 3339 mt 3398 3339 L
3362 3303 mt 3362 3375 L
3379 3340 mt 3451 3340 L
3415 3304 mt 3415 3376 L
3515 3341 mt 3587 3341 L
3551 3305 mt 3551 3377 L
3544 3341 mt 3616 3341 L
3580 3305 mt 3580 3377 L
3698 3343 mt 3770 3343 L
3734 3307 mt 3734 3379 L
3809 3343 mt 3881 3343 L
3845 3307 mt 3845 3379 L
3858 3343 mt 3930 3343 L
3894 3307 mt 3894 3379 L
3883 3344 mt 3955 3344 L
3919 3308 mt 3919 3380 L
3893 3344 mt 3965 3344 L
3929 3308 mt 3929 3380 L
4033 3344 mt 4105 3344 L
4069 3308 mt 4069 3380 L
4263 3345 mt 4335 3345 L
4299 3309 mt 4299 3381 L
 925 1245 mt  975 1295 L
 975 1245 mt  925 1295 L
 939 1417 mt  989 1467 L
 989 1417 mt  939 1467 L
 944 1476 mt  994 1526 L
 994 1476 mt  944 1526 L
1071 2376 mt 1121 2426 L
1121 2376 mt 1071 2426 L
1081 2420 mt 1131 2470 L
1131 2420 mt 1081 2470 L
1212 2804 mt 1262 2854 L
1262 2804 mt 1212 2854 L
1255 2881 mt 1305 2931 L
1305 2881 mt 1255 2931 L
1281 2921 mt 1331 2971 L
1331 2921 mt 1281 2971 L
1314 2965 mt 1364 3015 L
1364 2965 mt 1314 3015 L
1378 3033 mt 1428 3083 L
1428 3033 mt 1378 3083 L
1401 3054 mt 1451 3104 L
1451 3054 mt 1401 3104 L
1468 3103 mt 1518 3153 L
1518 3103 mt 1468 3153 L
1480 3111 mt 1530 3161 L
1530 3111 mt 1480 3161 L
1496 3120 mt 1546 3170 L
1546 3120 mt 1496 3170 L
1511 3129 mt 1561 3179 L
1561 3129 mt 1511 3179 L
1535 3141 mt 1585 3191 L
1585 3141 mt 1535 3191 L
1544 3145 mt 1594 3195 L
1594 3145 mt 1544 3195 L
1595 3168 mt 1645 3218 L
1645 3168 mt 1595 3218 L
1620 3178 mt 1670 3228 L
1670 3178 mt 1620 3228 L
1624 3179 mt 1674 3229 L
1674 3179 mt 1624 3229 L
1815 3232 mt 1865 3282 L
1865 3232 mt 1815 3282 L
1827 3234 mt 1877 3284 L
1877 3234 mt 1827 3284 L
1943 3253 mt 1993 3303 L
1993 3253 mt 1943 3303 L
1972 3257 mt 2022 3307 L
2022 3257 mt 1972 3307 L
2020 3263 mt 2070 3313 L
2070 3263 mt 2020 3313 L
2085 3270 mt 2135 3320 L
2135 3270 mt 2085 3320 L
2104 3272 mt 2154 3322 L
2154 3272 mt 2104 3322 L
2135 3275 mt 2185 3325 L
2185 3275 mt 2135 3325 L
2138 3275 mt 2188 3325 L
2188 3275 mt 2138 3325 L
2156 3277 mt 2206 3327 L
2206 3277 mt 2156 3327 L
2167 3277 mt 2217 3327 L
2217 3277 mt 2167 3327 L
2203 3280 mt 2253 3330 L
2253 3280 mt 2203 3330 L
2223 3282 mt 2273 3332 L
2273 3282 mt 2223 3332 L
2254 3284 mt 2304 3334 L
2304 3284 mt 2254 3334 L
2269 3285 mt 2319 3335 L
2319 3285 mt 2269 3335 L
2339 3289 mt 2389 3339 L
2389 3289 mt 2339 3339 L
2400 3292 mt 2450 3342 L
2450 3292 mt 2400 3342 L
2448 3295 mt 2498 3345 L
2498 3295 mt 2448 3345 L
2465 3295 mt 2515 3345 L
2515 3295 mt 2465 3345 L
2541 3298 mt 2591 3348 L
2591 3298 mt 2541 3348 L
2584 3300 mt 2634 3350 L
2634 3300 mt 2584 3350 L
2619 3301 mt 2669 3351 L
2669 3301 mt 2619 3351 L
2629 3301 mt 2679 3351 L
2679 3301 mt 2629 3351 L
2642 3302 mt 2692 3352 L
2692 3302 mt 2642 3352 L
2667 3303 mt 2717 3353 L
2717 3303 mt 2667 3353 L
2702 3304 mt 2752 3354 L
2752 3304 mt 2702 3354 L
2706 3304 mt 2756 3354 L
2756 3304 mt 2706 3354 L
2737 3304 mt 2787 3354 L
2787 3304 mt 2737 3354 L
2772 3305 mt 2822 3355 L
2822 3305 mt 2772 3355 L
2802 3306 mt 2852 3356 L
2852 3306 mt 2802 3356 L
2826 3307 mt 2876 3357 L
2876 3307 mt 2826 3357 L
2830 3307 mt 2880 3357 L
2880 3307 mt 2830 3357 L
2849 3307 mt 2899 3357 L
2899 3307 mt 2849 3357 L
2862 3307 mt 2912 3357 L
2912 3307 mt 2862 3357 L
2881 3308 mt 2931 3358 L
2931 3308 mt 2881 3358 L
2984 3310 mt 3034 3360 L
3034 3310 mt 2984 3360 L
2990 3310 mt 3040 3360 L
3040 3310 mt 2990 3360 L
3013 3310 mt 3063 3360 L
3063 3310 mt 3013 3360 L
3016 3310 mt 3066 3360 L
3066 3310 mt 3016 3360 L
3046 3311 mt 3096 3361 L
3096 3311 mt 3046 3361 L
3081 3311 mt 3131 3361 L
3131 3311 mt 3081 3361 L
3108 3312 mt 3158 3362 L
3158 3312 mt 3108 3362 L
3174 3313 mt 3224 3363 L
3224 3313 mt 3174 3363 L
3192 3313 mt 3242 3363 L
3242 3313 mt 3192 3363 L
3198 3313 mt 3248 3363 L
3248 3313 mt 3198 3363 L
3211 3313 mt 3261 3363 L
3261 3313 mt 3211 3363 L
3218 3313 mt 3268 3363 L
3268 3313 mt 3218 3363 L
3277 3314 mt 3327 3364 L
3327 3314 mt 3277 3364 L
3337 3314 mt 3387 3364 L
3387 3314 mt 3337 3364 L
3390 3315 mt 3440 3365 L
3440 3315 mt 3390 3365 L
3526 3316 mt 3576 3366 L
3576 3316 mt 3526 3366 L
3555 3316 mt 3605 3366 L
3605 3316 mt 3555 3366 L
3709 3318 mt 3759 3368 L
3759 3318 mt 3709 3368 L
3820 3318 mt 3870 3368 L
3870 3318 mt 3820 3368 L
3869 3318 mt 3919 3368 L
3919 3318 mt 3869 3368 L
3894 3319 mt 3944 3369 L
3944 3319 mt 3894 3369 L
3904 3319 mt 3954 3369 L
3954 3319 mt 3904 3369 L
4044 3319 mt 4094 3369 L
4094 3319 mt 4044 3369 L
4274 3320 mt 4324 3370 L
4324 3320 mt 4274 3370 L
gs 656 284 3911 3067 rc
/c9 { 1.000000 0.000000 0.000000 sr} bdef
c9
25 0 49 0 111 0 154 0 29 1 136 0 53 0 60 0 
59 1 7 0 13 1 6 0 18 0 66 0 27 1 35 0 
30 0 3 0 23 0 6 1 103 0 19 0 13 0 19 0 
4 1 24 0 30 0 35 0 31 1 4 0 35 0 25 1 
13 0 10 0 35 0 43 1 76 0 17 0 48 1 61 0 
70 1 15 0 31 1 20 15 36 0 11 0 18 2 3 -1 
31 1 19 0 65 1 48 1 29 5 116 17 12 -4 191 49 
4 32 25 1 51 7 9 13 24 13 15 10 16 5 12 10 
67 17 23 18 64 70 33 60 26 42 43 54 131 419 10 21 
127 872 5 118 14 132 950 1332 76 MP stroke
gr

c9
  36   36  950 1332 FO
  36   36  964 1464 FO
  36   36  969 1582 FO
  36   36 1096 2454 FO
  36   36 1106 2475 FO
  36   36 1237 2894 FO
  36   36 1280 2948 FO
  36   36 1306 2990 FO
  36   36 1339 3050 FO
  36   36 1403 3120 FO
  36   36 1426 3138 FO
  36   36 1493 3155 FO
  36   36 1505 3165 FO
  36   36 1521 3170 FO
  36   36 1536 3180 FO
  36   36 1560 3193 FO
  36   36 1569 3206 FO
  36   36 1620 3213 FO
  36   36 1645 3214 FO
  36   36 1649 3246 FO
  36   36 1840 3295 FO
  36   36 1852 3291 FO
  36   36 1968 3308 FO
  36   36 1997 3313 FO
  36   36 2045 3314 FO
  36   36 2110 3315 FO
  36   36 2129 3315 FO
  36   36 2160 3316 FO
  36   36 2163 3315 FO
  36   36 2181 3317 FO
  36   36 2192 3317 FO
  36   36 2228 3317 FO
  36   36 2248 3332 FO
  36   36 2279 3333 FO
  36   36 2294 3333 FO
  36   36 2364 3334 FO
  36   36 2425 3334 FO
  36   36 2473 3335 FO
  36   36 2490 3335 FO
  36   36 2566 3335 FO
  36   36 2609 3336 FO
  36   36 2644 3336 FO
  36   36 2654 3336 FO
  36   36 2667 3336 FO
  36   36 2692 3337 FO
  36   36 2727 3337 FO
  36   36 2731 3337 FO
  36   36 2762 3338 FO
  36   36 2797 3338 FO
  36   36 2827 3338 FO
  36   36 2851 3338 FO
  36   36 2855 3339 FO
  36   36 2874 3339 FO
  36   36 2887 3339 FO
  36   36 2906 3339 FO
  36   36 3009 3339 FO
  36   36 3015 3340 FO
  36   36 3038 3340 FO
  36   36 3041 3340 FO
  36   36 3071 3340 FO
  36   36 3106 3340 FO
  36   36 3133 3341 FO
  36   36 3199 3341 FO
  36   36 3217 3341 FO
  36   36 3223 3341 FO
  36   36 3236 3342 FO
  36   36 3243 3342 FO
  36   36 3302 3343 FO
  36   36 3362 3343 FO
  36   36 3415 3343 FO
  36   36 3551 3343 FO
  36   36 3580 3344 FO
  36   36 3734 3344 FO
  36   36 3845 3344 FO
  36   36 3894 3344 FO
  36   36 3919 3344 FO
gs 656 284 3911 3067 rc
gr

0 sg
%%IncludeResource: font Arial
/Arial /WindowsLatin1Encoding 240 FMSR

1750 3726 mt 
(Distance \(Hops\)) s
 346 3107 mt  -90 rotate
(Interference Value \(mW\)) s
90 rotate
%%IncludeResource: font Arial
/Arial /WindowsLatin1Encoding 120 FMSR

 639 3393 mt 
( ) s
4550  326 mt 
( ) s
6 w
1 sg
0 334 2004 0 0 -334 2503 678 4 MP
PP
-2004 0 0 334 2004 0 0 -334 2503 678 5 MP stroke
4 w
DO
SO
6 w
0 sg
2503  344 mt 4507  344 L
2503  678 mt 4507  678 L
4507  678 mt 4507  344 L
2503  678 mt 2503  344 L
2503  678 mt 4507  678 L
2503  678 mt 2503  344 L
2503  344 mt 4507  344 L
2503  678 mt 4507  678 L
4507  678 mt 4507  344 L
2503  678 mt 2503  344 L
2979  479 mt 
(Original Interference Values) s
gs 2503 344 2005 335 rc
12 w
c8
366 0 2576 436 2 MP stroke
gs 2686 363 147 147 rc
2723  436 mt 2795  436 L
2759  400 mt 2759  472 L
2734  411 mt 2784  461 L
2784  411 mt 2734  461 L
gr

gr

12 w
c8
0 sg
2979  628 mt 
(Recover Interference Values) s
gs 2503 344 2005 335 rc
c9
366 0 2576 585 2 MP stroke
gs 2686 512 147 147 rc
  36   36 2759  585 FO
gr

6 w
gr

6 w
c9

end %%Color Dict

eplot
%%EndObject

epage
end

showpage

%%Trailer
%%EOF
