%!PS-Adobe-3.0 EPSF-3.0
%%Creator: MATLAB, The Mathworks, Inc. Version 7.5.0.342 (R2007b). Operating System: Microsoft Windows Vista.
%%Title: C:\Research\Interference Measurement\paper draft\v0122\figures\multi_ratio1.eps
%%CreationDate: 01/22/2013  00:08:13
%%DocumentNeededFonts: Arial
%%DocumentProcessColors: Cyan Magenta Yellow Black
%%LanguageLevel: 2
%%Pages: 1
%%BoundingBox:    87   262   507   578
%%EndComments

%%BeginProlog
% MathWorks dictionary
/MathWorks 160 dict begin
% definition operators
/bdef {bind def} bind def
/ldef {load def} bind def
/xdef {exch def} bdef
/xstore {exch store} bdef
% operator abbreviations
/c  /clip ldef
/cc /concat ldef
/cp /closepath ldef
/gr /grestore ldef
/gs /gsave ldef
/mt /moveto ldef
/np /newpath ldef
/cm /currentmatrix ldef
/sm /setmatrix ldef
/rm /rmoveto ldef
/rl /rlineto ldef
/s {show newpath} bdef
/sc {setcmykcolor} bdef
/sr /setrgbcolor ldef
/sg /setgray ldef
/w /setlinewidth ldef
/j /setlinejoin ldef
/cap /setlinecap ldef
/rc {rectclip} bdef
/rf {rectfill} bdef
% page state control
/pgsv () def
/bpage {/pgsv save def} bdef
/epage {pgsv restore} bdef
/bplot /gsave ldef
/eplot {stroke grestore} bdef
% orientation switch
/portraitMode 0 def /landscapeMode 1 def /rotateMode 2 def
% coordinate system mappings
/dpi2point 0 def
% font control
/FontSize 0 def
/FMS {/FontSize xstore findfont [FontSize 0 0 FontSize neg 0 0]
  makefont setfont} bdef
/ISOLatin1Encoding where {pop /WindowsLatin1Encoding 256 array bdef
ISOLatin1Encoding WindowsLatin1Encoding copy pop
/.notdef/.notdef/quotesinglbase/florin/quotedblbase/ellipsis/dagger
/daggerdbl/circumflex/perthousand/Scaron/guilsinglleft/OE/.notdef/.notdef
/.notdef/.notdef/quoteleft/quoteright/quotedblleft/quotedblright/bullet
/endash/emdash/tilde/trademark/scaron/guilsinglright/oe/.notdef/.notdef
/Ydieresis WindowsLatin1Encoding 128 32 getinterval astore pop}
{/WindowsLatin1Encoding StandardEncoding bdef} ifelse
/reencode {exch dup where {pop load} {pop StandardEncoding} ifelse
  exch dup 3 1 roll findfont dup length dict begin
  { 1 index /FID ne {def}{pop pop} ifelse } forall
  /Encoding exch def currentdict end definefont pop} bdef
/isroman {findfont /CharStrings get /Agrave known} bdef
/FMSR {3 1 roll 1 index dup isroman {reencode} {pop pop} ifelse
  exch FMS} bdef
/csm {1 dpi2point div -1 dpi2point div scale neg translate
 dup landscapeMode eq {pop -90 rotate}
  {rotateMode eq {90 rotate} if} ifelse} bdef
% line types: solid, dotted, dashed, dotdash
/SO { [] 0 setdash } bdef
/DO { [.5 dpi2point mul 4 dpi2point mul] 0 setdash } bdef
/DA { [6 dpi2point mul] 0 setdash } bdef
/DD { [.5 dpi2point mul 4 dpi2point mul 6 dpi2point mul 4
  dpi2point mul] 0 setdash } bdef
% macros for lines and objects
/L {lineto stroke} bdef
/MP {3 1 roll moveto 1 sub {rlineto} repeat} bdef
/AP {{rlineto} repeat} bdef
/PDlw -1 def
/W {/PDlw currentlinewidth def setlinewidth} def
/PP {closepath eofill} bdef
/DP {closepath stroke} bdef
/MR {4 -2 roll moveto dup  0 exch rlineto exch 0 rlineto
  neg 0 exch rlineto closepath} bdef
/FR {MR stroke} bdef
/PR {MR fill} bdef
/L1i {{currentfile picstr readhexstring pop} image} bdef
/tMatrix matrix def
/MakeOval {newpath tMatrix currentmatrix pop translate scale
0 0 1 0 360 arc tMatrix setmatrix} bdef
/FO {MakeOval stroke} bdef
/PO {MakeOval fill} bdef
/PD {currentlinewidth 2 div 0 360 arc fill
   PDlw -1 eq not {PDlw w /PDlw -1 def} if} def
/FA {newpath tMatrix currentmatrix pop translate scale
  0 0 1 5 -2 roll arc tMatrix setmatrix stroke} bdef
/PA {newpath tMatrix currentmatrix pop	translate 0 0 moveto scale
  0 0 1 5 -2 roll arc closepath tMatrix setmatrix fill} bdef
/FAn {newpath tMatrix currentmatrix pop translate scale
  0 0 1 5 -2 roll arcn tMatrix setmatrix stroke} bdef
/PAn {newpath tMatrix currentmatrix pop translate 0 0 moveto scale
  0 0 1 5 -2 roll arcn closepath tMatrix setmatrix fill} bdef
/vradius 0 def /hradius 0 def /lry 0 def
/lrx 0 def /uly 0 def /ulx 0 def /rad 0 def
/MRR {/vradius xdef /hradius xdef /lry xdef /lrx xdef /uly xdef
  /ulx xdef newpath tMatrix currentmatrix pop ulx hradius add uly
  vradius add translate hradius vradius scale 0 0 1 180 270 arc 
  tMatrix setmatrix lrx hradius sub uly vradius add translate
  hradius vradius scale 0 0 1 270 360 arc tMatrix setmatrix
  lrx hradius sub lry vradius sub translate hradius vradius scale
  0 0 1 0 90 arc tMatrix setmatrix ulx hradius add lry vradius sub
  translate hradius vradius scale 0 0 1 90 180 arc tMatrix setmatrix
  closepath} bdef
/FRR {MRR stroke } bdef
/PRR {MRR fill } bdef
/MlrRR {/lry xdef /lrx xdef /uly xdef /ulx xdef /rad lry uly sub 2 div def
  newpath tMatrix currentmatrix pop ulx rad add uly rad add translate
  rad rad scale 0 0 1 90 270 arc tMatrix setmatrix lrx rad sub lry rad
  sub translate rad rad scale 0 0 1 270 90 arc tMatrix setmatrix
  closepath} bdef
/FlrRR {MlrRR stroke } bdef
/PlrRR {MlrRR fill } bdef
/MtbRR {/lry xdef /lrx xdef /uly xdef /ulx xdef /rad lrx ulx sub 2 div def
  newpath tMatrix currentmatrix pop ulx rad add uly rad add translate
  rad rad scale 0 0 1 180 360 arc tMatrix setmatrix lrx rad sub lry rad
  sub translate rad rad scale 0 0 1 0 180 arc tMatrix setmatrix
  closepath} bdef
/FtbRR {MtbRR stroke } bdef
/PtbRR {MtbRR fill } bdef
/stri 6 array def /dtri 6 array def
/smat 6 array def /dmat 6 array def
/tmat1 6 array def /tmat2 6 array def /dif 3 array def
/asub {/ind2 exch def /ind1 exch def dup dup
  ind1 get exch ind2 get sub exch } bdef
/tri_to_matrix {
  2 0 asub 3 1 asub 4 0 asub 5 1 asub
  dup 0 get exch 1 get 7 -1 roll astore } bdef
/compute_transform {
  dmat dtri tri_to_matrix tmat1 invertmatrix 
  smat stri tri_to_matrix tmat2 concatmatrix } bdef
/ds {stri astore pop} bdef
/dt {dtri astore pop} bdef
/db {2 copy /cols xdef /rows xdef mul dup 3 mul string
  currentfile 
  3 index 0 eq {/ASCIIHexDecode filter}
  {/ASCII85Decode filter 3 index 2 eq {/RunLengthDecode filter} if }
  ifelse exch readstring pop
  dup 0 3 index getinterval /rbmap xdef
  dup 2 index dup getinterval /gbmap xdef
  1 index dup 2 mul exch getinterval /bbmap xdef pop pop}bdef
/it {gs np dtri aload pop moveto lineto lineto cp c
  cols rows 8 compute_transform 
  rbmap gbmap bbmap true 3 colorimage gr}bdef
/il {newpath moveto lineto stroke}bdef
currentdict end def
%%EndProlog

%%BeginSetup
MathWorks begin

0 cap

end
%%EndSetup

%%Page: 1 1
%%BeginPageSetup
%%PageBoundingBox:    87   262   507   578
MathWorks begin
bpage
%%EndPageSetup

%%BeginObject: obj1
bplot

/dpi2point 12 def
portraitMode 1044 6936 csm

    0     0  5045  3782 rc
85 dict begin %Colortable dictionary
/c0 { 0.000000 0.000000 0.000000 sr} bdef
/c1 { 1.000000 1.000000 1.000000 sr} bdef
/c2 { 0.900000 0.000000 0.000000 sr} bdef
/c3 { 0.000000 0.820000 0.000000 sr} bdef
/c4 { 0.000000 0.000000 0.800000 sr} bdef
/c5 { 0.910000 0.820000 0.320000 sr} bdef
/c6 { 1.000000 0.260000 0.820000 sr} bdef
/c7 { 0.000000 0.820000 0.820000 sr} bdef
c0
1 j
1 sg
   0    0 5046 3783 rf
6 w
0 3032 3910 0 0 -3032 656 3316 4 MP
PP
-3910 0 0 3032 3910 0 0 -3032 656 3316 5 MP stroke
4 w
DO
SO
6 w
0 sg
 656  284 mt 4566  284 L
 656 3316 mt 4566 3316 L
4566 3316 mt 4566  284 L
 656 3316 mt  656  284 L
 656 3316 mt 4566 3316 L
 656 3316 mt  656  284 L
 979 3316 mt  979 3276 L
 979  284 mt  979  323 L
%%IncludeResource: font Arial
/Arial /WindowsLatin1Encoding 156 FMSR

 849 3495 mt 
(150) s
1469 3316 mt 1469 3276 L
1469  284 mt 1469  323 L
1339 3495 mt 
(200) s
1959 3316 mt 1959 3276 L
1959  284 mt 1959  323 L
1829 3495 mt 
(250) s
2449 3316 mt 2449 3276 L
2449  284 mt 2449  323 L
2319 3495 mt 
(300) s
2939 3316 mt 2939 3276 L
2939  284 mt 2939  323 L
2809 3495 mt 
(350) s
3429 3316 mt 3429 3276 L
3429  284 mt 3429  323 L
3299 3495 mt 
(400) s
3919 3316 mt 3919 3276 L
3919  284 mt 3919  323 L
3789 3495 mt 
(450) s
4409 3316 mt 4409 3276 L
4409  284 mt 4409  323 L
4279 3495 mt 
(500) s
 656 3316 mt  695 3316 L
4566 3316 mt 4526 3316 L
 535 3374 mt 
(0) s
 656 3012 mt  695 3012 L
4566 3012 mt 4526 3012 L
 448 3070 mt 
(10) s
 656 2709 mt  695 2709 L
4566 2709 mt 4526 2709 L
 448 2767 mt 
(20) s
 656 2406 mt  695 2406 L
4566 2406 mt 4526 2406 L
 448 2464 mt 
(30) s
 656 2103 mt  695 2103 L
4566 2103 mt 4526 2103 L
 448 2161 mt 
(40) s
 656 1800 mt  695 1800 L
4566 1800 mt 4526 1800 L
 448 1858 mt 
(50) s
 656 1496 mt  695 1496 L
4566 1496 mt 4526 1496 L
 448 1554 mt 
(60) s
 656 1193 mt  695 1193 L
4566 1193 mt 4526 1193 L
 448 1251 mt 
(70) s
 656  890 mt  695  890 L
4566  890 mt 4526  890 L
 448  948 mt 
(80) s
 656  587 mt  695  587 L
4566  587 mt 4526  587 L
 448  645 mt 
(90) s
 656  284 mt  695  284 L
4566  284 mt 4526  284 L
 361  342 mt 
(100) s
 656  284 mt 4566  284 L
 656 3316 mt 4566 3316 L
4566 3316 mt 4566  284 L
 656 3316 mt  656  284 L
gs 656 284 3911 3033 rc
24 w
/c8 { 0.000000 0.000000 1.000000 sr} bdef
c8
206 0 206 0 206 0 206 0 205 0 206 0 206 -31 206 -60 
206 -152 205 -121 206 -122 206 -242 206 -273 206 -425 205 -424 206 -424 
206 -395 206 -151 205 -122 656 3316 20 MP stroke
gr

24 w
c8
 620 3316 mt  692 3316 L
 656 3280 mt  656 3352 L
 825 3194 mt  897 3194 L
 861 3158 mt  861 3230 L
1031 3043 mt 1103 3043 L
1067 3007 mt 1067 3079 L
1237 2648 mt 1309 2648 L
1273 2612 mt 1273 2684 L
1443 2224 mt 1515 2224 L
1479 2188 mt 1479 2260 L
1648 1800 mt 1720 1800 L
1684 1764 mt 1684 1836 L
1854 1375 mt 1926 1375 L
1890 1339 mt 1890 1411 L
2060 1102 mt 2132 1102 L
2096 1066 mt 2096 1138 L
2266  860 mt 2338  860 L
2302  824 mt 2302  896 L
2472  738 mt 2544  738 L
2508  702 mt 2508  774 L
2677  617 mt 2749  617 L
2713  581 mt 2713  653 L
2883  465 mt 2955  465 L
2919  429 mt 2919  501 L
3089  405 mt 3161  405 L
3125  369 mt 3125  441 L
3295  374 mt 3367  374 L
3331  338 mt 3331  410 L
3501  374 mt 3573  374 L
3537  338 mt 3537  410 L
3706  374 mt 3778  374 L
3742  338 mt 3742  410 L
3912  374 mt 3984  374 L
3948  338 mt 3948  410 L
4118  374 mt 4190  374 L
4154  338 mt 4154  410 L
4324  374 mt 4396  374 L
4360  338 mt 4360  410 L
4530  374 mt 4602  374 L
4566  338 mt 4566  410 L
 631 3291 mt  681 3341 L
 681 3291 mt  631 3341 L
 836 3169 mt  886 3219 L
 886 3169 mt  836 3219 L
1042 3018 mt 1092 3068 L
1092 3018 mt 1042 3068 L
1248 2623 mt 1298 2673 L
1298 2623 mt 1248 2673 L
1454 2199 mt 1504 2249 L
1504 2199 mt 1454 2249 L
1659 1775 mt 1709 1825 L
1709 1775 mt 1659 1825 L
1865 1350 mt 1915 1400 L
1915 1350 mt 1865 1400 L
2071 1077 mt 2121 1127 L
2121 1077 mt 2071 1127 L
2277  835 mt 2327  885 L
2327  835 mt 2277  885 L
2483  713 mt 2533  763 L
2533  713 mt 2483  763 L
2688  592 mt 2738  642 L
2738  592 mt 2688  642 L
2894  440 mt 2944  490 L
2944  440 mt 2894  490 L
3100  380 mt 3150  430 L
3150  380 mt 3100  430 L
3306  349 mt 3356  399 L
3356  349 mt 3306  399 L
3512  349 mt 3562  399 L
3562  349 mt 3512  399 L
3717  349 mt 3767  399 L
3767  349 mt 3717  399 L
3923  349 mt 3973  399 L
3973  349 mt 3923  399 L
4129  349 mt 4179  399 L
4179  349 mt 4129  399 L
4335  349 mt 4385  399 L
4385  349 mt 4335  399 L
4541  349 mt 4591  399 L
4591  349 mt 4541  399 L
gs 656 284 3911 3033 rc
DA
/c9 { 0.000000 0.500000 0.000000 sr} bdef
c9
206 0 206 -30 206 -60 206 -31 205 -30 206 0 206 0 206 -30 
206 -61 205 -30 206 -91 206 -243 206 -242 206 -304 205 -485 206 -576 
206 -515 206 -243 205 -61 656 3316 20 MP stroke
gr

c9
DA
SO
0 j
-41 71 -41 -71 82 0 615 3340 4 MP
DP
-41 71 -41 -71 82 0 820 3279 4 MP
DP
-41 71 -41 -71 82 0 1026 3036 4 MP
DP
-41 71 -41 -71 82 0 1232 2521 4 MP
DP
-41 71 -41 -71 82 0 1438 1945 4 MP
DP
-41 71 -41 -71 82 0 1643 1460 4 MP
DP
-41 71 -41 -71 82 0 1849 1156 4 MP
DP
-41 71 -41 -71 82 0 2055 914 4 MP
DP
-41 71 -41 -71 82 0 2261 671 4 MP
DP
-41 71 -41 -71 82 0 2467 580 4 MP
DP
-41 71 -41 -71 82 0 2672 550 4 MP
DP
-41 71 -41 -71 82 0 2878 489 4 MP
DP
-41 71 -41 -71 82 0 3084 459 4 MP
DP
-41 71 -41 -71 82 0 3290 459 4 MP
DP
-41 71 -41 -71 82 0 3496 459 4 MP
DP
-41 71 -41 -71 82 0 3701 429 4 MP
DP
-41 71 -41 -71 82 0 3907 398 4 MP
DP
-41 71 -41 -71 82 0 4113 338 4 MP
DP
-41 71 -41 -71 82 0 4319 308 4 MP
DP
-41 71 -41 -71 82 0 4525 308 4 MP
DP
DA
gs 656 284 3911 3033 rc
DO
/c10 { 1.000000 0.000000 0.000000 sr} bdef
c10
206 -30 206 0 206 0 206 -60 205 -61 206 -91 206 -152 206 -273 
206 -576 205 -515 206 -516 206 -485 206 -182 205 -91 656 3316 15 MP stroke
gr

c10
DO
SO
  36   36  656 3316 FO
  36   36  861 3225 FO
  36   36 1067 3043 FO
  36   36 1273 2558 FO
  36   36 1479 2042 FO
  36   36 1684 1527 FO
  36   36 1890  951 FO
  36   36 2096  678 FO
  36   36 2302  526 FO
  36   36 2508  435 FO
  36   36 2713  374 FO
  36   36 2919  314 FO
  36   36 3125  314 FO
  36   36 3331  314 FO
  36   36 3537  284 FO
DO
gs 656 284 3911 3033 rc
DD
/c11 { 0.000000 0.750000 0.750000 sr} bdef
c11
206 -30 206 0 206 0 206 -60 205 -31 206 0 206 0 206 -60 
206 -152 205 -152 206 -182 206 -242 206 -425 206 -606 205 -455 206 -303 
206 -212 206 -91 205 -31 656 3316 20 MP stroke
gr

c11
DD
SO
0 -58 -58 0 0 58 58 0 627 3287 5 MP
DP
0 -58 -58 0 0 58 58 0 832 3256 5 MP
DP
0 -58 -58 0 0 58 58 0 1038 3165 5 MP
DP
0 -58 -58 0 0 58 58 0 1244 2953 5 MP
DP
0 -58 -58 0 0 58 58 0 1450 2650 5 MP
DP
0 -58 -58 0 0 58 58 0 1655 2195 5 MP
DP
0 -58 -58 0 0 58 58 0 1861 1589 5 MP
DP
0 -58 -58 0 0 58 58 0 2067 1164 5 MP
DP
0 -58 -58 0 0 58 58 0 2273 922 5 MP
DP
0 -58 -58 0 0 58 58 0 2479 740 5 MP
DP
0 -58 -58 0 0 58 58 0 2684 588 5 MP
DP
0 -58 -58 0 0 58 58 0 2890 436 5 MP
DP
0 -58 -58 0 0 58 58 0 3096 376 5 MP
DP
0 -58 -58 0 0 58 58 0 3302 376 5 MP
DP
0 -58 -58 0 0 58 58 0 3508 376 5 MP
DP
0 -58 -58 0 0 58 58 0 3713 345 5 MP
DP
0 -58 -58 0 0 58 58 0 3919 285 5 MP
DP
0 -58 -58 0 0 58 58 0 4125 285 5 MP
DP
0 -58 -58 0 0 58 58 0 4331 285 5 MP
DP
0 -58 -58 0 0 58 58 0 4537 255 5 MP
DP
DD
gs 656 284 3911 3033 rc
SO
/c12 { 0.750000 0.000000 0.750000 sr} bdef
c12
206 -30 206 0 205 -60 206 -31 206 -60 206 -152 206 -243 205 -212 
206 -333 206 -425 206 -364 206 -424 205 -364 206 -243 206 -91 206 0 
205 0 656 3316 18 MP stroke
gr

c12
SO
 631 3291 mt  681 3341 L
 681 3291 mt  631 3341 L
 836 3291 mt  886 3341 L
 886 3291 mt  836 3341 L
1042 3291 mt 1092 3341 L
1092 3291 mt 1042 3341 L
1248 3200 mt 1298 3250 L
1298 3200 mt 1248 3250 L
1454 2957 mt 1504 3007 L
1504 2957 mt 1454 3007 L
1659 2593 mt 1709 2643 L
1709 2593 mt 1659 2643 L
1865 2169 mt 1915 2219 L
1915 2169 mt 1865 2219 L
2071 1805 mt 2121 1855 L
2121 1805 mt 2071 1855 L
2277 1380 mt 2327 1430 L
2327 1380 mt 2277 1430 L
2483 1047 mt 2533 1097 L
2533 1047 mt 2483 1097 L
2688  835 mt 2738  885 L
2738  835 mt 2688  885 L
2894  592 mt 2944  642 L
2944  592 mt 2894  642 L
3100  440 mt 3150  490 L
3150  440 mt 3100  490 L
3306  380 mt 3356  430 L
3356  380 mt 3306  430 L
3512  349 mt 3562  399 L
3562  349 mt 3512  399 L
3717  289 mt 3767  339 L
3767  289 mt 3717  339 L
3923  289 mt 3973  339 L
3973  289 mt 3923  339 L
4129  259 mt 4179  309 L
4179  259 mt 4129  309 L
gs 656 284 3911 3033 rc
gr

0 sg
%%IncludeResource: font Arial
/Arial /WindowsLatin1Encoding 240 FMSR

2043 3726 mt 
(Time Slots) s
 252 2595 mt  -90 rotate
(Percentage\(%\)) s
90 rotate
%%IncludeResource: font Arial
/Arial /WindowsLatin1Encoding 120 FMSR

 639 3359 mt 
( ) s
4550  326 mt 
( ) s
6 w
1 sg
0 1107 1314 0 0 -1107 3070 3130 4 MP
PP
-1314 0 0 1107 1314 0 0 -1107 3070 3130 5 MP stroke
4 w
DO
SO
6 w
0 sg
3070 2023 mt 4384 2023 L
3070 3130 mt 4384 3130 L
4384 3130 mt 4384 2023 L
3070 3130 mt 3070 2023 L
3070 3130 mt 4384 3130 L
3070 3130 mt 3070 2023 L
3070 2023 mt 4384 2023 L
3070 3130 mt 4384 3130 L
4384 3130 mt 4384 2023 L
3070 3130 mt 3070 2023 L
%%IncludeResource: font Arial
/Arial /WindowsLatin1Encoding 156 FMSR

3538 2206 mt 
(Ratio=0) s
gs 3070 2023 1315 1108 rc
24 w
c8
360 0 3142 2150 2 MP stroke
gs 3224 2052 197 197 rc
3286 2150 mt 3358 2150 L
3322 2114 mt 3322 2186 L
3297 2125 mt 3347 2175 L
3347 2125 mt 3297 2175 L
gr

gr

24 w
c8
0 sg
3538 2419 mt 
(Ratio=0.25) s
gs 3070 2023 1315 1108 rc
DA
c9
360 0 3142 2363 2 MP stroke
SO
gs 3224 2265 197 197 rc
-41 71 -41 -71 82 0 3281 2387 4 MP
DP
gr

gr

c9
0 sg
3538 2632 mt 
(Ratio=0.5) s
gs 3070 2023 1315 1108 rc
DO
c10
360 0 3142 2576 2 MP stroke
SO
gs 3224 2478 197 197 rc
  36   36 3322 2576 FO
gr

gr

c10
0 sg
3538 2845 mt 
(Ratio=0.75) s
gs 3070 2023 1315 1108 rc
DD
c11
360 0 3142 2789 2 MP stroke
SO
gs 3224 2691 197 197 rc
0 -58 -58 0 0 58 58 0 3293 2760 5 MP
DP
gr

gr

c11
0 sg
3538 3058 mt 
(Ratio=1) s
gs 3070 2023 1315 1108 rc
c12
360 0 3142 3002 2 MP stroke
gs 3224 2904 197 197 rc
3297 2977 mt 3347 3027 L
3347 2977 mt 3297 3027 L
gr

6 w
gr

6 w
c12

end %%Color Dict

eplot
%%EndObject

epage
end

showpage

%%Trailer
%%EOF
