%!PS-Adobe-3.0 EPSF-3.0
%%Creator: MATLAB, The Mathworks, Inc. Version 7.5.0.342 (R2007b). Operating System: Microsoft Windows Vista.
%%Title: I:\Interference Measurement\paper draft\modifying\figures\backup_alohaCDF\5.eps
%%CreationDate: 01/10/2013  02:00:04
%%DocumentNeededFonts: Arial
%%DocumentProcessColors: Cyan Magenta Yellow Black
%%LanguageLevel: 2
%%Pages: 1
%%BoundingBox:    96   238   515   553
%%EndComments

%%BeginProlog
% MathWorks dictionary
/MathWorks 160 dict begin
% definition operators
/bdef {bind def} bind def
/ldef {load def} bind def
/xdef {exch def} bdef
/xstore {exch store} bdef
% operator abbreviations
/c  /clip ldef
/cc /concat ldef
/cp /closepath ldef
/gr /grestore ldef
/gs /gsave ldef
/mt /moveto ldef
/np /newpath ldef
/cm /currentmatrix ldef
/sm /setmatrix ldef
/rm /rmoveto ldef
/rl /rlineto ldef
/s {show newpath} bdef
/sc {setcmykcolor} bdef
/sr /setrgbcolor ldef
/sg /setgray ldef
/w /setlinewidth ldef
/j /setlinejoin ldef
/cap /setlinecap ldef
/rc {rectclip} bdef
/rf {rectfill} bdef
% page state control
/pgsv () def
/bpage {/pgsv save def} bdef
/epage {pgsv restore} bdef
/bplot /gsave ldef
/eplot {stroke grestore} bdef
% orientation switch
/portraitMode 0 def /landscapeMode 1 def /rotateMode 2 def
% coordinate system mappings
/dpi2point 0 def
% font control
/FontSize 0 def
/FMS {/FontSize xstore findfont [FontSize 0 0 FontSize neg 0 0]
  makefont setfont} bdef
/ISOLatin1Encoding where {pop /WindowsLatin1Encoding 256 array bdef
ISOLatin1Encoding WindowsLatin1Encoding copy pop
/.notdef/.notdef/quotesinglbase/florin/quotedblbase/ellipsis/dagger
/daggerdbl/circumflex/perthousand/Scaron/guilsinglleft/OE/.notdef/.notdef
/.notdef/.notdef/quoteleft/quoteright/quotedblleft/quotedblright/bullet
/endash/emdash/tilde/trademark/scaron/guilsinglright/oe/.notdef/.notdef
/Ydieresis WindowsLatin1Encoding 128 32 getinterval astore pop}
{/WindowsLatin1Encoding StandardEncoding bdef} ifelse
/reencode {exch dup where {pop load} {pop StandardEncoding} ifelse
  exch dup 3 1 roll findfont dup length dict begin
  { 1 index /FID ne {def}{pop pop} ifelse } forall
  /Encoding exch def currentdict end definefont pop} bdef
/isroman {findfont /CharStrings get /Agrave known} bdef
/FMSR {3 1 roll 1 index dup isroman {reencode} {pop pop} ifelse
  exch FMS} bdef
/csm {1 dpi2point div -1 dpi2point div scale neg translate
 dup landscapeMode eq {pop -90 rotate}
  {rotateMode eq {90 rotate} if} ifelse} bdef
% line types: solid, dotted, dashed, dotdash
/SO { [] 0 setdash } bdef
/DO { [.5 dpi2point mul 4 dpi2point mul] 0 setdash } bdef
/DA { [6 dpi2point mul] 0 setdash } bdef
/DD { [.5 dpi2point mul 4 dpi2point mul 6 dpi2point mul 4
  dpi2point mul] 0 setdash } bdef
% macros for lines and objects
/L {lineto stroke} bdef
/MP {3 1 roll moveto 1 sub {rlineto} repeat} bdef
/AP {{rlineto} repeat} bdef
/PDlw -1 def
/W {/PDlw currentlinewidth def setlinewidth} def
/PP {closepath eofill} bdef
/DP {closepath stroke} bdef
/MR {4 -2 roll moveto dup  0 exch rlineto exch 0 rlineto
  neg 0 exch rlineto closepath} bdef
/FR {MR stroke} bdef
/PR {MR fill} bdef
/L1i {{currentfile picstr readhexstring pop} image} bdef
/tMatrix matrix def
/MakeOval {newpath tMatrix currentmatrix pop translate scale
0 0 1 0 360 arc tMatrix setmatrix} bdef
/FO {MakeOval stroke} bdef
/PO {MakeOval fill} bdef
/PD {currentlinewidth 2 div 0 360 arc fill
   PDlw -1 eq not {PDlw w /PDlw -1 def} if} def
/FA {newpath tMatrix currentmatrix pop translate scale
  0 0 1 5 -2 roll arc tMatrix setmatrix stroke} bdef
/PA {newpath tMatrix currentmatrix pop	translate 0 0 moveto scale
  0 0 1 5 -2 roll arc closepath tMatrix setmatrix fill} bdef
/FAn {newpath tMatrix currentmatrix pop translate scale
  0 0 1 5 -2 roll arcn tMatrix setmatrix stroke} bdef
/PAn {newpath tMatrix currentmatrix pop translate 0 0 moveto scale
  0 0 1 5 -2 roll arcn closepath tMatrix setmatrix fill} bdef
/vradius 0 def /hradius 0 def /lry 0 def
/lrx 0 def /uly 0 def /ulx 0 def /rad 0 def
/MRR {/vradius xdef /hradius xdef /lry xdef /lrx xdef /uly xdef
  /ulx xdef newpath tMatrix currentmatrix pop ulx hradius add uly
  vradius add translate hradius vradius scale 0 0 1 180 270 arc 
  tMatrix setmatrix lrx hradius sub uly vradius add translate
  hradius vradius scale 0 0 1 270 360 arc tMatrix setmatrix
  lrx hradius sub lry vradius sub translate hradius vradius scale
  0 0 1 0 90 arc tMatrix setmatrix ulx hradius add lry vradius sub
  translate hradius vradius scale 0 0 1 90 180 arc tMatrix setmatrix
  closepath} bdef
/FRR {MRR stroke } bdef
/PRR {MRR fill } bdef
/MlrRR {/lry xdef /lrx xdef /uly xdef /ulx xdef /rad lry uly sub 2 div def
  newpath tMatrix currentmatrix pop ulx rad add uly rad add translate
  rad rad scale 0 0 1 90 270 arc tMatrix setmatrix lrx rad sub lry rad
  sub translate rad rad scale 0 0 1 270 90 arc tMatrix setmatrix
  closepath} bdef
/FlrRR {MlrRR stroke } bdef
/PlrRR {MlrRR fill } bdef
/MtbRR {/lry xdef /lrx xdef /uly xdef /ulx xdef /rad lrx ulx sub 2 div def
  newpath tMatrix currentmatrix pop ulx rad add uly rad add translate
  rad rad scale 0 0 1 180 360 arc tMatrix setmatrix lrx rad sub lry rad
  sub translate rad rad scale 0 0 1 0 180 arc tMatrix setmatrix
  closepath} bdef
/FtbRR {MtbRR stroke } bdef
/PtbRR {MtbRR fill } bdef
/stri 6 array def /dtri 6 array def
/smat 6 array def /dmat 6 array def
/tmat1 6 array def /tmat2 6 array def /dif 3 array def
/asub {/ind2 exch def /ind1 exch def dup dup
  ind1 get exch ind2 get sub exch } bdef
/tri_to_matrix {
  2 0 asub 3 1 asub 4 0 asub 5 1 asub
  dup 0 get exch 1 get 7 -1 roll astore } bdef
/compute_transform {
  dmat dtri tri_to_matrix tmat1 invertmatrix 
  smat stri tri_to_matrix tmat2 concatmatrix } bdef
/ds {stri astore pop} bdef
/dt {dtri astore pop} bdef
/db {2 copy /cols xdef /rows xdef mul dup 3 mul string
  currentfile 
  3 index 0 eq {/ASCIIHexDecode filter}
  {/ASCII85Decode filter 3 index 2 eq {/RunLengthDecode filter} if }
  ifelse exch readstring pop
  dup 0 3 index getinterval /rbmap xdef
  dup 2 index dup getinterval /gbmap xdef
  1 index dup 2 mul exch getinterval /bbmap xdef pop pop}bdef
/it {gs np dtri aload pop moveto lineto lineto cp c
  cols rows 8 compute_transform 
  rbmap gbmap bbmap true 3 colorimage gr}bdef
/il {newpath moveto lineto stroke}bdef
currentdict end def
%%EndProlog

%%BeginSetup
MathWorks begin

0 cap

end
%%EndSetup

%%Page: 1 1
%%BeginPageSetup
%%PageBoundingBox:    96   238   515   553
MathWorks begin
bpage
%%EndPageSetup

%%BeginObject: obj1
bplot

/dpi2point 12 def
portraitMode 1152 6636 csm

    0     0  5039  3780 rc
85 dict begin %Colortable dictionary
/c0 { 0.000000 0.000000 0.000000 sr} bdef
/c1 { 1.000000 1.000000 1.000000 sr} bdef
/c2 { 0.900000 0.000000 0.000000 sr} bdef
/c3 { 0.000000 0.820000 0.000000 sr} bdef
/c4 { 0.000000 0.000000 0.800000 sr} bdef
/c5 { 0.910000 0.820000 0.320000 sr} bdef
/c6 { 1.000000 0.260000 0.820000 sr} bdef
/c7 { 0.000000 0.820000 0.820000 sr} bdef
c0
1 j
1 sg
   0    0 5040 3781 rf
6 w
0 3031 3905 0 0 -3031 655 3314 4 MP
PP
-3905 0 0 3031 3905 0 0 -3031 655 3314 5 MP stroke
4 w
DO
SO
6 w
0 sg
 655  283 mt 4560  283 L
 655 3314 mt 4560 3314 L
4560 3314 mt 4560  283 L
 655 3314 mt  655  283 L
 655 3314 mt 4560 3314 L
 655 3314 mt  655  283 L
 962 3314 mt  962 3274 L
 962  283 mt  962  322 L
%%IncludeResource: font Arial
/Arial /WindowsLatin1Encoding 156 FMSR

 832 3493 mt 
(150) s
1457 3314 mt 1457 3274 L
1457  283 mt 1457  322 L
1327 3493 mt 
(200) s
1953 3314 mt 1953 3274 L
1953  283 mt 1953  322 L
1823 3493 mt 
(250) s
2448 3314 mt 2448 3274 L
2448  283 mt 2448  322 L
2318 3493 mt 
(300) s
2944 3314 mt 2944 3274 L
2944  283 mt 2944  322 L
2814 3493 mt 
(350) s
3440 3314 mt 3440 3274 L
3440  283 mt 3440  322 L
3310 3493 mt 
(400) s
3935 3314 mt 3935 3274 L
3935  283 mt 3935  322 L
3805 3493 mt 
(450) s
4431 3314 mt 4431 3274 L
4431  283 mt 4431  322 L
4301 3493 mt 
(500) s
 655 3314 mt  694 3314 L
4560 3314 mt 4520 3314 L
 534 3372 mt 
(0) s
 655 3010 mt  694 3010 L
4560 3010 mt 4520 3010 L
 447 3068 mt 
(10) s
 655 2707 mt  694 2707 L
4560 2707 mt 4520 2707 L
 447 2765 mt 
(20) s
 655 2404 mt  694 2404 L
4560 2404 mt 4520 2404 L
 447 2462 mt 
(30) s
 655 2101 mt  694 2101 L
4560 2101 mt 4520 2101 L
 447 2159 mt 
(40) s
 655 1798 mt  694 1798 L
4560 1798 mt 4520 1798 L
 447 1856 mt 
(50) s
 655 1495 mt  694 1495 L
4560 1495 mt 4520 1495 L
 447 1553 mt 
(60) s
 655 1192 mt  694 1192 L
4560 1192 mt 4520 1192 L
 447 1250 mt 
(70) s
 655  889 mt  694  889 L
4560  889 mt 4520  889 L
 447  947 mt 
(80) s
 655  586 mt  694  586 L
4560  586 mt 4520  586 L
 447  644 mt 
(90) s
 655  283 mt  694  283 L
4560  283 mt 4520  283 L
 360  341 mt 
(100) s
 655  283 mt 4560  283 L
 655 3314 mt 4560 3314 L
4560 3314 mt 4560  283 L
 655 3314 mt  655  283 L
gs 655 283 3906 3032 rc
/c8 { 0.000000 0.000000 1.000000 sr} bdef
c8
206 -60 206 -31 205 -30 206 0 205 0 206 -91 205 -91 206 -61 
205 -90 206 -122 205 -212 206 -182 205 -182 206 -394 205 -545 206 -515 
205 -304 206 -60 205 -31 655 3314 20 MP stroke
gr

c8
 619 3314 mt  691 3314 L
 655 3278 mt  655 3350 L
 824 3283 mt  896 3283 L
 860 3247 mt  860 3319 L
1030 3223 mt 1102 3223 L
1066 3187 mt 1066 3259 L
1235 2919 mt 1307 2919 L
1271 2883 mt 1271 2955 L
1441 2404 mt 1513 2404 L
1477 2368 mt 1477 2440 L
1646 1859 mt 1718 1859 L
1682 1823 mt 1682 1895 L
1852 1465 mt 1924 1465 L
1888 1429 mt 1888 1501 L
2057 1283 mt 2129 1283 L
2093 1247 mt 2093 1319 L
2263 1101 mt 2335 1101 L
2299 1065 mt 2299 1137 L
2468  889 mt 2540  889 L
2504  853 mt 2504  925 L
2674  767 mt 2746  767 L
2710  731 mt 2710  803 L
2879  677 mt 2951  677 L
2915  641 mt 2915  713 L
3085  616 mt 3157  616 L
3121  580 mt 3121  652 L
3290  525 mt 3362  525 L
3326  489 mt 3326  561 L
3496  434 mt 3568  434 L
3532  398 mt 3532  470 L
3701  434 mt 3773  434 L
3737  398 mt 3737  470 L
3907  434 mt 3979  434 L
3943  398 mt 3943  470 L
4112  404 mt 4184  404 L
4148  368 mt 4148  440 L
4318  373 mt 4390  373 L
4354  337 mt 4354  409 L
4524  313 mt 4596  313 L
4560  277 mt 4560  349 L
 630 3289 mt  680 3339 L
 680 3289 mt  630 3339 L
 835 3258 mt  885 3308 L
 885 3258 mt  835 3308 L
1041 3198 mt 1091 3248 L
1091 3198 mt 1041 3248 L
1246 2894 mt 1296 2944 L
1296 2894 mt 1246 2944 L
1452 2379 mt 1502 2429 L
1502 2379 mt 1452 2429 L
1657 1834 mt 1707 1884 L
1707 1834 mt 1657 1884 L
1863 1440 mt 1913 1490 L
1913 1440 mt 1863 1490 L
2068 1258 mt 2118 1308 L
2118 1258 mt 2068 1308 L
2274 1076 mt 2324 1126 L
2324 1076 mt 2274 1126 L
2479  864 mt 2529  914 L
2529  864 mt 2479  914 L
2685  742 mt 2735  792 L
2735  742 mt 2685  792 L
2890  652 mt 2940  702 L
2940  652 mt 2890  702 L
3096  591 mt 3146  641 L
3146  591 mt 3096  641 L
3301  500 mt 3351  550 L
3351  500 mt 3301  550 L
3507  409 mt 3557  459 L
3557  409 mt 3507  459 L
3712  409 mt 3762  459 L
3762  409 mt 3712  459 L
3918  409 mt 3968  459 L
3968  409 mt 3918  459 L
4123  379 mt 4173  429 L
4173  379 mt 4123  429 L
4329  348 mt 4379  398 L
4379  348 mt 4329  398 L
4535  288 mt 4585  338 L
4585  288 mt 4535  338 L
gs 655 283 3906 3032 rc
/c9 { 0.000000 0.500000 0.000000 sr} bdef
c9
206 -121 205 -121 206 -121 205 -121 206 -273 205 -334 206 -363 205 -425 
206 -485 205 -454 206 -182 205 -31 655 3314 13 MP stroke
gr

c9
0 j
-41 71 -41 -71 82 0 614 3338 4 MP
DP
-41 71 -41 -71 82 0 819 3307 4 MP
DP
-41 71 -41 -71 82 0 1025 3125 4 MP
DP
-41 71 -41 -71 82 0 1230 2671 4 MP
DP
-41 71 -41 -71 82 0 1436 2186 4 MP
DP
-41 71 -41 -71 82 0 1641 1761 4 MP
DP
-41 71 -41 -71 82 0 1847 1398 4 MP
DP
-41 71 -41 -71 82 0 2052 1064 4 MP
DP
-41 71 -41 -71 82 0 2258 791 4 MP
DP
-41 71 -41 -71 82 0 2463 670 4 MP
DP
-41 71 -41 -71 82 0 2669 549 4 MP
DP
-41 71 -41 -71 82 0 2874 428 4 MP
DP
gs 655 283 3906 3032 rc
/c10 { 1.000000 0.000000 0.000000 sr} bdef
c10
206 -90 205 -31 206 -30 205 -182 206 -273 205 -363 206 -394 205 -425 
206 -515 205 -394 206 -243 205 -91 655 3314 13 MP stroke
gr

c10
  36   36  655 3314 FO
  36   36  860 3223 FO
  36   36 1066 2980 FO
  36   36 1271 2586 FO
  36   36 1477 2071 FO
  36   36 1682 1646 FO
  36   36 1888 1252 FO
  36   36 2093  889 FO
  36   36 2299  616 FO
  36   36 2504  434 FO
  36   36 2710  404 FO
  36   36 2915  373 FO
gs 655 283 3906 3032 rc
/c11 { 0.000000 0.750000 0.750000 sr} bdef
c11
206 -30 205 0 206 0 205 0 206 -60 205 -122 206 -151 205 -243 
206 -303 205 -303 206 -394 205 -485 206 -515 205 -303 206 -91 205 -31 
655 3314 17 MP stroke
gr

c11
0 -58 -58 0 0 58 58 0 626 3285 5 MP
DP
0 -58 -58 0 0 58 58 0 831 3254 5 MP
DP
0 -58 -58 0 0 58 58 0 1037 3163 5 MP
DP
0 -58 -58 0 0 58 58 0 1242 2860 5 MP
DP
0 -58 -58 0 0 58 58 0 1448 2345 5 MP
DP
0 -58 -58 0 0 58 58 0 1653 1860 5 MP
DP
0 -58 -58 0 0 58 58 0 1859 1466 5 MP
DP
0 -58 -58 0 0 58 58 0 2064 1163 5 MP
DP
0 -58 -58 0 0 58 58 0 2270 860 5 MP
DP
0 -58 -58 0 0 58 58 0 2475 617 5 MP
DP
0 -58 -58 0 0 58 58 0 2681 466 5 MP
DP
0 -58 -58 0 0 58 58 0 2886 344 5 MP
DP
0 -58 -58 0 0 58 58 0 3092 284 5 MP
DP
0 -58 -58 0 0 58 58 0 3297 284 5 MP
DP
0 -58 -58 0 0 58 58 0 3503 284 5 MP
DP
0 -58 -58 0 0 58 58 0 3708 284 5 MP
DP
gs 655 283 3906 3032 rc
/c12 { 0.750000 0.000000 0.750000 sr} bdef
c12
103 -30 205 -91 206 -60 205 -91 206 -61 205 -61 206 -121 205 -273 
206 -333 205 -485 206 -515 205 -273 206 -242 205 -213 206 -121 205 -61 
206 0 205 0 655 3314 19 MP stroke
gr

c12
 630 3289 mt  680 3339 L
 680 3289 mt  630 3339 L
 835 3289 mt  885 3339 L
 885 3289 mt  835 3339 L
1041 3289 mt 1091 3339 L
1091 3289 mt 1041 3339 L
1246 3228 mt 1296 3278 L
1296 3228 mt 1246 3278 L
1452 3107 mt 1502 3157 L
1502 3107 mt 1452 3157 L
1657 2894 mt 1707 2944 L
1707 2894 mt 1657 2944 L
1863 2652 mt 1913 2702 L
1913 2652 mt 1863 2702 L
2068 2379 mt 2118 2429 L
2118 2379 mt 2068 2429 L
2274 1864 mt 2324 1914 L
2324 1864 mt 2274 1914 L
2479 1379 mt 2529 1429 L
2529 1379 mt 2479 1429 L
2685 1046 mt 2735 1096 L
2735 1046 mt 2685 1096 L
2890  773 mt 2940  823 L
2940  773 mt 2890  823 L
3096  652 mt 3146  702 L
3146  652 mt 3096  702 L
3301  591 mt 3351  641 L
3351  591 mt 3301  641 L
3507  530 mt 3557  580 L
3557  530 mt 3507  580 L
3712  439 mt 3762  489 L
3762  439 mt 3712  489 L
3918  379 mt 3968  429 L
3968  379 mt 3918  429 L
4123  288 mt 4173  338 L
4173  288 mt 4123  338 L
gs 655 283 3906 3032 rc
gr

0 sg
%%IncludeResource: font Arial
/Arial /WindowsLatin1Encoding 240 FMSR

2039 3724 mt 
(Time Slots) s
 251 2593 mt  -90 rotate
(Percentage\(%\)) s
90 rotate
%%IncludeResource: font Arial
/Arial /WindowsLatin1Encoding 120 FMSR

 638 3357 mt 
( ) s
4544  325 mt 
( ) s
1 sg
0 1107 1314 0 0 -1107 3110 3138 4 MP
PP
-1314 0 0 1107 1314 0 0 -1107 3110 3138 5 MP stroke
4 w
DO
SO
6 w
0 sg
3110 2031 mt 4424 2031 L
3110 3138 mt 4424 3138 L
4424 3138 mt 4424 2031 L
3110 3138 mt 3110 2031 L
3110 3138 mt 4424 3138 L
3110 3138 mt 3110 2031 L
3110 2031 mt 4424 2031 L
3110 3138 mt 4424 3138 L
4424 3138 mt 4424 2031 L
3110 3138 mt 3110 2031 L
%%IncludeResource: font Arial
/Arial /WindowsLatin1Encoding 156 FMSR

3578 2214 mt 
(Ratio=0.1) s
gs 3110 2031 1315 1108 rc
c8
360 0 3182 2158 2 MP stroke
gr

c8
3326 2158 mt 3398 2158 L
3362 2122 mt 3362 2194 L
3337 2133 mt 3387 2183 L
3387 2133 mt 3337 2183 L
gs 3110 2031 1315 1108 rc
gr

0 sg
3578 2427 mt 
(Ratio=0.25) s
gs 3110 2031 1315 1108 rc
c9
360 0 3182 2371 2 MP stroke
gr

c9
-41 71 -41 -71 82 0 3321 2395 4 MP
DP
gs 3110 2031 1315 1108 rc
gr

0 sg
3578 2640 mt 
(Ratio=0.5) s
gs 3110 2031 1315 1108 rc
c10
360 0 3182 2584 2 MP stroke
gr

c10
  36   36 3362 2584 FO
gs 3110 2031 1315 1108 rc
gr

0 sg
3578 2853 mt 
(Ratio=0.75) s
gs 3110 2031 1315 1108 rc
c11
360 0 3182 2797 2 MP stroke
gr

c11
0 -58 -58 0 0 58 58 0 3333 2768 5 MP
DP
gs 3110 2031 1315 1108 rc
gr

0 sg
3578 3066 mt 
(Ratio=0.9) s
gs 3110 2031 1315 1108 rc
c12
360 0 3182 3010 2 MP stroke
gr

c12
3337 2985 mt 3387 3035 L
3387 2985 mt 3337 3035 L
gs 3110 2031 1315 1108 rc
gr


end %%Color Dict

eplot
%%EndObject

epage
end

showpage

%%Trailer
%%EOF
