%!PS-Adobe-3.0 EPSF-3.0
%%Creator: MATLAB, The Mathworks, Inc. Version 7.5.0.342 (R2007b). Operating System: Microsoft Windows Vista.
%%Title: C:\Research\Interference Measurement\paper draft\v0122\figures\multi_ratio3.eps
%%CreationDate: 01/22/2013  02:11:13
%%DocumentNeededFonts: Arial
%%DocumentProcessColors: Cyan Magenta Yellow Black
%%LanguageLevel: 2
%%Pages: 1
%%BoundingBox:    87   262   507   578
%%EndComments

%%BeginProlog
% MathWorks dictionary
/MathWorks 160 dict begin
% definition operators
/bdef {bind def} bind def
/ldef {load def} bind def
/xdef {exch def} bdef
/xstore {exch store} bdef
% operator abbreviations
/c  /clip ldef
/cc /concat ldef
/cp /closepath ldef
/gr /grestore ldef
/gs /gsave ldef
/mt /moveto ldef
/np /newpath ldef
/cm /currentmatrix ldef
/sm /setmatrix ldef
/rm /rmoveto ldef
/rl /rlineto ldef
/s {show newpath} bdef
/sc {setcmykcolor} bdef
/sr /setrgbcolor ldef
/sg /setgray ldef
/w /setlinewidth ldef
/j /setlinejoin ldef
/cap /setlinecap ldef
/rc {rectclip} bdef
/rf {rectfill} bdef
% page state control
/pgsv () def
/bpage {/pgsv save def} bdef
/epage {pgsv restore} bdef
/bplot /gsave ldef
/eplot {stroke grestore} bdef
% orientation switch
/portraitMode 0 def /landscapeMode 1 def /rotateMode 2 def
% coordinate system mappings
/dpi2point 0 def
% font control
/FontSize 0 def
/FMS {/FontSize xstore findfont [FontSize 0 0 FontSize neg 0 0]
  makefont setfont} bdef
/ISOLatin1Encoding where {pop /WindowsLatin1Encoding 256 array bdef
ISOLatin1Encoding WindowsLatin1Encoding copy pop
/.notdef/.notdef/quotesinglbase/florin/quotedblbase/ellipsis/dagger
/daggerdbl/circumflex/perthousand/Scaron/guilsinglleft/OE/.notdef/.notdef
/.notdef/.notdef/quoteleft/quoteright/quotedblleft/quotedblright/bullet
/endash/emdash/tilde/trademark/scaron/guilsinglright/oe/.notdef/.notdef
/Ydieresis WindowsLatin1Encoding 128 32 getinterval astore pop}
{/WindowsLatin1Encoding StandardEncoding bdef} ifelse
/reencode {exch dup where {pop load} {pop StandardEncoding} ifelse
  exch dup 3 1 roll findfont dup length dict begin
  { 1 index /FID ne {def}{pop pop} ifelse } forall
  /Encoding exch def currentdict end definefont pop} bdef
/isroman {findfont /CharStrings get /Agrave known} bdef
/FMSR {3 1 roll 1 index dup isroman {reencode} {pop pop} ifelse
  exch FMS} bdef
/csm {1 dpi2point div -1 dpi2point div scale neg translate
 dup landscapeMode eq {pop -90 rotate}
  {rotateMode eq {90 rotate} if} ifelse} bdef
% line types: solid, dotted, dashed, dotdash
/SO { [] 0 setdash } bdef
/DO { [.5 dpi2point mul 4 dpi2point mul] 0 setdash } bdef
/DA { [6 dpi2point mul] 0 setdash } bdef
/DD { [.5 dpi2point mul 4 dpi2point mul 6 dpi2point mul 4
  dpi2point mul] 0 setdash } bdef
% macros for lines and objects
/L {lineto stroke} bdef
/MP {3 1 roll moveto 1 sub {rlineto} repeat} bdef
/AP {{rlineto} repeat} bdef
/PDlw -1 def
/W {/PDlw currentlinewidth def setlinewidth} def
/PP {closepath eofill} bdef
/DP {closepath stroke} bdef
/MR {4 -2 roll moveto dup  0 exch rlineto exch 0 rlineto
  neg 0 exch rlineto closepath} bdef
/FR {MR stroke} bdef
/PR {MR fill} bdef
/L1i {{currentfile picstr readhexstring pop} image} bdef
/tMatrix matrix def
/MakeOval {newpath tMatrix currentmatrix pop translate scale
0 0 1 0 360 arc tMatrix setmatrix} bdef
/FO {MakeOval stroke} bdef
/PO {MakeOval fill} bdef
/PD {currentlinewidth 2 div 0 360 arc fill
   PDlw -1 eq not {PDlw w /PDlw -1 def} if} def
/FA {newpath tMatrix currentmatrix pop translate scale
  0 0 1 5 -2 roll arc tMatrix setmatrix stroke} bdef
/PA {newpath tMatrix currentmatrix pop	translate 0 0 moveto scale
  0 0 1 5 -2 roll arc closepath tMatrix setmatrix fill} bdef
/FAn {newpath tMatrix currentmatrix pop translate scale
  0 0 1 5 -2 roll arcn tMatrix setmatrix stroke} bdef
/PAn {newpath tMatrix currentmatrix pop translate 0 0 moveto scale
  0 0 1 5 -2 roll arcn closepath tMatrix setmatrix fill} bdef
/vradius 0 def /hradius 0 def /lry 0 def
/lrx 0 def /uly 0 def /ulx 0 def /rad 0 def
/MRR {/vradius xdef /hradius xdef /lry xdef /lrx xdef /uly xdef
  /ulx xdef newpath tMatrix currentmatrix pop ulx hradius add uly
  vradius add translate hradius vradius scale 0 0 1 180 270 arc 
  tMatrix setmatrix lrx hradius sub uly vradius add translate
  hradius vradius scale 0 0 1 270 360 arc tMatrix setmatrix
  lrx hradius sub lry vradius sub translate hradius vradius scale
  0 0 1 0 90 arc tMatrix setmatrix ulx hradius add lry vradius sub
  translate hradius vradius scale 0 0 1 90 180 arc tMatrix setmatrix
  closepath} bdef
/FRR {MRR stroke } bdef
/PRR {MRR fill } bdef
/MlrRR {/lry xdef /lrx xdef /uly xdef /ulx xdef /rad lry uly sub 2 div def
  newpath tMatrix currentmatrix pop ulx rad add uly rad add translate
  rad rad scale 0 0 1 90 270 arc tMatrix setmatrix lrx rad sub lry rad
  sub translate rad rad scale 0 0 1 270 90 arc tMatrix setmatrix
  closepath} bdef
/FlrRR {MlrRR stroke } bdef
/PlrRR {MlrRR fill } bdef
/MtbRR {/lry xdef /lrx xdef /uly xdef /ulx xdef /rad lrx ulx sub 2 div def
  newpath tMatrix currentmatrix pop ulx rad add uly rad add translate
  rad rad scale 0 0 1 180 360 arc tMatrix setmatrix lrx rad sub lry rad
  sub translate rad rad scale 0 0 1 0 180 arc tMatrix setmatrix
  closepath} bdef
/FtbRR {MtbRR stroke } bdef
/PtbRR {MtbRR fill } bdef
/stri 6 array def /dtri 6 array def
/smat 6 array def /dmat 6 array def
/tmat1 6 array def /tmat2 6 array def /dif 3 array def
/asub {/ind2 exch def /ind1 exch def dup dup
  ind1 get exch ind2 get sub exch } bdef
/tri_to_matrix {
  2 0 asub 3 1 asub 4 0 asub 5 1 asub
  dup 0 get exch 1 get 7 -1 roll astore } bdef
/compute_transform {
  dmat dtri tri_to_matrix tmat1 invertmatrix 
  smat stri tri_to_matrix tmat2 concatmatrix } bdef
/ds {stri astore pop} bdef
/dt {dtri astore pop} bdef
/db {2 copy /cols xdef /rows xdef mul dup 3 mul string
  currentfile 
  3 index 0 eq {/ASCIIHexDecode filter}
  {/ASCII85Decode filter 3 index 2 eq {/RunLengthDecode filter} if }
  ifelse exch readstring pop
  dup 0 3 index getinterval /rbmap xdef
  dup 2 index dup getinterval /gbmap xdef
  1 index dup 2 mul exch getinterval /bbmap xdef pop pop}bdef
/it {gs np dtri aload pop moveto lineto lineto cp c
  cols rows 8 compute_transform 
  rbmap gbmap bbmap true 3 colorimage gr}bdef
/il {newpath moveto lineto stroke}bdef
currentdict end def
%%EndProlog

%%BeginSetup
MathWorks begin

0 cap

end
%%EndSetup

%%Page: 1 1
%%BeginPageSetup
%%PageBoundingBox:    87   262   507   578
MathWorks begin
bpage
%%EndPageSetup

%%BeginObject: obj1
bplot

/dpi2point 12 def
portraitMode 1044 6936 csm

    0     0  5045  3782 rc
85 dict begin %Colortable dictionary
/c0 { 0.000000 0.000000 0.000000 sr} bdef
/c1 { 1.000000 1.000000 1.000000 sr} bdef
/c2 { 0.900000 0.000000 0.000000 sr} bdef
/c3 { 0.000000 0.820000 0.000000 sr} bdef
/c4 { 0.000000 0.000000 0.800000 sr} bdef
/c5 { 0.910000 0.820000 0.320000 sr} bdef
/c6 { 1.000000 0.260000 0.820000 sr} bdef
/c7 { 0.000000 0.820000 0.820000 sr} bdef
c0
1 j
1 sg
   0    0 5046 3783 rf
6 w
0 3032 3910 0 0 -3032 656 3316 4 MP
PP
-3910 0 0 3032 3910 0 0 -3032 656 3316 5 MP stroke
4 w
DO
SO
6 w
0 sg
 656  284 mt 4566  284 L
 656 3316 mt 4566 3316 L
4566 3316 mt 4566  284 L
 656 3316 mt  656  284 L
 656 3316 mt 4566 3316 L
 656 3316 mt  656  284 L
 966 3316 mt  966 3276 L
 966  284 mt  966  323 L
%%IncludeResource: font Arial
/Arial /WindowsLatin1Encoding 156 FMSR

 836 3495 mt 
(150) s
1466 3316 mt 1466 3276 L
1466  284 mt 1466  323 L
1336 3495 mt 
(200) s
1966 3316 mt 1966 3276 L
1966  284 mt 1966  323 L
1836 3495 mt 
(250) s
2466 3316 mt 2466 3276 L
2466  284 mt 2466  323 L
2336 3495 mt 
(300) s
2966 3316 mt 2966 3276 L
2966  284 mt 2966  323 L
2836 3495 mt 
(350) s
3466 3316 mt 3466 3276 L
3466  284 mt 3466  323 L
3336 3495 mt 
(400) s
3966 3316 mt 3966 3276 L
3966  284 mt 3966  323 L
3836 3495 mt 
(450) s
4466 3316 mt 4466 3276 L
4466  284 mt 4466  323 L
4336 3495 mt 
(500) s
 656 3316 mt  695 3316 L
4566 3316 mt 4526 3316 L
 535 3374 mt 
(0) s
 656 3012 mt  695 3012 L
4566 3012 mt 4526 3012 L
 448 3070 mt 
(10) s
 656 2709 mt  695 2709 L
4566 2709 mt 4526 2709 L
 448 2767 mt 
(20) s
 656 2406 mt  695 2406 L
4566 2406 mt 4526 2406 L
 448 2464 mt 
(30) s
 656 2103 mt  695 2103 L
4566 2103 mt 4526 2103 L
 448 2161 mt 
(40) s
 656 1800 mt  695 1800 L
4566 1800 mt 4526 1800 L
 448 1858 mt 
(50) s
 656 1496 mt  695 1496 L
4566 1496 mt 4526 1496 L
 448 1554 mt 
(60) s
 656 1193 mt  695 1193 L
4566 1193 mt 4526 1193 L
 448 1251 mt 
(70) s
 656  890 mt  695  890 L
4566  890 mt 4526  890 L
 448  948 mt 
(80) s
 656  587 mt  695  587 L
4566  587 mt 4526  587 L
 448  645 mt 
(90) s
 656  284 mt  695  284 L
4566  284 mt 4526  284 L
 361  342 mt 
(100) s
 656  284 mt 4566  284 L
 656 3316 mt 4566 3316 L
4566 3316 mt 4566  284 L
 656 3316 mt  656  284 L
gs 656 284 3911 3033 rc
24 w
/c8 { 0.000000 0.000000 1.000000 sr} bdef
c8
205 -30 206 0 206 0 206 0 205 -60 206 -31 206 0 206 0 
206 -60 205 -122 206 -182 206 -303 206 -273 206 -364 205 -394 206 -303 
206 -515 206 -364 205 -31 656 3316 20 MP stroke
gr

24 w
c8
 620 3316 mt  692 3316 L
 656 3280 mt  656 3352 L
 825 3285 mt  897 3285 L
 861 3249 mt  861 3321 L
1031 2921 mt 1103 2921 L
1067 2885 mt 1067 2957 L
1237 2406 mt 1309 2406 L
1273 2370 mt 1273 2442 L
1443 2103 mt 1515 2103 L
1479 2067 mt 1479 2139 L
1648 1709 mt 1720 1709 L
1684 1673 mt 1684 1745 L
1854 1345 mt 1926 1345 L
1890 1309 mt 1890 1381 L
2060 1072 mt 2132 1072 L
2096 1036 mt 2096 1108 L
2266  769 mt 2338  769 L
2302  733 mt 2302  805 L
2472  587 mt 2544  587 L
2508  551 mt 2508  623 L
2677  465 mt 2749  465 L
2713  429 mt 2713  501 L
2883  405 mt 2955  405 L
2919  369 mt 2919  441 L
3089  405 mt 3161  405 L
3125  369 mt 3125  441 L
3295  405 mt 3367  405 L
3331  369 mt 3331  441 L
3501  374 mt 3573  374 L
3537  338 mt 3537  410 L
3706  314 mt 3778  314 L
3742  278 mt 3742  350 L
3912  314 mt 3984  314 L
3948  278 mt 3948  350 L
4118  314 mt 4190  314 L
4154  278 mt 4154  350 L
4324  314 mt 4396  314 L
4360  278 mt 4360  350 L
 631 3291 mt  681 3341 L
 681 3291 mt  631 3341 L
 836 3260 mt  886 3310 L
 886 3260 mt  836 3310 L
1042 2896 mt 1092 2946 L
1092 2896 mt 1042 2946 L
1248 2381 mt 1298 2431 L
1298 2381 mt 1248 2431 L
1454 2078 mt 1504 2128 L
1504 2078 mt 1454 2128 L
1659 1684 mt 1709 1734 L
1709 1684 mt 1659 1734 L
1865 1320 mt 1915 1370 L
1915 1320 mt 1865 1370 L
2071 1047 mt 2121 1097 L
2121 1047 mt 2071 1097 L
2277  744 mt 2327  794 L
2327  744 mt 2277  794 L
2483  562 mt 2533  612 L
2533  562 mt 2483  612 L
2688  440 mt 2738  490 L
2738  440 mt 2688  490 L
2894  380 mt 2944  430 L
2944  380 mt 2894  430 L
3100  380 mt 3150  430 L
3150  380 mt 3100  430 L
3306  380 mt 3356  430 L
3356  380 mt 3306  430 L
3512  349 mt 3562  399 L
3562  349 mt 3512  399 L
3717  289 mt 3767  339 L
3767  289 mt 3717  339 L
3923  289 mt 3973  339 L
3973  289 mt 3923  339 L
4129  289 mt 4179  339 L
4179  289 mt 4129  339 L
4335  289 mt 4385  339 L
4385  289 mt 4335  339 L
gs 656 284 3911 3033 rc
DA
/c9 { 0.000000 0.500000 0.000000 sr} bdef
c9
206 -30 206 0 206 0 206 -151 205 -243 206 -121 206 -122 206 -242 
206 -334 205 -424 206 -394 206 -455 206 -394 205 -122 656 3316 15 MP stroke
gr

c9
DA
SO
0 j
-41 71 -41 -71 82 0 615 3340 4 MP
DP
-41 71 -41 -71 82 0 820 3218 4 MP
DP
-41 71 -41 -71 82 0 1026 2824 4 MP
DP
-41 71 -41 -71 82 0 1232 2369 4 MP
DP
-41 71 -41 -71 82 0 1438 1975 4 MP
DP
-41 71 -41 -71 82 0 1643 1551 4 MP
DP
-41 71 -41 -71 82 0 1849 1217 4 MP
DP
-41 71 -41 -71 82 0 2055 975 4 MP
DP
-41 71 -41 -71 82 0 2261 853 4 MP
DP
-41 71 -41 -71 82 0 2467 732 4 MP
DP
-41 71 -41 -71 82 0 2672 489 4 MP
DP
-41 71 -41 -71 82 0 2878 338 4 MP
DP
-41 71 -41 -71 82 0 3084 338 4 MP
DP
-41 71 -41 -71 82 0 3290 338 4 MP
DP
DA
gs 656 284 3911 3033 rc
DO
/c10 { 1.000000 0.000000 0.000000 sr} bdef
c10
206 -30 206 -91 206 -30 206 -30 205 -61 206 -182 206 -273 206 -364 
206 -454 205 -486 206 -394 206 -303 206 -243 205 -91 656 3316 15 MP stroke
gr

c10
DO
SO
  36   36  656 3316 FO
  36   36  861 3225 FO
  36   36 1067 2982 FO
  36   36 1273 2679 FO
  36   36 1479 2285 FO
  36   36 1684 1799 FO
  36   36 1890 1345 FO
  36   36 2096  981 FO
  36   36 2302  708 FO
  36   36 2508  526 FO
  36   36 2713  465 FO
  36   36 2919  435 FO
  36   36 3125  405 FO
  36   36 3331  314 FO
DO
gs 656 284 3911 3033 rc
DD
/c11 { 0.000000 0.750000 0.750000 sr} bdef
c11
206 -30 206 0 206 0 205 0 206 0 206 0 206 0 206 -121 
205 -212 206 -182 206 -243 206 -515 206 -516 205 -454 206 -395 206 -242 
206 -122 205 0 656 3316 19 MP stroke
gr

c11
DD
SO
0 -58 -58 0 0 58 58 0 627 3287 5 MP
DP
0 -58 -58 0 0 58 58 0 832 3287 5 MP
DP
0 -58 -58 0 0 58 58 0 1038 3165 5 MP
DP
0 -58 -58 0 0 58 58 0 1244 2923 5 MP
DP
0 -58 -58 0 0 58 58 0 1450 2528 5 MP
DP
0 -58 -58 0 0 58 58 0 1655 2074 5 MP
DP
0 -58 -58 0 0 58 58 0 1861 1558 5 MP
DP
0 -58 -58 0 0 58 58 0 2067 1043 5 MP
DP
0 -58 -58 0 0 58 58 0 2273 800 5 MP
DP
0 -58 -58 0 0 58 58 0 2479 618 5 MP
DP
0 -58 -58 0 0 58 58 0 2684 406 5 MP
DP
0 -58 -58 0 0 58 58 0 2890 285 5 MP
DP
0 -58 -58 0 0 58 58 0 3096 285 5 MP
DP
0 -58 -58 0 0 58 58 0 3302 285 5 MP
DP
0 -58 -58 0 0 58 58 0 3508 285 5 MP
DP
0 -58 -58 0 0 58 58 0 3713 285 5 MP
DP
0 -58 -58 0 0 58 58 0 3919 285 5 MP
DP
0 -58 -58 0 0 58 58 0 4125 285 5 MP
DP
DD
gs 656 284 3911 3033 rc
SO
/c12 { 0.750000 0.000000 0.750000 sr} bdef
c12
205 -30 206 -60 206 -31 206 0 205 -60 206 -122 206 -151 206 -152 
206 -121 205 -243 206 -273 206 -394 206 -485 206 -364 205 -303 206 -182 
206 -61 206 0 205 0 656 3316 20 MP stroke
gr

c12
SO
 631 3291 mt  681 3341 L
 681 3291 mt  631 3341 L
 836 3291 mt  886 3341 L
 886 3291 mt  836 3341 L
1042 3291 mt 1092 3341 L
1092 3291 mt 1042 3341 L
1248 3230 mt 1298 3280 L
1298 3230 mt 1248 3280 L
1454 3048 mt 1504 3098 L
1504 3048 mt 1454 3098 L
1659 2745 mt 1709 2795 L
1709 2745 mt 1659 2795 L
1865 2381 mt 1915 2431 L
1915 2381 mt 1865 2431 L
2071 1896 mt 2121 1946 L
2121 1896 mt 2071 1946 L
2277 1502 mt 2327 1552 L
2327 1502 mt 2277 1552 L
2483 1229 mt 2533 1279 L
2533 1229 mt 2483 1279 L
2688  986 mt 2738 1036 L
2738  986 mt 2688 1036 L
2894  865 mt 2944  915 L
2944  865 mt 2894  915 L
3100  713 mt 3150  763 L
3150  713 mt 3100  763 L
3306  562 mt 3356  612 L
3356  562 mt 3306  612 L
3512  440 mt 3562  490 L
3562  440 mt 3512  490 L
3717  380 mt 3767  430 L
3767  380 mt 3717  430 L
3923  380 mt 3973  430 L
3973  380 mt 3923  430 L
4129  349 mt 4179  399 L
4179  349 mt 4129  399 L
4335  289 mt 4385  339 L
4385  289 mt 4335  339 L
gs 656 284 3911 3033 rc
gr

0 sg
%%IncludeResource: font Arial
/Arial /WindowsLatin1Encoding 240 FMSR

2043 3726 mt 
(Time Slots) s
 252 2595 mt  -90 rotate
(Percentage\(%\)) s
90 rotate
%%IncludeResource: font Arial
/Arial /WindowsLatin1Encoding 120 FMSR

 639 3359 mt 
( ) s
4550  326 mt 
( ) s
6 w
1 sg
0 1107 1314 0 0 -1107 3124 3076 4 MP
PP
-1314 0 0 1107 1314 0 0 -1107 3124 3076 5 MP stroke
4 w
DO
SO
6 w
0 sg
3124 1969 mt 4438 1969 L
3124 3076 mt 4438 3076 L
4438 3076 mt 4438 1969 L
3124 3076 mt 3124 1969 L
3124 3076 mt 4438 3076 L
3124 3076 mt 3124 1969 L
3124 1969 mt 4438 1969 L
3124 3076 mt 4438 3076 L
4438 3076 mt 4438 1969 L
3124 3076 mt 3124 1969 L
%%IncludeResource: font Arial
/Arial /WindowsLatin1Encoding 156 FMSR

3592 2152 mt 
(Ratio=0) s
gs 3124 1969 1315 1108 rc
24 w
c8
360 0 3196 2096 2 MP stroke
gs 3278 1998 197 197 rc
3340 2096 mt 3412 2096 L
3376 2060 mt 3376 2132 L
3351 2071 mt 3401 2121 L
3401 2071 mt 3351 2121 L
gr

gr

24 w
c8
0 sg
3592 2365 mt 
(Ratio=0.25) s
gs 3124 1969 1315 1108 rc
DA
c9
360 0 3196 2309 2 MP stroke
SO
gs 3278 2211 197 197 rc
-41 71 -41 -71 82 0 3335 2333 4 MP
DP
gr

gr

c9
0 sg
3592 2578 mt 
(Ratio=0.5) s
gs 3124 1969 1315 1108 rc
DO
c10
360 0 3196 2522 2 MP stroke
SO
gs 3278 2424 197 197 rc
  36   36 3376 2522 FO
gr

gr

c10
0 sg
3592 2791 mt 
(Ratio=0.75) s
gs 3124 1969 1315 1108 rc
DD
c11
360 0 3196 2735 2 MP stroke
SO
gs 3278 2637 197 197 rc
0 -58 -58 0 0 58 58 0 3347 2706 5 MP
DP
gr

gr

c11
0 sg
3592 3004 mt 
(Ratio=1) s
gs 3124 1969 1315 1108 rc
c12
360 0 3196 2948 2 MP stroke
gs 3278 2850 197 197 rc
3351 2923 mt 3401 2973 L
3401 2923 mt 3351 2973 L
gr

6 w
gr

6 w
c12

end %%Color Dict

eplot
%%EndObject

epage
end

showpage

%%Trailer
%%EOF
