%!PS-Adobe-3.0 EPSF-3.0
%%Creator: MATLAB, The Mathworks, Inc. Version 7.5.0.342 (R2007b). Operating System: Microsoft Windows Vista.
%%Title: C:\Research\Interference Measurement\paper draft\v0122\figures\multi_ratio2.eps
%%CreationDate: 01/22/2013  00:13:51
%%DocumentNeededFonts: Arial
%%DocumentProcessColors: Cyan Magenta Yellow Black
%%LanguageLevel: 2
%%Pages: 1
%%BoundingBox:    87   262   507   578
%%EndComments

%%BeginProlog
% MathWorks dictionary
/MathWorks 160 dict begin
% definition operators
/bdef {bind def} bind def
/ldef {load def} bind def
/xdef {exch def} bdef
/xstore {exch store} bdef
% operator abbreviations
/c  /clip ldef
/cc /concat ldef
/cp /closepath ldef
/gr /grestore ldef
/gs /gsave ldef
/mt /moveto ldef
/np /newpath ldef
/cm /currentmatrix ldef
/sm /setmatrix ldef
/rm /rmoveto ldef
/rl /rlineto ldef
/s {show newpath} bdef
/sc {setcmykcolor} bdef
/sr /setrgbcolor ldef
/sg /setgray ldef
/w /setlinewidth ldef
/j /setlinejoin ldef
/cap /setlinecap ldef
/rc {rectclip} bdef
/rf {rectfill} bdef
% page state control
/pgsv () def
/bpage {/pgsv save def} bdef
/epage {pgsv restore} bdef
/bplot /gsave ldef
/eplot {stroke grestore} bdef
% orientation switch
/portraitMode 0 def /landscapeMode 1 def /rotateMode 2 def
% coordinate system mappings
/dpi2point 0 def
% font control
/FontSize 0 def
/FMS {/FontSize xstore findfont [FontSize 0 0 FontSize neg 0 0]
  makefont setfont} bdef
/ISOLatin1Encoding where {pop /WindowsLatin1Encoding 256 array bdef
ISOLatin1Encoding WindowsLatin1Encoding copy pop
/.notdef/.notdef/quotesinglbase/florin/quotedblbase/ellipsis/dagger
/daggerdbl/circumflex/perthousand/Scaron/guilsinglleft/OE/.notdef/.notdef
/.notdef/.notdef/quoteleft/quoteright/quotedblleft/quotedblright/bullet
/endash/emdash/tilde/trademark/scaron/guilsinglright/oe/.notdef/.notdef
/Ydieresis WindowsLatin1Encoding 128 32 getinterval astore pop}
{/WindowsLatin1Encoding StandardEncoding bdef} ifelse
/reencode {exch dup where {pop load} {pop StandardEncoding} ifelse
  exch dup 3 1 roll findfont dup length dict begin
  { 1 index /FID ne {def}{pop pop} ifelse } forall
  /Encoding exch def currentdict end definefont pop} bdef
/isroman {findfont /CharStrings get /Agrave known} bdef
/FMSR {3 1 roll 1 index dup isroman {reencode} {pop pop} ifelse
  exch FMS} bdef
/csm {1 dpi2point div -1 dpi2point div scale neg translate
 dup landscapeMode eq {pop -90 rotate}
  {rotateMode eq {90 rotate} if} ifelse} bdef
% line types: solid, dotted, dashed, dotdash
/SO { [] 0 setdash } bdef
/DO { [.5 dpi2point mul 4 dpi2point mul] 0 setdash } bdef
/DA { [6 dpi2point mul] 0 setdash } bdef
/DD { [.5 dpi2point mul 4 dpi2point mul 6 dpi2point mul 4
  dpi2point mul] 0 setdash } bdef
% macros for lines and objects
/L {lineto stroke} bdef
/MP {3 1 roll moveto 1 sub {rlineto} repeat} bdef
/AP {{rlineto} repeat} bdef
/PDlw -1 def
/W {/PDlw currentlinewidth def setlinewidth} def
/PP {closepath eofill} bdef
/DP {closepath stroke} bdef
/MR {4 -2 roll moveto dup  0 exch rlineto exch 0 rlineto
  neg 0 exch rlineto closepath} bdef
/FR {MR stroke} bdef
/PR {MR fill} bdef
/L1i {{currentfile picstr readhexstring pop} image} bdef
/tMatrix matrix def
/MakeOval {newpath tMatrix currentmatrix pop translate scale
0 0 1 0 360 arc tMatrix setmatrix} bdef
/FO {MakeOval stroke} bdef
/PO {MakeOval fill} bdef
/PD {currentlinewidth 2 div 0 360 arc fill
   PDlw -1 eq not {PDlw w /PDlw -1 def} if} def
/FA {newpath tMatrix currentmatrix pop translate scale
  0 0 1 5 -2 roll arc tMatrix setmatrix stroke} bdef
/PA {newpath tMatrix currentmatrix pop	translate 0 0 moveto scale
  0 0 1 5 -2 roll arc closepath tMatrix setmatrix fill} bdef
/FAn {newpath tMatrix currentmatrix pop translate scale
  0 0 1 5 -2 roll arcn tMatrix setmatrix stroke} bdef
/PAn {newpath tMatrix currentmatrix pop translate 0 0 moveto scale
  0 0 1 5 -2 roll arcn closepath tMatrix setmatrix fill} bdef
/vradius 0 def /hradius 0 def /lry 0 def
/lrx 0 def /uly 0 def /ulx 0 def /rad 0 def
/MRR {/vradius xdef /hradius xdef /lry xdef /lrx xdef /uly xdef
  /ulx xdef newpath tMatrix currentmatrix pop ulx hradius add uly
  vradius add translate hradius vradius scale 0 0 1 180 270 arc 
  tMatrix setmatrix lrx hradius sub uly vradius add translate
  hradius vradius scale 0 0 1 270 360 arc tMatrix setmatrix
  lrx hradius sub lry vradius sub translate hradius vradius scale
  0 0 1 0 90 arc tMatrix setmatrix ulx hradius add lry vradius sub
  translate hradius vradius scale 0 0 1 90 180 arc tMatrix setmatrix
  closepath} bdef
/FRR {MRR stroke } bdef
/PRR {MRR fill } bdef
/MlrRR {/lry xdef /lrx xdef /uly xdef /ulx xdef /rad lry uly sub 2 div def
  newpath tMatrix currentmatrix pop ulx rad add uly rad add translate
  rad rad scale 0 0 1 90 270 arc tMatrix setmatrix lrx rad sub lry rad
  sub translate rad rad scale 0 0 1 270 90 arc tMatrix setmatrix
  closepath} bdef
/FlrRR {MlrRR stroke } bdef
/PlrRR {MlrRR fill } bdef
/MtbRR {/lry xdef /lrx xdef /uly xdef /ulx xdef /rad lrx ulx sub 2 div def
  newpath tMatrix currentmatrix pop ulx rad add uly rad add translate
  rad rad scale 0 0 1 180 360 arc tMatrix setmatrix lrx rad sub lry rad
  sub translate rad rad scale 0 0 1 0 180 arc tMatrix setmatrix
  closepath} bdef
/FtbRR {MtbRR stroke } bdef
/PtbRR {MtbRR fill } bdef
/stri 6 array def /dtri 6 array def
/smat 6 array def /dmat 6 array def
/tmat1 6 array def /tmat2 6 array def /dif 3 array def
/asub {/ind2 exch def /ind1 exch def dup dup
  ind1 get exch ind2 get sub exch } bdef
/tri_to_matrix {
  2 0 asub 3 1 asub 4 0 asub 5 1 asub
  dup 0 get exch 1 get 7 -1 roll astore } bdef
/compute_transform {
  dmat dtri tri_to_matrix tmat1 invertmatrix 
  smat stri tri_to_matrix tmat2 concatmatrix } bdef
/ds {stri astore pop} bdef
/dt {dtri astore pop} bdef
/db {2 copy /cols xdef /rows xdef mul dup 3 mul string
  currentfile 
  3 index 0 eq {/ASCIIHexDecode filter}
  {/ASCII85Decode filter 3 index 2 eq {/RunLengthDecode filter} if }
  ifelse exch readstring pop
  dup 0 3 index getinterval /rbmap xdef
  dup 2 index dup getinterval /gbmap xdef
  1 index dup 2 mul exch getinterval /bbmap xdef pop pop}bdef
/it {gs np dtri aload pop moveto lineto lineto cp c
  cols rows 8 compute_transform 
  rbmap gbmap bbmap true 3 colorimage gr}bdef
/il {newpath moveto lineto stroke}bdef
currentdict end def
%%EndProlog

%%BeginSetup
MathWorks begin

0 cap

end
%%EndSetup

%%Page: 1 1
%%BeginPageSetup
%%PageBoundingBox:    87   262   507   578
MathWorks begin
bpage
%%EndPageSetup

%%BeginObject: obj1
bplot

/dpi2point 12 def
portraitMode 1044 6936 csm

    0     0  5045  3782 rc
85 dict begin %Colortable dictionary
/c0 { 0.000000 0.000000 0.000000 sr} bdef
/c1 { 1.000000 1.000000 1.000000 sr} bdef
/c2 { 0.900000 0.000000 0.000000 sr} bdef
/c3 { 0.000000 0.820000 0.000000 sr} bdef
/c4 { 0.000000 0.000000 0.800000 sr} bdef
/c5 { 0.910000 0.820000 0.320000 sr} bdef
/c6 { 1.000000 0.260000 0.820000 sr} bdef
/c7 { 0.000000 0.820000 0.820000 sr} bdef
c0
1 j
1 sg
   0    0 5046 3783 rf
6 w
0 3032 3910 0 0 -3032 656 3316 4 MP
PP
-3910 0 0 3032 3910 0 0 -3032 656 3316 5 MP stroke
4 w
DO
SO
6 w
0 sg
 656  284 mt 4566  284 L
 656 3316 mt 4566 3316 L
4566 3316 mt 4566  284 L
 656 3316 mt  656  284 L
 656 3316 mt 4566 3316 L
 656 3316 mt  656  284 L
 847 3316 mt  847 3276 L
 847  284 mt  847  323 L
%%IncludeResource: font Arial
/Arial /WindowsLatin1Encoding 156 FMSR

 717 3495 mt 
(150) s
1447 3316 mt 1447 3276 L
1447  284 mt 1447  323 L
1317 3495 mt 
(200) s
2047 3316 mt 2047 3276 L
2047  284 mt 2047  323 L
1917 3495 mt 
(250) s
2646 3316 mt 2646 3276 L
2646  284 mt 2646  323 L
2516 3495 mt 
(300) s
3246 3316 mt 3246 3276 L
3246  284 mt 3246  323 L
3116 3495 mt 
(350) s
3846 3316 mt 3846 3276 L
3846  284 mt 3846  323 L
3716 3495 mt 
(400) s
4446 3316 mt 4446 3276 L
4446  284 mt 4446  323 L
4316 3495 mt 
(450) s
 656 3316 mt  695 3316 L
4566 3316 mt 4526 3316 L
 535 3374 mt 
(0) s
 656 3012 mt  695 3012 L
4566 3012 mt 4526 3012 L
 448 3070 mt 
(10) s
 656 2709 mt  695 2709 L
4566 2709 mt 4526 2709 L
 448 2767 mt 
(20) s
 656 2406 mt  695 2406 L
4566 2406 mt 4526 2406 L
 448 2464 mt 
(30) s
 656 2103 mt  695 2103 L
4566 2103 mt 4526 2103 L
 448 2161 mt 
(40) s
 656 1800 mt  695 1800 L
4566 1800 mt 4526 1800 L
 448 1858 mt 
(50) s
 656 1496 mt  695 1496 L
4566 1496 mt 4526 1496 L
 448 1554 mt 
(60) s
 656 1193 mt  695 1193 L
4566 1193 mt 4526 1193 L
 448 1251 mt 
(70) s
 656  890 mt  695  890 L
4566  890 mt 4526  890 L
 448  948 mt 
(80) s
 656  587 mt  695  587 L
4566  587 mt 4526  587 L
 448  645 mt 
(90) s
 656  284 mt  695  284 L
4566  284 mt 4526  284 L
 361  342 mt 
(100) s
 656  284 mt 4566  284 L
 656 3316 mt 4566 3316 L
4566 3316 mt 4566  284 L
 656 3316 mt  656  284 L
gs 656 284 3911 3033 rc
24 w
/c8 { 0.000000 0.000000 1.000000 sr} bdef
c8
206 0 206 0 206 -30 206 -31 205 0 206 -30 206 -91 206 -91 
206 -61 205 -121 206 -212 206 -212 206 -152 206 -334 205 -363 206 -334 
206 -333 206 -304 205 -273 656 3316 20 MP stroke
gr

24 w
c8
 620 3316 mt  692 3316 L
 656 3280 mt  656 3352 L
 825 3043 mt  897 3043 L
 861 3007 mt  861 3079 L
1031 2739 mt 1103 2739 L
1067 2703 mt 1067 2775 L
1237 2406 mt 1309 2406 L
1273 2370 mt 1273 2442 L
1443 2072 mt 1515 2072 L
1479 2036 mt 1479 2108 L
1648 1709 mt 1720 1709 L
1684 1673 mt 1684 1745 L
1854 1375 mt 1926 1375 L
1890 1339 mt 1890 1411 L
2060 1223 mt 2132 1223 L
2096 1187 mt 2096 1259 L
2266 1011 mt 2338 1011 L
2302  975 mt 2302 1047 L
2472  799 mt 2544  799 L
2508  763 mt 2508  835 L
2677  678 mt 2749  678 L
2713  642 mt 2713  714 L
2883  617 mt 2955  617 L
2919  581 mt 2919  653 L
3089  526 mt 3161  526 L
3125  490 mt 3125  562 L
3295  435 mt 3367  435 L
3331  399 mt 3331  471 L
3501  405 mt 3573  405 L
3537  369 mt 3537  441 L
3706  405 mt 3778  405 L
3742  369 mt 3742  441 L
3912  374 mt 3984  374 L
3948  338 mt 3948  410 L
4118  344 mt 4190  344 L
4154  308 mt 4154  380 L
4324  344 mt 4396  344 L
4360  308 mt 4360  380 L
4530  344 mt 4602  344 L
4566  308 mt 4566  380 L
 631 3291 mt  681 3341 L
 681 3291 mt  631 3341 L
 836 3018 mt  886 3068 L
 886 3018 mt  836 3068 L
1042 2714 mt 1092 2764 L
1092 2714 mt 1042 2764 L
1248 2381 mt 1298 2431 L
1298 2381 mt 1248 2431 L
1454 2047 mt 1504 2097 L
1504 2047 mt 1454 2097 L
1659 1684 mt 1709 1734 L
1709 1684 mt 1659 1734 L
1865 1350 mt 1915 1400 L
1915 1350 mt 1865 1400 L
2071 1198 mt 2121 1248 L
2121 1198 mt 2071 1248 L
2277  986 mt 2327 1036 L
2327  986 mt 2277 1036 L
2483  774 mt 2533  824 L
2533  774 mt 2483  824 L
2688  653 mt 2738  703 L
2738  653 mt 2688  703 L
2894  592 mt 2944  642 L
2944  592 mt 2894  642 L
3100  501 mt 3150  551 L
3150  501 mt 3100  551 L
3306  410 mt 3356  460 L
3356  410 mt 3306  460 L
3512  380 mt 3562  430 L
3562  380 mt 3512  430 L
3717  380 mt 3767  430 L
3767  380 mt 3717  430 L
3923  349 mt 3973  399 L
3973  349 mt 3923  399 L
4129  319 mt 4179  369 L
4179  319 mt 4129  369 L
4335  319 mt 4385  369 L
4385  319 mt 4335  369 L
4541  319 mt 4591  369 L
4591  319 mt 4541  369 L
gs 656 284 3911 3033 rc
DA
/c9 { 0.000000 0.500000 0.000000 sr} bdef
c9
206 0 206 0 206 0 206 0 205 0 206 0 206 0 206 -31 
206 -121 205 -212 206 -243 206 -242 206 -334 206 -303 205 -364 206 -455 
206 -273 206 -182 205 -182 656 3316 20 MP stroke
gr

c9
DA
SO
0 j
-41 71 -41 -71 82 0 615 3340 4 MP
DP
-41 71 -41 -71 82 0 820 3158 4 MP
DP
-41 71 -41 -71 82 0 1026 2976 4 MP
DP
-41 71 -41 -71 82 0 1232 2703 4 MP
DP
-41 71 -41 -71 82 0 1438 2248 4 MP
DP
-41 71 -41 -71 82 0 1643 1884 4 MP
DP
-41 71 -41 -71 82 0 1849 1581 4 MP
DP
-41 71 -41 -71 82 0 2055 1247 4 MP
DP
-41 71 -41 -71 82 0 2261 1005 4 MP
DP
-41 71 -41 -71 82 0 2467 762 4 MP
DP
-41 71 -41 -71 82 0 2672 550 4 MP
DP
-41 71 -41 -71 82 0 2878 429 4 MP
DP
-41 71 -41 -71 82 0 3084 398 4 MP
DP
-41 71 -41 -71 82 0 3290 398 4 MP
DP
-41 71 -41 -71 82 0 3496 398 4 MP
DP
-41 71 -41 -71 82 0 3701 398 4 MP
DP
-41 71 -41 -71 82 0 3907 398 4 MP
DP
-41 71 -41 -71 82 0 4113 398 4 MP
DP
-41 71 -41 -71 82 0 4319 398 4 MP
DP
-41 71 -41 -71 82 0 4525 398 4 MP
DP
DA
gs 656 284 3911 3033 rc
DO
/c10 { 1.000000 0.000000 0.000000 sr} bdef
c10
154 -90 206 -91 206 -31 205 -91 206 -91 206 -242 206 -334 206 -364 
205 -545 206 -455 206 -273 206 -273 205 -152 656 3316 14 MP stroke
gr

c10
DO
SO
  36   36  656 3316 FO
  36   36  861 3164 FO
  36   36 1067 2891 FO
  36   36 1273 2618 FO
  36   36 1479 2163 FO
  36   36 1684 1618 FO
  36   36 1890 1254 FO
  36   36 2096  920 FO
  36   36 2302  678 FO
  36   36 2508  587 FO
  36   36 2713  496 FO
  36   36 2919  465 FO
  36   36 3125  374 FO
DO
gs 656 284 3911 3033 rc
DD
/c11 { 0.000000 0.750000 0.750000 sr} bdef
c11
206 -30 206 0 206 -31 206 -30 205 0 206 -61 206 -91 206 -121 
206 -243 205 -242 206 -182 206 -212 206 -243 206 -364 205 -424 206 -334 
206 -182 206 -91 205 -91 656 3316 20 MP stroke
gr

c11
DD
SO
0 -58 -58 0 0 58 58 0 627 3287 5 MP
DP
0 -58 -58 0 0 58 58 0 832 3196 5 MP
DP
0 -58 -58 0 0 58 58 0 1038 3105 5 MP
DP
0 -58 -58 0 0 58 58 0 1244 2923 5 MP
DP
0 -58 -58 0 0 58 58 0 1450 2589 5 MP
DP
0 -58 -58 0 0 58 58 0 1655 2165 5 MP
DP
0 -58 -58 0 0 58 58 0 1861 1801 5 MP
DP
0 -58 -58 0 0 58 58 0 2067 1558 5 MP
DP
0 -58 -58 0 0 58 58 0 2273 1346 5 MP
DP
0 -58 -58 0 0 58 58 0 2479 1164 5 MP
DP
0 -58 -58 0 0 58 58 0 2684 922 5 MP
DP
0 -58 -58 0 0 58 58 0 2890 679 5 MP
DP
0 -58 -58 0 0 58 58 0 3096 558 5 MP
DP
0 -58 -58 0 0 58 58 0 3302 467 5 MP
DP
0 -58 -58 0 0 58 58 0 3508 406 5 MP
DP
0 -58 -58 0 0 58 58 0 3713 406 5 MP
DP
0 -58 -58 0 0 58 58 0 3919 376 5 MP
DP
0 -58 -58 0 0 58 58 0 4125 345 5 MP
DP
0 -58 -58 0 0 58 58 0 4331 345 5 MP
DP
0 -58 -58 0 0 58 58 0 4537 315 5 MP
DP
DD
gs 656 284 3911 3033 rc
SO
/c12 { 0.750000 0.000000 0.750000 sr} bdef
c12
206 -60 206 -61 206 -60 206 0 205 -31 206 -121 206 -152 206 -242 
206 -303 205 -243 206 -242 206 -364 206 -364 206 -243 205 -242 206 -152 
206 -61 206 -60 205 -31 656 3316 20 MP stroke
gr

c12
SO
 631 3291 mt  681 3341 L
 681 3291 mt  631 3341 L
 836 3260 mt  886 3310 L
 886 3260 mt  836 3310 L
1042 3200 mt 1092 3250 L
1092 3200 mt 1042 3250 L
1248 3139 mt 1298 3189 L
1298 3139 mt 1248 3189 L
1454 2987 mt 1504 3037 L
1504 2987 mt 1454 3037 L
1659 2745 mt 1709 2795 L
1709 2745 mt 1659 2795 L
1865 2502 mt 1915 2552 L
1915 2502 mt 1865 2552 L
2071 2138 mt 2121 2188 L
2121 2138 mt 2071 2188 L
2277 1774 mt 2327 1824 L
2327 1774 mt 2277 1824 L
2483 1532 mt 2533 1582 L
2533 1532 mt 2483 1582 L
2688 1289 mt 2738 1339 L
2738 1289 mt 2688 1339 L
2894  986 mt 2944 1036 L
2944  986 mt 2894 1036 L
3100  744 mt 3150  794 L
3150  744 mt 3100  794 L
3306  592 mt 3356  642 L
3356  592 mt 3306  642 L
3512  471 mt 3562  521 L
3562  471 mt 3512  521 L
3717  440 mt 3767  490 L
3767  440 mt 3717  490 L
3923  440 mt 3973  490 L
3973  440 mt 3923  490 L
4129  380 mt 4179  430 L
4179  380 mt 4129  430 L
4335  319 mt 4385  369 L
4385  319 mt 4335  369 L
4541  259 mt 4591  309 L
4591  259 mt 4541  309 L
gs 656 284 3911 3033 rc
gr

0 sg
%%IncludeResource: font Arial
/Arial /WindowsLatin1Encoding 240 FMSR

2043 3726 mt 
(Time Slots) s
 252 2595 mt  -90 rotate
(Percentage\(%\)) s
90 rotate
%%IncludeResource: font Arial
/Arial /WindowsLatin1Encoding 120 FMSR

 639 3359 mt 
( ) s
4550  326 mt 
( ) s
6 w
1 sg
0 1107 1314 0 0 -1107 3079 3148 4 MP
PP
-1314 0 0 1107 1314 0 0 -1107 3079 3148 5 MP stroke
4 w
DO
SO
6 w
0 sg
3079 2041 mt 4393 2041 L
3079 3148 mt 4393 3148 L
4393 3148 mt 4393 2041 L
3079 3148 mt 3079 2041 L
3079 3148 mt 4393 3148 L
3079 3148 mt 3079 2041 L
3079 2041 mt 4393 2041 L
3079 3148 mt 4393 3148 L
4393 3148 mt 4393 2041 L
3079 3148 mt 3079 2041 L
%%IncludeResource: font Arial
/Arial /WindowsLatin1Encoding 156 FMSR

3547 2224 mt 
(Ratio=0) s
gs 3079 2041 1315 1108 rc
24 w
c8
360 0 3151 2168 2 MP stroke
gs 3233 2070 197 197 rc
3295 2168 mt 3367 2168 L
3331 2132 mt 3331 2204 L
3306 2143 mt 3356 2193 L
3356 2143 mt 3306 2193 L
gr

gr

24 w
c8
0 sg
3547 2437 mt 
(Ratio=0.25) s
gs 3079 2041 1315 1108 rc
DA
c9
360 0 3151 2381 2 MP stroke
SO
gs 3233 2283 197 197 rc
-41 71 -41 -71 82 0 3290 2405 4 MP
DP
gr

gr

c9
0 sg
3547 2650 mt 
(Ratio=0.5) s
gs 3079 2041 1315 1108 rc
DO
c10
360 0 3151 2594 2 MP stroke
SO
gs 3233 2496 197 197 rc
  36   36 3331 2594 FO
gr

gr

c10
0 sg
3547 2863 mt 
(Ratio=0.75) s
gs 3079 2041 1315 1108 rc
DD
c11
360 0 3151 2807 2 MP stroke
SO
gs 3233 2709 197 197 rc
0 -58 -58 0 0 58 58 0 3302 2778 5 MP
DP
gr

gr

c11
0 sg
3547 3076 mt 
(Ratio=1) s
gs 3079 2041 1315 1108 rc
c12
360 0 3151 3020 2 MP stroke
gs 3233 2922 197 197 rc
3306 2995 mt 3356 3045 L
3356 2995 mt 3306 3045 L
gr

6 w
gr

6 w
c12

end %%Color Dict

eplot
%%EndObject

epage
end

showpage

%%Trailer
%%EOF
