%!PS-Adobe-3.0 EPSF-3.0
%%Creator: MATLAB, The Mathworks, Inc. Version 7.5.0.342 (R2007b). Operating System: Microsoft Windows Vista.
%%Title: C:\Research\SECON & MobiHoc\sinr_prr_60.eps
%%CreationDate: 12/11/2012  16:14:24
%%DocumentNeededFonts: Arial
%%DocumentProcessColors: Cyan Magenta Yellow Black
%%LanguageLevel: 2
%%Pages: 1
%%BoundingBox:    87   262   507   578
%%EndComments

%%BeginProlog
% MathWorks dictionary
/MathWorks 160 dict begin
% definition operators
/bdef {bind def} bind def
/ldef {load def} bind def
/xdef {exch def} bdef
/xstore {exch store} bdef
% operator abbreviations
/c  /clip ldef
/cc /concat ldef
/cp /closepath ldef
/gr /grestore ldef
/gs /gsave ldef
/mt /moveto ldef
/np /newpath ldef
/cm /currentmatrix ldef
/sm /setmatrix ldef
/rm /rmoveto ldef
/rl /rlineto ldef
/s {show newpath} bdef
/sc {setcmykcolor} bdef
/sr /setrgbcolor ldef
/sg /setgray ldef
/w /setlinewidth ldef
/j /setlinejoin ldef
/cap /setlinecap ldef
/rc {rectclip} bdef
/rf {rectfill} bdef
% page state control
/pgsv () def
/bpage {/pgsv save def} bdef
/epage {pgsv restore} bdef
/bplot /gsave ldef
/eplot {stroke grestore} bdef
% orientation switch
/portraitMode 0 def /landscapeMode 1 def /rotateMode 2 def
% coordinate system mappings
/dpi2point 0 def
% font control
/FontSize 0 def
/FMS {/FontSize xstore findfont [FontSize 0 0 FontSize neg 0 0]
  makefont setfont} bdef
/ISOLatin1Encoding where {pop /WindowsLatin1Encoding 256 array bdef
ISOLatin1Encoding WindowsLatin1Encoding copy pop
/.notdef/.notdef/quotesinglbase/florin/quotedblbase/ellipsis/dagger
/daggerdbl/circumflex/perthousand/Scaron/guilsinglleft/OE/.notdef/.notdef
/.notdef/.notdef/quoteleft/quoteright/quotedblleft/quotedblright/bullet
/endash/emdash/tilde/trademark/scaron/guilsinglright/oe/.notdef/.notdef
/Ydieresis WindowsLatin1Encoding 128 32 getinterval astore pop}
{/WindowsLatin1Encoding StandardEncoding bdef} ifelse
/reencode {exch dup where {pop load} {pop StandardEncoding} ifelse
  exch dup 3 1 roll findfont dup length dict begin
  { 1 index /FID ne {def}{pop pop} ifelse } forall
  /Encoding exch def currentdict end definefont pop} bdef
/isroman {findfont /CharStrings get /Agrave known} bdef
/FMSR {3 1 roll 1 index dup isroman {reencode} {pop pop} ifelse
  exch FMS} bdef
/csm {1 dpi2point div -1 dpi2point div scale neg translate
 dup landscapeMode eq {pop -90 rotate}
  {rotateMode eq {90 rotate} if} ifelse} bdef
% line types: solid, dotted, dashed, dotdash
/SO { [] 0 setdash } bdef
/DO { [.5 dpi2point mul 4 dpi2point mul] 0 setdash } bdef
/DA { [6 dpi2point mul] 0 setdash } bdef
/DD { [.5 dpi2point mul 4 dpi2point mul 6 dpi2point mul 4
  dpi2point mul] 0 setdash } bdef
% macros for lines and objects
/L {lineto stroke} bdef
/MP {3 1 roll moveto 1 sub {rlineto} repeat} bdef
/AP {{rlineto} repeat} bdef
/PDlw -1 def
/W {/PDlw currentlinewidth def setlinewidth} def
/PP {closepath eofill} bdef
/DP {closepath stroke} bdef
/MR {4 -2 roll moveto dup  0 exch rlineto exch 0 rlineto
  neg 0 exch rlineto closepath} bdef
/FR {MR stroke} bdef
/PR {MR fill} bdef
/L1i {{currentfile picstr readhexstring pop} image} bdef
/tMatrix matrix def
/MakeOval {newpath tMatrix currentmatrix pop translate scale
0 0 1 0 360 arc tMatrix setmatrix} bdef
/FO {MakeOval stroke} bdef
/PO {MakeOval fill} bdef
/PD {currentlinewidth 2 div 0 360 arc fill
   PDlw -1 eq not {PDlw w /PDlw -1 def} if} def
/FA {newpath tMatrix currentmatrix pop translate scale
  0 0 1 5 -2 roll arc tMatrix setmatrix stroke} bdef
/PA {newpath tMatrix currentmatrix pop	translate 0 0 moveto scale
  0 0 1 5 -2 roll arc closepath tMatrix setmatrix fill} bdef
/FAn {newpath tMatrix currentmatrix pop translate scale
  0 0 1 5 -2 roll arcn tMatrix setmatrix stroke} bdef
/PAn {newpath tMatrix currentmatrix pop translate 0 0 moveto scale
  0 0 1 5 -2 roll arcn closepath tMatrix setmatrix fill} bdef
/vradius 0 def /hradius 0 def /lry 0 def
/lrx 0 def /uly 0 def /ulx 0 def /rad 0 def
/MRR {/vradius xdef /hradius xdef /lry xdef /lrx xdef /uly xdef
  /ulx xdef newpath tMatrix currentmatrix pop ulx hradius add uly
  vradius add translate hradius vradius scale 0 0 1 180 270 arc 
  tMatrix setmatrix lrx hradius sub uly vradius add translate
  hradius vradius scale 0 0 1 270 360 arc tMatrix setmatrix
  lrx hradius sub lry vradius sub translate hradius vradius scale
  0 0 1 0 90 arc tMatrix setmatrix ulx hradius add lry vradius sub
  translate hradius vradius scale 0 0 1 90 180 arc tMatrix setmatrix
  closepath} bdef
/FRR {MRR stroke } bdef
/PRR {MRR fill } bdef
/MlrRR {/lry xdef /lrx xdef /uly xdef /ulx xdef /rad lry uly sub 2 div def
  newpath tMatrix currentmatrix pop ulx rad add uly rad add translate
  rad rad scale 0 0 1 90 270 arc tMatrix setmatrix lrx rad sub lry rad
  sub translate rad rad scale 0 0 1 270 90 arc tMatrix setmatrix
  closepath} bdef
/FlrRR {MlrRR stroke } bdef
/PlrRR {MlrRR fill } bdef
/MtbRR {/lry xdef /lrx xdef /uly xdef /ulx xdef /rad lrx ulx sub 2 div def
  newpath tMatrix currentmatrix pop ulx rad add uly rad add translate
  rad rad scale 0 0 1 180 360 arc tMatrix setmatrix lrx rad sub lry rad
  sub translate rad rad scale 0 0 1 0 180 arc tMatrix setmatrix
  closepath} bdef
/FtbRR {MtbRR stroke } bdef
/PtbRR {MtbRR fill } bdef
/stri 6 array def /dtri 6 array def
/smat 6 array def /dmat 6 array def
/tmat1 6 array def /tmat2 6 array def /dif 3 array def
/asub {/ind2 exch def /ind1 exch def dup dup
  ind1 get exch ind2 get sub exch } bdef
/tri_to_matrix {
  2 0 asub 3 1 asub 4 0 asub 5 1 asub
  dup 0 get exch 1 get 7 -1 roll astore } bdef
/compute_transform {
  dmat dtri tri_to_matrix tmat1 invertmatrix 
  smat stri tri_to_matrix tmat2 concatmatrix } bdef
/ds {stri astore pop} bdef
/dt {dtri astore pop} bdef
/db {2 copy /cols xdef /rows xdef mul dup 3 mul string
  currentfile 
  3 index 0 eq {/ASCIIHexDecode filter}
  {/ASCII85Decode filter 3 index 2 eq {/RunLengthDecode filter} if }
  ifelse exch readstring pop
  dup 0 3 index getinterval /rbmap xdef
  dup 2 index dup getinterval /gbmap xdef
  1 index dup 2 mul exch getinterval /bbmap xdef pop pop}bdef
/it {gs np dtri aload pop moveto lineto lineto cp c
  cols rows 8 compute_transform 
  rbmap gbmap bbmap true 3 colorimage gr}bdef
/il {newpath moveto lineto stroke}bdef
currentdict end def
%%EndProlog

%%BeginSetup
MathWorks begin

0 cap

end
%%EndSetup

%%Page: 1 1
%%BeginPageSetup
%%PageBoundingBox:    87   262   507   578
MathWorks begin
bpage
%%EndPageSetup

%%BeginObject: obj1
bplot

/dpi2point 12 def
portraitMode 1044 6936 csm

    0     0  5045  3782 rc
85 dict begin %Colortable dictionary
/c0 { 0.000000 0.000000 0.000000 sr} bdef
/c1 { 1.000000 1.000000 1.000000 sr} bdef
/c2 { 0.900000 0.000000 0.000000 sr} bdef
/c3 { 0.000000 0.820000 0.000000 sr} bdef
/c4 { 0.000000 0.000000 0.800000 sr} bdef
/c5 { 0.910000 0.820000 0.320000 sr} bdef
/c6 { 1.000000 0.260000 0.820000 sr} bdef
/c7 { 0.000000 0.820000 0.820000 sr} bdef
c0
1 j
1 sg
   0    0 5046 3783 rf
6 w
0 3032 3910 0 0 -3032 656 3316 4 MP
PP
-3910 0 0 3032 3910 0 0 -3032 656 3316 5 MP stroke
4 w
DO
SO
6 w
0 sg
 656  284 mt 4566  284 L
 656 3316 mt 4566 3316 L
4566 3316 mt 4566  284 L
 656 3316 mt  656  284 L
 656 3316 mt 4566 3316 L
 656 3316 mt  656  284 L
 656 3316 mt  656 3276 L
 656  284 mt  656  323 L
%%IncludeResource: font Arial
/Arial /WindowsLatin1Encoding 156 FMSR

 523 3495 mt 
(-2) s
1144 3316 mt 1144 3276 L
1144  284 mt 1144  323 L
 946 3495 mt 
(-1.5) s
1633 3316 mt 1633 3276 L
1633  284 mt 1633  323 L
1500 3495 mt 
(-1) s
2122 3316 mt 2122 3276 L
2122  284 mt 2122  323 L
1924 3495 mt 
(-0.5) s
2611 3316 mt 2611 3276 L
2611  284 mt 2611  323 L
2568 3495 mt 
(0) s
3099 3316 mt 3099 3276 L
3099  284 mt 3099  323 L
2991 3495 mt 
(0.5) s
3588 3316 mt 3588 3276 L
3588  284 mt 3588  323 L
3545 3495 mt 
(1) s
4077 3316 mt 4077 3276 L
4077  284 mt 4077  323 L
3969 3495 mt 
(1.5) s
4566 3316 mt 4566 3276 L
4566  284 mt 4566  323 L
4523 3495 mt 
(2) s
 656 3316 mt  695 3316 L
4566 3316 mt 4526 3316 L
 535 3374 mt 
(0) s
 656 3012 mt  695 3012 L
4566 3012 mt 4526 3012 L
 448 3070 mt 
(10) s
 656 2709 mt  695 2709 L
4566 2709 mt 4526 2709 L
 448 2767 mt 
(20) s
 656 2406 mt  695 2406 L
4566 2406 mt 4526 2406 L
 448 2464 mt 
(30) s
 656 2103 mt  695 2103 L
4566 2103 mt 4526 2103 L
 448 2161 mt 
(40) s
 656 1800 mt  695 1800 L
4566 1800 mt 4526 1800 L
 448 1858 mt 
(50) s
 656 1496 mt  695 1496 L
4566 1496 mt 4526 1496 L
 448 1554 mt 
(60) s
 656 1193 mt  695 1193 L
4566 1193 mt 4526 1193 L
 448 1251 mt 
(70) s
 656  890 mt  695  890 L
4566  890 mt 4526  890 L
 448  948 mt 
(80) s
 656  587 mt  695  587 L
4566  587 mt 4526  587 L
 448  645 mt 
(90) s
 656  284 mt  695  284 L
4566  284 mt 4526  284 L
 361  342 mt 
(100) s
 656  284 mt 4566  284 L
 656 3316 mt 4566 3316 L
4566 3316 mt 4566  284 L
 656 3316 mt  656  284 L
gs 656 284 3911 3033 rc
/c8 { 0.000000 0.000000 1.000000 sr} bdef
c8
196 -233 195 233 196 -1010 195 -389 196 508 195 -41 196 205 195 -205 
196 -656 195 -231 196 576 195 -432 196 -346 195 400 196 -631 195 456 
196 -792 195 -312 196 179 195 -311 656 3316 21 MP stroke
gr

c8
 620 3316 mt  692 3316 L
 656 3280 mt  656 3352 L
 815 3005 mt  887 3005 L
 851 2969 mt  851 3041 L
1011 3184 mt 1083 3184 L
1047 3148 mt 1047 3220 L
1206 2872 mt 1278 2872 L
1242 2836 mt 1242 2908 L
1402 2080 mt 1474 2080 L
1438 2044 mt 1438 2116 L
1597 2536 mt 1669 2536 L
1633 2500 mt 1633 2572 L
1793 1905 mt 1865 1905 L
1829 1869 mt 1829 1941 L
1988 2305 mt 2060 2305 L
2024 2269 mt 2024 2341 L
2184 1959 mt 2256 1959 L
2220 1923 mt 2220 1995 L
2379 1527 mt 2451 1527 L
2415 1491 mt 2415 1563 L
2575 2103 mt 2647 2103 L
2611 2067 mt 2611 2139 L
2770 1872 mt 2842 1872 L
2806 1836 mt 2806 1908 L
2966 1216 mt 3038 1216 L
3002 1180 mt 3002 1252 L
3161 1011 mt 3233 1011 L
3197  975 mt 3197 1047 L
3357 1216 mt 3429 1216 L
3393 1180 mt 3393 1252 L
3552 1175 mt 3624 1175 L
3588 1139 mt 3588 1211 L
3748 1683 mt 3820 1683 L
3784 1647 mt 3784 1719 L
3943 1294 mt 4015 1294 L
3979 1258 mt 3979 1330 L
4139  284 mt 4211  284 L
4175  248 mt 4175  320 L
4334  517 mt 4406  517 L
4370  481 mt 4370  553 L
4530  284 mt 4602  284 L
4566  248 mt 4566  320 L
 631 3291 mt  681 3341 L
 681 3291 mt  631 3341 L
 826 2980 mt  876 3030 L
 876 2980 mt  826 3030 L
1022 3159 mt 1072 3209 L
1072 3159 mt 1022 3209 L
1217 2847 mt 1267 2897 L
1267 2847 mt 1217 2897 L
1413 2055 mt 1463 2105 L
1463 2055 mt 1413 2105 L
1608 2511 mt 1658 2561 L
1658 2511 mt 1608 2561 L
1804 1880 mt 1854 1930 L
1854 1880 mt 1804 1930 L
1999 2280 mt 2049 2330 L
2049 2280 mt 1999 2330 L
2195 1934 mt 2245 1984 L
2245 1934 mt 2195 1984 L
2390 1502 mt 2440 1552 L
2440 1502 mt 2390 1552 L
2586 2078 mt 2636 2128 L
2636 2078 mt 2586 2128 L
2781 1847 mt 2831 1897 L
2831 1847 mt 2781 1897 L
2977 1191 mt 3027 1241 L
3027 1191 mt 2977 1241 L
3172  986 mt 3222 1036 L
3222  986 mt 3172 1036 L
3368 1191 mt 3418 1241 L
3418 1191 mt 3368 1241 L
3563 1150 mt 3613 1200 L
3613 1150 mt 3563 1200 L
3759 1658 mt 3809 1708 L
3809 1658 mt 3759 1708 L
3954 1269 mt 4004 1319 L
4004 1269 mt 3954 1319 L
4150  259 mt 4200  309 L
4200  259 mt 4150  309 L
4345  492 mt 4395  542 L
4395  492 mt 4345  542 L
4541  259 mt 4591  309 L
4591  259 mt 4541  309 L
gs 656 284 3911 3033 rc
/c9 { 0.000000 0.500000 0.000000 sr} bdef
c9
196 -247 195 -171 196 115 195 -455 196 -94 195 -197 196 -142 195 168 
196 -166 195 -216 196 -524 195 211 196 -322 195 -35 196 -324 195 113 
196 -167 195 -165 196 -50 195 -342 656 3294 21 MP stroke
gr

c9
0 j
-41 71 -41 -71 82 0 615 3318 4 MP
DP
-41 71 -41 -71 82 0 810 2976 4 MP
DP
-41 71 -41 -71 82 0 1006 2926 4 MP
DP
-41 71 -41 -71 82 0 1201 2761 4 MP
DP
-41 71 -41 -71 82 0 1397 2594 4 MP
DP
-41 71 -41 -71 82 0 1592 2707 4 MP
DP
-41 71 -41 -71 82 0 1788 2383 4 MP
DP
-41 71 -41 -71 82 0 1983 2348 4 MP
DP
-41 71 -41 -71 82 0 2179 2026 4 MP
DP
-41 71 -41 -71 82 0 2374 2237 4 MP
DP
-41 71 -41 -71 82 0 2570 1713 4 MP
DP
-41 71 -41 -71 82 0 2765 1497 4 MP
DP
-41 71 -41 -71 82 0 2961 1331 4 MP
DP
-41 71 -41 -71 82 0 3156 1499 4 MP
DP
-41 71 -41 -71 82 0 3352 1357 4 MP
DP
-41 71 -41 -71 82 0 3547 1160 4 MP
DP
-41 71 -41 -71 82 0 3743 1066 4 MP
DP
-41 71 -41 -71 82 0 3938 611 4 MP
DP
-41 71 -41 -71 82 0 4134 726 4 MP
DP
-41 71 -41 -71 82 0 4329 555 4 MP
DP
-41 71 -41 -71 82 0 4525 308 4 MP
DP
gs 656 284 3911 3033 rc
/c10 { 1.000000 0.000000 0.000000 sr} bdef
c10
196 -183 195 -92 196 -188 195 -309 196 71 195 -288 196 -40 195 -68 
196 -95 195 -384 196 24 195 -327 196 -11 195 -136 196 -289 195 -20 
196 -70 195 -320 196 -87 195 -179 656 3275 21 MP stroke
gr

c10
  36   36  656 3275 FO
  36   36  851 3096 FO
  36   36 1047 3009 FO
  36   36 1242 2689 FO
  36   36 1438 2619 FO
  36   36 1633 2599 FO
  36   36 1829 2310 FO
  36   36 2024 2174 FO
  36   36 2220 2163 FO
  36   36 2415 1836 FO
  36   36 2611 1860 FO
  36   36 2806 1476 FO
  36   36 3002 1381 FO
  36   36 3197 1313 FO
  36   36 3393 1273 FO
  36   36 3588  985 FO
  36   36 3784 1056 FO
  36   36 3979  747 FO
  36   36 4175  559 FO
  36   36 4370  467 FO
  36   36 4566  284 FO
gs 656 284 3911 3033 rc
/c11 { 0.000000 0.750000 0.750000 sr} bdef
c11
196 -202 195 -218 196 0 195 -274 196 -89 195 -344 196 324 195 -508 
196 -266 195 37 196 -79 195 -362 196 23 195 -129 196 -138 195 -177 
196 -122 195 -142 196 -153 195 -166 656 3269 21 MP stroke
gr

c11
0 -58 -58 0 0 58 58 0 627 3240 5 MP
DP
0 -58 -58 0 0 58 58 0 822 3074 5 MP
DP
0 -58 -58 0 0 58 58 0 1018 2921 5 MP
DP
0 -58 -58 0 0 58 58 0 1213 2779 5 MP
DP
0 -58 -58 0 0 58 58 0 1409 2657 5 MP
DP
0 -58 -58 0 0 58 58 0 1604 2480 5 MP
DP
0 -58 -58 0 0 58 58 0 1800 2342 5 MP
DP
0 -58 -58 0 0 58 58 0 1995 2213 5 MP
DP
0 -58 -58 0 0 58 58 0 2191 2236 5 MP
DP
0 -58 -58 0 0 58 58 0 2386 1874 5 MP
DP
0 -58 -58 0 0 58 58 0 2582 1795 5 MP
DP
0 -58 -58 0 0 58 58 0 2777 1832 5 MP
DP
0 -58 -58 0 0 58 58 0 2973 1566 5 MP
DP
0 -58 -58 0 0 58 58 0 3168 1058 5 MP
DP
0 -58 -58 0 0 58 58 0 3364 1382 5 MP
DP
0 -58 -58 0 0 58 58 0 3559 1038 5 MP
DP
0 -58 -58 0 0 58 58 0 3755 949 5 MP
DP
0 -58 -58 0 0 58 58 0 3950 675 5 MP
DP
0 -58 -58 0 0 58 58 0 4146 675 5 MP
DP
0 -58 -58 0 0 58 58 0 4341 457 5 MP
DP
0 -58 -58 0 0 58 58 0 4537 255 5 MP
DP
gs 656 284 3911 3033 rc
/c12 { 0.750000 0.000000 0.750000 sr} bdef
c12
196 -108 195 -211 196 -122 195 -185 196 -91 195 -187 196 -74 195 -273 
196 -2 195 -237 196 -223 195 -82 196 -185 195 -237 196 -69 195 -86 
196 -209 195 -134 196 -81 195 -169 656 3275 21 MP stroke
gr

c12
-41 71 -41 -71 82 0 615 3299 4 MP
DP
-41 71 -41 -71 82 0 810 3130 4 MP
DP
-41 71 -41 -71 82 0 1006 3049 4 MP
DP
-41 71 -41 -71 82 0 1201 2915 4 MP
DP
-41 71 -41 -71 82 0 1397 2706 4 MP
DP
-41 71 -41 -71 82 0 1592 2620 4 MP
DP
-41 71 -41 -71 82 0 1788 2551 4 MP
DP
-41 71 -41 -71 82 0 1983 2314 4 MP
DP
-41 71 -41 -71 82 0 2179 2129 4 MP
DP
-41 71 -41 -71 82 0 2374 2047 4 MP
DP
-41 71 -41 -71 82 0 2570 1824 4 MP
DP
-41 71 -41 -71 82 0 2765 1587 4 MP
DP
-41 71 -41 -71 82 0 2961 1585 4 MP
DP
-41 71 -41 -71 82 0 3156 1312 4 MP
DP
-41 71 -41 -71 82 0 3352 1238 4 MP
DP
-41 71 -41 -71 82 0 3547 1051 4 MP
DP
-41 71 -41 -71 82 0 3743 960 4 MP
DP
-41 71 -41 -71 82 0 3938 775 4 MP
DP
-41 71 -41 -71 82 0 4134 653 4 MP
DP
-41 71 -41 -71 82 0 4329 442 4 MP
DP
-41 71 -41 -71 82 0 4525 334 4 MP
DP
gs 656 284 3911 3033 rc
gr

0 sg
%%IncludeResource: font Arial
/Arial /WindowsLatin1Encoding 240 FMSR

1711 3726 mt 
(SINR Values\(dB\)) s
 252 2595 mt  -90 rotate
(Percentage\(%\)) s
90 rotate
%%IncludeResource: font Arial
/Arial /WindowsLatin1Encoding 120 FMSR

 639 3359 mt 
( ) s
4550  326 mt 
( ) s
1 sg
0 982 1689 0 0 -982 716 1326 4 MP
PP
-1689 0 0 982 1689 0 0 -982 716 1326 5 MP stroke
4 w
DO
SO
6 w
0 sg
 716  344 mt 2405  344 L
 716 1326 mt 2405 1326 L
2405 1326 mt 2405  344 L
 716 1326 mt  716  344 L
 716 1326 mt 2405 1326 L
 716 1326 mt  716  344 L
 716  344 mt 2405  344 L
 716 1326 mt 2405 1326 L
2405 1326 mt 2405  344 L
 716 1326 mt  716  344 L
%%IncludeResource: font Arial
/Arial /WindowsLatin1Encoding 156 FMSR

1169  512 mt 
(aim\(rounds=100\)) s
gs 716 344 1690 983 rc
c8
348 0 785 457 2 MP stroke
gs 886 384 147 147 rc
 923  457 mt  995  457 L
 959  421 mt  959  493 L
 934  432 mt  984  482 L
 984  432 mt  934  482 L
gr

gr

c8
0 sg
1169  701 mt 
(aim\(rounds=300\)) s
gs 716 344 1690 983 rc
c9
348 0 785 646 2 MP stroke
gs 886 573 147 147 rc
-41 71 -41 -71 82 0 918 670 4 MP
DP
gr

gr

c9
0 sg
1169  891 mt 
(aim\(rounds=500\)) s
gs 716 344 1690 983 rc
c10
348 0 785 835 2 MP stroke
gs 886 762 147 147 rc
  36   36  959  835 FO
gr

gr

c10
0 sg
1169 1080 mt 
(pim) s
gs 716 344 1690 983 rc
c11
348 0 785 1023 2 MP stroke
gs 886 950 147 147 rc
0 -58 -58 0 0 58 58 0 930 994 5 MP
DP
gr

gr

c11
0 sg
1169 1269 mt 
(eim) s
gs 716 344 1690 983 rc
c12
348 0 785 1212 2 MP stroke
gs 886 1139 147 147 rc
-41 71 -41 -71 82 0 918 1236 4 MP
DP
gr

gr

c12

end %%Color Dict

eplot
%%EndObject

epage
end

showpage

%%Trailer
%%EOF
