%!PS-Adobe-3.0 EPSF-3.0
%%Creator: MATLAB, The Mathworks, Inc. Version 7.5.0.342 (R2007b). Operating System: Microsoft Windows Vista.
%%Title: C:\Research\SECON & MobiHoc\sinr_prr_30.eps
%%CreationDate: 12/11/2012  21:26:51
%%DocumentNeededFonts: Arial
%%DocumentProcessColors: Cyan Magenta Yellow Black
%%LanguageLevel: 2
%%Pages: 1
%%BoundingBox:    87   262   507   578
%%EndComments

%%BeginProlog
% MathWorks dictionary
/MathWorks 160 dict begin
% definition operators
/bdef {bind def} bind def
/ldef {load def} bind def
/xdef {exch def} bdef
/xstore {exch store} bdef
% operator abbreviations
/c  /clip ldef
/cc /concat ldef
/cp /closepath ldef
/gr /grestore ldef
/gs /gsave ldef
/mt /moveto ldef
/np /newpath ldef
/cm /currentmatrix ldef
/sm /setmatrix ldef
/rm /rmoveto ldef
/rl /rlineto ldef
/s {show newpath} bdef
/sc {setcmykcolor} bdef
/sr /setrgbcolor ldef
/sg /setgray ldef
/w /setlinewidth ldef
/j /setlinejoin ldef
/cap /setlinecap ldef
/rc {rectclip} bdef
/rf {rectfill} bdef
% page state control
/pgsv () def
/bpage {/pgsv save def} bdef
/epage {pgsv restore} bdef
/bplot /gsave ldef
/eplot {stroke grestore} bdef
% orientation switch
/portraitMode 0 def /landscapeMode 1 def /rotateMode 2 def
% coordinate system mappings
/dpi2point 0 def
% font control
/FontSize 0 def
/FMS {/FontSize xstore findfont [FontSize 0 0 FontSize neg 0 0]
  makefont setfont} bdef
/ISOLatin1Encoding where {pop /WindowsLatin1Encoding 256 array bdef
ISOLatin1Encoding WindowsLatin1Encoding copy pop
/.notdef/.notdef/quotesinglbase/florin/quotedblbase/ellipsis/dagger
/daggerdbl/circumflex/perthousand/Scaron/guilsinglleft/OE/.notdef/.notdef
/.notdef/.notdef/quoteleft/quoteright/quotedblleft/quotedblright/bullet
/endash/emdash/tilde/trademark/scaron/guilsinglright/oe/.notdef/.notdef
/Ydieresis WindowsLatin1Encoding 128 32 getinterval astore pop}
{/WindowsLatin1Encoding StandardEncoding bdef} ifelse
/reencode {exch dup where {pop load} {pop StandardEncoding} ifelse
  exch dup 3 1 roll findfont dup length dict begin
  { 1 index /FID ne {def}{pop pop} ifelse } forall
  /Encoding exch def currentdict end definefont pop} bdef
/isroman {findfont /CharStrings get /Agrave known} bdef
/FMSR {3 1 roll 1 index dup isroman {reencode} {pop pop} ifelse
  exch FMS} bdef
/csm {1 dpi2point div -1 dpi2point div scale neg translate
 dup landscapeMode eq {pop -90 rotate}
  {rotateMode eq {90 rotate} if} ifelse} bdef
% line types: solid, dotted, dashed, dotdash
/SO { [] 0 setdash } bdef
/DO { [.5 dpi2point mul 4 dpi2point mul] 0 setdash } bdef
/DA { [6 dpi2point mul] 0 setdash } bdef
/DD { [.5 dpi2point mul 4 dpi2point mul 6 dpi2point mul 4
  dpi2point mul] 0 setdash } bdef
% macros for lines and objects
/L {lineto stroke} bdef
/MP {3 1 roll moveto 1 sub {rlineto} repeat} bdef
/AP {{rlineto} repeat} bdef
/PDlw -1 def
/W {/PDlw currentlinewidth def setlinewidth} def
/PP {closepath eofill} bdef
/DP {closepath stroke} bdef
/MR {4 -2 roll moveto dup  0 exch rlineto exch 0 rlineto
  neg 0 exch rlineto closepath} bdef
/FR {MR stroke} bdef
/PR {MR fill} bdef
/L1i {{currentfile picstr readhexstring pop} image} bdef
/tMatrix matrix def
/MakeOval {newpath tMatrix currentmatrix pop translate scale
0 0 1 0 360 arc tMatrix setmatrix} bdef
/FO {MakeOval stroke} bdef
/PO {MakeOval fill} bdef
/PD {currentlinewidth 2 div 0 360 arc fill
   PDlw -1 eq not {PDlw w /PDlw -1 def} if} def
/FA {newpath tMatrix currentmatrix pop translate scale
  0 0 1 5 -2 roll arc tMatrix setmatrix stroke} bdef
/PA {newpath tMatrix currentmatrix pop	translate 0 0 moveto scale
  0 0 1 5 -2 roll arc closepath tMatrix setmatrix fill} bdef
/FAn {newpath tMatrix currentmatrix pop translate scale
  0 0 1 5 -2 roll arcn tMatrix setmatrix stroke} bdef
/PAn {newpath tMatrix currentmatrix pop translate 0 0 moveto scale
  0 0 1 5 -2 roll arcn closepath tMatrix setmatrix fill} bdef
/vradius 0 def /hradius 0 def /lry 0 def
/lrx 0 def /uly 0 def /ulx 0 def /rad 0 def
/MRR {/vradius xdef /hradius xdef /lry xdef /lrx xdef /uly xdef
  /ulx xdef newpath tMatrix currentmatrix pop ulx hradius add uly
  vradius add translate hradius vradius scale 0 0 1 180 270 arc 
  tMatrix setmatrix lrx hradius sub uly vradius add translate
  hradius vradius scale 0 0 1 270 360 arc tMatrix setmatrix
  lrx hradius sub lry vradius sub translate hradius vradius scale
  0 0 1 0 90 arc tMatrix setmatrix ulx hradius add lry vradius sub
  translate hradius vradius scale 0 0 1 90 180 arc tMatrix setmatrix
  closepath} bdef
/FRR {MRR stroke } bdef
/PRR {MRR fill } bdef
/MlrRR {/lry xdef /lrx xdef /uly xdef /ulx xdef /rad lry uly sub 2 div def
  newpath tMatrix currentmatrix pop ulx rad add uly rad add translate
  rad rad scale 0 0 1 90 270 arc tMatrix setmatrix lrx rad sub lry rad
  sub translate rad rad scale 0 0 1 270 90 arc tMatrix setmatrix
  closepath} bdef
/FlrRR {MlrRR stroke } bdef
/PlrRR {MlrRR fill } bdef
/MtbRR {/lry xdef /lrx xdef /uly xdef /ulx xdef /rad lrx ulx sub 2 div def
  newpath tMatrix currentmatrix pop ulx rad add uly rad add translate
  rad rad scale 0 0 1 180 360 arc tMatrix setmatrix lrx rad sub lry rad
  sub translate rad rad scale 0 0 1 0 180 arc tMatrix setmatrix
  closepath} bdef
/FtbRR {MtbRR stroke } bdef
/PtbRR {MtbRR fill } bdef
/stri 6 array def /dtri 6 array def
/smat 6 array def /dmat 6 array def
/tmat1 6 array def /tmat2 6 array def /dif 3 array def
/asub {/ind2 exch def /ind1 exch def dup dup
  ind1 get exch ind2 get sub exch } bdef
/tri_to_matrix {
  2 0 asub 3 1 asub 4 0 asub 5 1 asub
  dup 0 get exch 1 get 7 -1 roll astore } bdef
/compute_transform {
  dmat dtri tri_to_matrix tmat1 invertmatrix 
  smat stri tri_to_matrix tmat2 concatmatrix } bdef
/ds {stri astore pop} bdef
/dt {dtri astore pop} bdef
/db {2 copy /cols xdef /rows xdef mul dup 3 mul string
  currentfile 
  3 index 0 eq {/ASCIIHexDecode filter}
  {/ASCII85Decode filter 3 index 2 eq {/RunLengthDecode filter} if }
  ifelse exch readstring pop
  dup 0 3 index getinterval /rbmap xdef
  dup 2 index dup getinterval /gbmap xdef
  1 index dup 2 mul exch getinterval /bbmap xdef pop pop}bdef
/it {gs np dtri aload pop moveto lineto lineto cp c
  cols rows 8 compute_transform 
  rbmap gbmap bbmap true 3 colorimage gr}bdef
/il {newpath moveto lineto stroke}bdef
currentdict end def
%%EndProlog

%%BeginSetup
MathWorks begin

0 cap

end
%%EndSetup

%%Page: 1 1
%%BeginPageSetup
%%PageBoundingBox:    87   262   507   578
MathWorks begin
bpage
%%EndPageSetup

%%BeginObject: obj1
bplot

/dpi2point 12 def
portraitMode 1044 6936 csm

    0     0  5045  3782 rc
85 dict begin %Colortable dictionary
/c0 { 0.000000 0.000000 0.000000 sr} bdef
/c1 { 1.000000 1.000000 1.000000 sr} bdef
/c2 { 0.900000 0.000000 0.000000 sr} bdef
/c3 { 0.000000 0.820000 0.000000 sr} bdef
/c4 { 0.000000 0.000000 0.800000 sr} bdef
/c5 { 0.910000 0.820000 0.320000 sr} bdef
/c6 { 1.000000 0.260000 0.820000 sr} bdef
/c7 { 0.000000 0.820000 0.820000 sr} bdef
c0
1 j
1 sg
   0    0 5046 3783 rf
6 w
0 3032 3910 0 0 -3032 656 3316 4 MP
PP
-3910 0 0 3032 3910 0 0 -3032 656 3316 5 MP stroke
4 w
DO
SO
6 w
0 sg
 656  284 mt 4566  284 L
 656 3316 mt 4566 3316 L
4566 3316 mt 4566  284 L
 656 3316 mt  656  284 L
 656 3316 mt 4566 3316 L
 656 3316 mt  656  284 L
 656 3316 mt  656 3276 L
 656  284 mt  656  323 L
%%IncludeResource: font Arial
/Arial /WindowsLatin1Encoding 156 FMSR

 523 3495 mt 
(-2) s
1144 3316 mt 1144 3276 L
1144  284 mt 1144  323 L
 946 3495 mt 
(-1.5) s
1633 3316 mt 1633 3276 L
1633  284 mt 1633  323 L
1500 3495 mt 
(-1) s
2122 3316 mt 2122 3276 L
2122  284 mt 2122  323 L
1924 3495 mt 
(-0.5) s
2611 3316 mt 2611 3276 L
2611  284 mt 2611  323 L
2568 3495 mt 
(0) s
3099 3316 mt 3099 3276 L
3099  284 mt 3099  323 L
2991 3495 mt 
(0.5) s
3588 3316 mt 3588 3276 L
3588  284 mt 3588  323 L
3545 3495 mt 
(1) s
4077 3316 mt 4077 3276 L
4077  284 mt 4077  323 L
3969 3495 mt 
(1.5) s
4566 3316 mt 4566 3276 L
4566  284 mt 4566  323 L
4523 3495 mt 
(2) s
 656 3316 mt  695 3316 L
4566 3316 mt 4526 3316 L
 535 3374 mt 
(0) s
 656 3012 mt  695 3012 L
4566 3012 mt 4526 3012 L
 448 3070 mt 
(10) s
 656 2709 mt  695 2709 L
4566 2709 mt 4526 2709 L
 448 2767 mt 
(20) s
 656 2406 mt  695 2406 L
4566 2406 mt 4526 2406 L
 448 2464 mt 
(30) s
 656 2103 mt  695 2103 L
4566 2103 mt 4526 2103 L
 448 2161 mt 
(40) s
 656 1800 mt  695 1800 L
4566 1800 mt 4526 1800 L
 448 1858 mt 
(50) s
 656 1496 mt  695 1496 L
4566 1496 mt 4526 1496 L
 448 1554 mt 
(60) s
 656 1193 mt  695 1193 L
4566 1193 mt 4526 1193 L
 448 1251 mt 
(70) s
 656  890 mt  695  890 L
4566  890 mt 4526  890 L
 448  948 mt 
(80) s
 656  587 mt  695  587 L
4566  587 mt 4526  587 L
 448  645 mt 
(90) s
 656  284 mt  695  284 L
4566  284 mt 4526  284 L
 361  342 mt 
(100) s
 656  284 mt 4566  284 L
 656 3316 mt 4566 3316 L
4566 3316 mt 4566  284 L
 656 3316 mt  656  284 L
gs 656 284 3911 3033 rc
/c8 { 0.000000 0.000000 1.000000 sr} bdef
c8
196 -202 195 202 196 -275 195 -1241 196 1516 195 -649 196 43 195 -404 
196 -72 195 -486 196 -137 195 242 196 -726 195 324 196 -156 195 -321 
196 -437 195 84 196 -224 195 -113 656 3316 21 MP stroke
gr

c8
 620 3316 mt  692 3316 L
 656 3280 mt  656 3352 L
 815 3203 mt  887 3203 L
 851 3167 mt  851 3239 L
1011 2979 mt 1083 2979 L
1047 2943 mt 1047 3015 L
1206 3063 mt 1278 3063 L
1242 3027 mt 1242 3099 L
1402 2626 mt 1474 2626 L
1438 2590 mt 1438 2662 L
1597 2305 mt 1669 2305 L
1633 2269 mt 1633 2341 L
1793 2149 mt 1865 2149 L
1829 2113 mt 1829 2185 L
1988 2473 mt 2060 2473 L
2024 2437 mt 2024 2509 L
2184 1747 mt 2256 1747 L
2220 1711 mt 2220 1783 L
2379 1989 mt 2451 1989 L
2415 1953 mt 2415 2025 L
2575 1852 mt 2647 1852 L
2611 1816 mt 2611 1888 L
2770 1366 mt 2842 1366 L
2806 1330 mt 2806 1402 L
2966 1294 mt 3038 1294 L
3002 1258 mt 3002 1330 L
3161  890 mt 3233  890 L
3197  854 mt 3197  926 L
3357  933 mt 3429  933 L
3393  897 mt 3393  969 L
3552  284 mt 3624  284 L
3588  248 mt 3588  320 L
3748 1800 mt 3820 1800 L
3784 1764 mt 3784 1836 L
3943  559 mt 4015  559 L
3979  523 mt 3979  595 L
4139  284 mt 4211  284 L
4175  248 mt 4175  320 L
4334  486 mt 4406  486 L
4370  450 mt 4370  522 L
4530  284 mt 4602  284 L
4566  248 mt 4566  320 L
 631 3291 mt  681 3341 L
 681 3291 mt  631 3341 L
 826 3178 mt  876 3228 L
 876 3178 mt  826 3228 L
1022 2954 mt 1072 3004 L
1072 2954 mt 1022 3004 L
1217 3038 mt 1267 3088 L
1267 3038 mt 1217 3088 L
1413 2601 mt 1463 2651 L
1463 2601 mt 1413 2651 L
1608 2280 mt 1658 2330 L
1658 2280 mt 1608 2330 L
1804 2124 mt 1854 2174 L
1854 2124 mt 1804 2174 L
1999 2448 mt 2049 2498 L
2049 2448 mt 1999 2498 L
2195 1722 mt 2245 1772 L
2245 1722 mt 2195 1772 L
2390 1964 mt 2440 2014 L
2440 1964 mt 2390 2014 L
2586 1827 mt 2636 1877 L
2636 1827 mt 2586 1877 L
2781 1341 mt 2831 1391 L
2831 1341 mt 2781 1391 L
2977 1269 mt 3027 1319 L
3027 1269 mt 2977 1319 L
3172  865 mt 3222  915 L
3222  865 mt 3172  915 L
3368  908 mt 3418  958 L
3418  908 mt 3368  958 L
3563  259 mt 3613  309 L
3613  259 mt 3563  309 L
3759 1775 mt 3809 1825 L
3809 1775 mt 3759 1825 L
3954  534 mt 4004  584 L
4004  534 mt 3954  584 L
4150  259 mt 4200  309 L
4200  259 mt 4150  309 L
4345  461 mt 4395  511 L
4395  461 mt 4345  511 L
4541  259 mt 4591  309 L
4591  259 mt 4541  309 L
gs 656 284 3911 3033 rc
/c9 { 0.000000 0.500000 0.000000 sr} bdef
c9
196 0 195 -379 196 -94 195 -245 196 -68 195 -449 196 -74 195 66 
196 -14 195 -396 196 -49 195 130 196 -523 195 118 196 -433 195 48 
196 -183 195 -112 196 -192 195 -183 656 3316 21 MP stroke
gr

c9
0 j
-41 71 -41 -71 82 0 615 3340 4 MP
DP
-41 71 -41 -71 82 0 810 3157 4 MP
DP
-41 71 -41 -71 82 0 1006 2965 4 MP
DP
-41 71 -41 -71 82 0 1201 2853 4 MP
DP
-41 71 -41 -71 82 0 1397 2670 4 MP
DP
-41 71 -41 -71 82 0 1592 2718 4 MP
DP
-41 71 -41 -71 82 0 1788 2285 4 MP
DP
-41 71 -41 -71 82 0 1983 2403 4 MP
DP
-41 71 -41 -71 82 0 2179 1880 4 MP
DP
-41 71 -41 -71 82 0 2374 2010 4 MP
DP
-41 71 -41 -71 82 0 2570 1961 4 MP
DP
-41 71 -41 -71 82 0 2765 1565 4 MP
DP
-41 71 -41 -71 82 0 2961 1551 4 MP
DP
-41 71 -41 -71 82 0 3156 1617 4 MP
DP
-41 71 -41 -71 82 0 3352 1543 4 MP
DP
-41 71 -41 -71 82 0 3547 1094 4 MP
DP
-41 71 -41 -71 82 0 3743 1026 4 MP
DP
-41 71 -41 -71 82 0 3938 781 4 MP
DP
-41 71 -41 -71 82 0 4134 687 4 MP
DP
-41 71 -41 -71 82 0 4329 308 4 MP
DP
-41 71 -41 -71 82 0 4525 308 4 MP
DP
gs 656 284 3911 3033 rc
/c10 { 1.000000 0.000000 0.000000 sr} bdef
c10
196 -159 195 -193 196 147 195 -284 196 -231 195 -336 196 -14 195 -162 
196 -338 195 42 196 -340 195 -106 196 -145 195 5 196 -311 195 -50 
196 -181 195 -2 196 -272 195 -38 656 3252 21 MP stroke
gr

c10
  36   36  656 3252 FO
  36   36  851 3214 FO
  36   36 1047 2942 FO
  36   36 1242 2940 FO
  36   36 1438 2759 FO
  36   36 1633 2709 FO
  36   36 1829 2398 FO
  36   36 2024 2403 FO
  36   36 2220 2258 FO
  36   36 2415 2152 FO
  36   36 2611 1812 FO
  36   36 2806 1854 FO
  36   36 3002 1516 FO
  36   36 3197 1354 FO
  36   36 3393 1340 FO
  36   36 3588 1004 FO
  36   36 3784  773 FO
  36   36 3979  489 FO
  36   36 4175  636 FO
  36   36 4370  443 FO
  36   36 4566  284 FO
gs 656 284 3911 3033 rc
/c11 { 0.000000 0.750000 0.750000 sr} bdef
c11
196 -121 195 -216 196 15 195 -281 196 -19 195 -190 196 -97 195 -172 
196 -288 195 -40 196 -294 195 -75 196 -109 195 -104 196 -158 195 -117 
196 -278 195 -149 196 -71 195 -172 656 3288 21 MP stroke
gr

c11
0 -58 -58 0 0 58 58 0 627 3259 5 MP
DP
0 -58 -58 0 0 58 58 0 822 3087 5 MP
DP
0 -58 -58 0 0 58 58 0 1018 3016 5 MP
DP
0 -58 -58 0 0 58 58 0 1213 2867 5 MP
DP
0 -58 -58 0 0 58 58 0 1409 2589 5 MP
DP
0 -58 -58 0 0 58 58 0 1604 2472 5 MP
DP
0 -58 -58 0 0 58 58 0 1800 2314 5 MP
DP
0 -58 -58 0 0 58 58 0 1995 2210 5 MP
DP
0 -58 -58 0 0 58 58 0 2191 2101 5 MP
DP
0 -58 -58 0 0 58 58 0 2386 2026 5 MP
DP
0 -58 -58 0 0 58 58 0 2582 1732 5 MP
DP
0 -58 -58 0 0 58 58 0 2777 1692 5 MP
DP
0 -58 -58 0 0 58 58 0 2973 1404 5 MP
DP
0 -58 -58 0 0 58 58 0 3168 1232 5 MP
DP
0 -58 -58 0 0 58 58 0 3364 1135 5 MP
DP
0 -58 -58 0 0 58 58 0 3559 945 5 MP
DP
0 -58 -58 0 0 58 58 0 3755 926 5 MP
DP
0 -58 -58 0 0 58 58 0 3950 645 5 MP
DP
0 -58 -58 0 0 58 58 0 4146 660 5 MP
DP
0 -58 -58 0 0 58 58 0 4341 444 5 MP
DP
0 -58 -58 0 0 58 58 0 4537 323 5 MP
DP
gs 656 284 3911 3033 rc
/c12 { 0.750000 0.000000 0.750000 sr} bdef
c12
196 -150 195 -90 196 -18 195 -376 196 -29 195 -174 196 -100 195 -293 
196 -95 195 -147 196 -172 195 -40 196 -192 195 -271 196 -100 195 -98 
196 -125 195 -147 196 -169 195 -163 656 3272 21 MP stroke
gr

c12
-41 71 -41 -71 82 0 615 3296 4 MP
DP
-41 71 -41 -71 82 0 810 3133 4 MP
DP
-41 71 -41 -71 82 0 1006 2964 4 MP
DP
-41 71 -41 -71 82 0 1201 2817 4 MP
DP
-41 71 -41 -71 82 0 1397 2692 4 MP
DP
-41 71 -41 -71 82 0 1592 2594 4 MP
DP
-41 71 -41 -71 82 0 1788 2494 4 MP
DP
-41 71 -41 -71 82 0 1983 2223 4 MP
DP
-41 71 -41 -71 82 0 2179 2031 4 MP
DP
-41 71 -41 -71 82 0 2374 1991 4 MP
DP
-41 71 -41 -71 82 0 2570 1819 4 MP
DP
-41 71 -41 -71 82 0 2765 1672 4 MP
DP
-41 71 -41 -71 82 0 2961 1577 4 MP
DP
-41 71 -41 -71 82 0 3156 1284 4 MP
DP
-41 71 -41 -71 82 0 3352 1184 4 MP
DP
-41 71 -41 -71 82 0 3547 1010 4 MP
DP
-41 71 -41 -71 82 0 3743 981 4 MP
DP
-41 71 -41 -71 82 0 3938 605 4 MP
DP
-41 71 -41 -71 82 0 4134 587 4 MP
DP
-41 71 -41 -71 82 0 4329 497 4 MP
DP
-41 71 -41 -71 82 0 4525 347 4 MP
DP
gs 656 284 3911 3033 rc
gr

0 sg
%%IncludeResource: font Arial
/Arial /WindowsLatin1Encoding 240 FMSR

1711 3726 mt 
(SINR Values\(dB\)) s
 252 2595 mt  -90 rotate
(Percentage\(%\)) s
90 rotate
%%IncludeResource: font Arial
/Arial /WindowsLatin1Encoding 120 FMSR

 639 3359 mt 
( ) s
4550  326 mt 
( ) s
1 sg
0 982 1689 0 0 -982 716 1326 4 MP
PP
-1689 0 0 982 1689 0 0 -982 716 1326 5 MP stroke
4 w
DO
SO
6 w
0 sg
 716  344 mt 2405  344 L
 716 1326 mt 2405 1326 L
2405 1326 mt 2405  344 L
 716 1326 mt  716  344 L
 716 1326 mt 2405 1326 L
 716 1326 mt  716  344 L
 716  344 mt 2405  344 L
 716 1326 mt 2405 1326 L
2405 1326 mt 2405  344 L
 716 1326 mt  716  344 L
%%IncludeResource: font Arial
/Arial /WindowsLatin1Encoding 156 FMSR

1169  512 mt 
(aim\(rounds=100\)) s
gs 716 344 1690 983 rc
c8
348 0 785 457 2 MP stroke
gs 886 384 147 147 rc
 923  457 mt  995  457 L
 959  421 mt  959  493 L
 934  432 mt  984  482 L
 984  432 mt  934  482 L
gr

gr

c8
0 sg
1169  701 mt 
(aim\(rounds=300\)) s
gs 716 344 1690 983 rc
c9
348 0 785 646 2 MP stroke
gs 886 573 147 147 rc
-41 71 -41 -71 82 0 918 670 4 MP
DP
gr

gr

c9
0 sg
1169  891 mt 
(aim\(rounds=500\)) s
gs 716 344 1690 983 rc
c10
348 0 785 835 2 MP stroke
gs 886 762 147 147 rc
  36   36  959  835 FO
gr

gr

c10
0 sg
1169 1080 mt 
(pim) s
gs 716 344 1690 983 rc
c11
348 0 785 1023 2 MP stroke
gs 886 950 147 147 rc
0 -58 -58 0 0 58 58 0 930 994 5 MP
DP
gr

gr

c11
0 sg
1169 1269 mt 
(eim) s
gs 716 344 1690 983 rc
c12
348 0 785 1212 2 MP stroke
gs 886 1139 147 147 rc
-41 71 -41 -71 82 0 918 1236 4 MP
DP
gr

gr

c12

end %%Color Dict

eplot
%%EndObject

epage
end

showpage

%%Trailer
%%EOF
