%!PS-Adobe-3.0 EPSF-3.0
%%Creator: MATLAB, The Mathworks, Inc. Version 7.5.0.342 (R2007b). Operating System: Microsoft Windows Vista.
%%Title: C:\Research\SECON & MobiHoc\sinr_prr.eps
%%CreationDate: 12/11/2012  15:09:25
%%DocumentNeededFonts: Arial
%%DocumentProcessColors: Cyan Magenta Yellow Black
%%LanguageLevel: 2
%%Pages: 1
%%BoundingBox:    87   262   507   578
%%EndComments

%%BeginProlog
% MathWorks dictionary
/MathWorks 160 dict begin
% definition operators
/bdef {bind def} bind def
/ldef {load def} bind def
/xdef {exch def} bdef
/xstore {exch store} bdef
% operator abbreviations
/c  /clip ldef
/cc /concat ldef
/cp /closepath ldef
/gr /grestore ldef
/gs /gsave ldef
/mt /moveto ldef
/np /newpath ldef
/cm /currentmatrix ldef
/sm /setmatrix ldef
/rm /rmoveto ldef
/rl /rlineto ldef
/s {show newpath} bdef
/sc {setcmykcolor} bdef
/sr /setrgbcolor ldef
/sg /setgray ldef
/w /setlinewidth ldef
/j /setlinejoin ldef
/cap /setlinecap ldef
/rc {rectclip} bdef
/rf {rectfill} bdef
% page state control
/pgsv () def
/bpage {/pgsv save def} bdef
/epage {pgsv restore} bdef
/bplot /gsave ldef
/eplot {stroke grestore} bdef
% orientation switch
/portraitMode 0 def /landscapeMode 1 def /rotateMode 2 def
% coordinate system mappings
/dpi2point 0 def
% font control
/FontSize 0 def
/FMS {/FontSize xstore findfont [FontSize 0 0 FontSize neg 0 0]
  makefont setfont} bdef
/ISOLatin1Encoding where {pop /WindowsLatin1Encoding 256 array bdef
ISOLatin1Encoding WindowsLatin1Encoding copy pop
/.notdef/.notdef/quotesinglbase/florin/quotedblbase/ellipsis/dagger
/daggerdbl/circumflex/perthousand/Scaron/guilsinglleft/OE/.notdef/.notdef
/.notdef/.notdef/quoteleft/quoteright/quotedblleft/quotedblright/bullet
/endash/emdash/tilde/trademark/scaron/guilsinglright/oe/.notdef/.notdef
/Ydieresis WindowsLatin1Encoding 128 32 getinterval astore pop}
{/WindowsLatin1Encoding StandardEncoding bdef} ifelse
/reencode {exch dup where {pop load} {pop StandardEncoding} ifelse
  exch dup 3 1 roll findfont dup length dict begin
  { 1 index /FID ne {def}{pop pop} ifelse } forall
  /Encoding exch def currentdict end definefont pop} bdef
/isroman {findfont /CharStrings get /Agrave known} bdef
/FMSR {3 1 roll 1 index dup isroman {reencode} {pop pop} ifelse
  exch FMS} bdef
/csm {1 dpi2point div -1 dpi2point div scale neg translate
 dup landscapeMode eq {pop -90 rotate}
  {rotateMode eq {90 rotate} if} ifelse} bdef
% line types: solid, dotted, dashed, dotdash
/SO { [] 0 setdash } bdef
/DO { [.5 dpi2point mul 4 dpi2point mul] 0 setdash } bdef
/DA { [6 dpi2point mul] 0 setdash } bdef
/DD { [.5 dpi2point mul 4 dpi2point mul 6 dpi2point mul 4
  dpi2point mul] 0 setdash } bdef
% macros for lines and objects
/L {lineto stroke} bdef
/MP {3 1 roll moveto 1 sub {rlineto} repeat} bdef
/AP {{rlineto} repeat} bdef
/PDlw -1 def
/W {/PDlw currentlinewidth def setlinewidth} def
/PP {closepath eofill} bdef
/DP {closepath stroke} bdef
/MR {4 -2 roll moveto dup  0 exch rlineto exch 0 rlineto
  neg 0 exch rlineto closepath} bdef
/FR {MR stroke} bdef
/PR {MR fill} bdef
/L1i {{currentfile picstr readhexstring pop} image} bdef
/tMatrix matrix def
/MakeOval {newpath tMatrix currentmatrix pop translate scale
0 0 1 0 360 arc tMatrix setmatrix} bdef
/FO {MakeOval stroke} bdef
/PO {MakeOval fill} bdef
/PD {currentlinewidth 2 div 0 360 arc fill
   PDlw -1 eq not {PDlw w /PDlw -1 def} if} def
/FA {newpath tMatrix currentmatrix pop translate scale
  0 0 1 5 -2 roll arc tMatrix setmatrix stroke} bdef
/PA {newpath tMatrix currentmatrix pop	translate 0 0 moveto scale
  0 0 1 5 -2 roll arc closepath tMatrix setmatrix fill} bdef
/FAn {newpath tMatrix currentmatrix pop translate scale
  0 0 1 5 -2 roll arcn tMatrix setmatrix stroke} bdef
/PAn {newpath tMatrix currentmatrix pop translate 0 0 moveto scale
  0 0 1 5 -2 roll arcn closepath tMatrix setmatrix fill} bdef
/vradius 0 def /hradius 0 def /lry 0 def
/lrx 0 def /uly 0 def /ulx 0 def /rad 0 def
/MRR {/vradius xdef /hradius xdef /lry xdef /lrx xdef /uly xdef
  /ulx xdef newpath tMatrix currentmatrix pop ulx hradius add uly
  vradius add translate hradius vradius scale 0 0 1 180 270 arc 
  tMatrix setmatrix lrx hradius sub uly vradius add translate
  hradius vradius scale 0 0 1 270 360 arc tMatrix setmatrix
  lrx hradius sub lry vradius sub translate hradius vradius scale
  0 0 1 0 90 arc tMatrix setmatrix ulx hradius add lry vradius sub
  translate hradius vradius scale 0 0 1 90 180 arc tMatrix setmatrix
  closepath} bdef
/FRR {MRR stroke } bdef
/PRR {MRR fill } bdef
/MlrRR {/lry xdef /lrx xdef /uly xdef /ulx xdef /rad lry uly sub 2 div def
  newpath tMatrix currentmatrix pop ulx rad add uly rad add translate
  rad rad scale 0 0 1 90 270 arc tMatrix setmatrix lrx rad sub lry rad
  sub translate rad rad scale 0 0 1 270 90 arc tMatrix setmatrix
  closepath} bdef
/FlrRR {MlrRR stroke } bdef
/PlrRR {MlrRR fill } bdef
/MtbRR {/lry xdef /lrx xdef /uly xdef /ulx xdef /rad lrx ulx sub 2 div def
  newpath tMatrix currentmatrix pop ulx rad add uly rad add translate
  rad rad scale 0 0 1 180 360 arc tMatrix setmatrix lrx rad sub lry rad
  sub translate rad rad scale 0 0 1 0 180 arc tMatrix setmatrix
  closepath} bdef
/FtbRR {MtbRR stroke } bdef
/PtbRR {MtbRR fill } bdef
/stri 6 array def /dtri 6 array def
/smat 6 array def /dmat 6 array def
/tmat1 6 array def /tmat2 6 array def /dif 3 array def
/asub {/ind2 exch def /ind1 exch def dup dup
  ind1 get exch ind2 get sub exch } bdef
/tri_to_matrix {
  2 0 asub 3 1 asub 4 0 asub 5 1 asub
  dup 0 get exch 1 get 7 -1 roll astore } bdef
/compute_transform {
  dmat dtri tri_to_matrix tmat1 invertmatrix 
  smat stri tri_to_matrix tmat2 concatmatrix } bdef
/ds {stri astore pop} bdef
/dt {dtri astore pop} bdef
/db {2 copy /cols xdef /rows xdef mul dup 3 mul string
  currentfile 
  3 index 0 eq {/ASCIIHexDecode filter}
  {/ASCII85Decode filter 3 index 2 eq {/RunLengthDecode filter} if }
  ifelse exch readstring pop
  dup 0 3 index getinterval /rbmap xdef
  dup 2 index dup getinterval /gbmap xdef
  1 index dup 2 mul exch getinterval /bbmap xdef pop pop}bdef
/it {gs np dtri aload pop moveto lineto lineto cp c
  cols rows 8 compute_transform 
  rbmap gbmap bbmap true 3 colorimage gr}bdef
/il {newpath moveto lineto stroke}bdef
currentdict end def
%%EndProlog

%%BeginSetup
MathWorks begin

0 cap

end
%%EndSetup

%%Page: 1 1
%%BeginPageSetup
%%PageBoundingBox:    87   262   507   578
MathWorks begin
bpage
%%EndPageSetup

%%BeginObject: obj1
bplot

/dpi2point 12 def
portraitMode 1044 6936 csm

    0     0  5045  3782 rc
85 dict begin %Colortable dictionary
/c0 { 0.000000 0.000000 0.000000 sr} bdef
/c1 { 1.000000 1.000000 1.000000 sr} bdef
/c2 { 0.900000 0.000000 0.000000 sr} bdef
/c3 { 0.000000 0.820000 0.000000 sr} bdef
/c4 { 0.000000 0.000000 0.800000 sr} bdef
/c5 { 0.910000 0.820000 0.320000 sr} bdef
/c6 { 1.000000 0.260000 0.820000 sr} bdef
/c7 { 0.000000 0.820000 0.820000 sr} bdef
c0
1 j
1 sg
   0    0 5046 3783 rf
6 w
0 3032 3910 0 0 -3032 656 3316 4 MP
PP
-3910 0 0 3032 3910 0 0 -3032 656 3316 5 MP stroke
4 w
DO
SO
6 w
0 sg
 656  284 mt 4566  284 L
 656 3316 mt 4566 3316 L
4566 3316 mt 4566  284 L
 656 3316 mt  656  284 L
 656 3316 mt 4566 3316 L
 656 3316 mt  656  284 L
 656 3316 mt  656 3276 L
 656  284 mt  656  323 L
%%IncludeResource: font Arial
/Arial /WindowsLatin1Encoding 156 FMSR

 523 3495 mt 
(-2) s
1144 3316 mt 1144 3276 L
1144  284 mt 1144  323 L
 946 3495 mt 
(-1.5) s
1633 3316 mt 1633 3276 L
1633  284 mt 1633  323 L
1500 3495 mt 
(-1) s
2122 3316 mt 2122 3276 L
2122  284 mt 2122  323 L
1924 3495 mt 
(-0.5) s
2611 3316 mt 2611 3276 L
2611  284 mt 2611  323 L
2568 3495 mt 
(0) s
3099 3316 mt 3099 3276 L
3099  284 mt 3099  323 L
2991 3495 mt 
(0.5) s
3588 3316 mt 3588 3276 L
3588  284 mt 3588  323 L
3545 3495 mt 
(1) s
4077 3316 mt 4077 3276 L
4077  284 mt 4077  323 L
3969 3495 mt 
(1.5) s
4566 3316 mt 4566 3276 L
4566  284 mt 4566  323 L
4523 3495 mt 
(2) s
 656 3316 mt  695 3316 L
4566 3316 mt 4526 3316 L
 535 3374 mt 
(0) s
 656 3012 mt  695 3012 L
4566 3012 mt 4526 3012 L
 448 3070 mt 
(10) s
 656 2709 mt  695 2709 L
4566 2709 mt 4526 2709 L
 448 2767 mt 
(20) s
 656 2406 mt  695 2406 L
4566 2406 mt 4526 2406 L
 448 2464 mt 
(30) s
 656 2103 mt  695 2103 L
4566 2103 mt 4526 2103 L
 448 2161 mt 
(40) s
 656 1800 mt  695 1800 L
4566 1800 mt 4526 1800 L
 448 1858 mt 
(50) s
 656 1496 mt  695 1496 L
4566 1496 mt 4526 1496 L
 448 1554 mt 
(60) s
 656 1193 mt  695 1193 L
4566 1193 mt 4526 1193 L
 448 1251 mt 
(70) s
 656  890 mt  695  890 L
4566  890 mt 4526  890 L
 448  948 mt 
(80) s
 656  587 mt  695  587 L
4566  587 mt 4526  587 L
 448  645 mt 
(90) s
 656  284 mt  695  284 L
4566  284 mt 4526  284 L
 361  342 mt 
(100) s
 656  284 mt 4566  284 L
 656 3316 mt 4566 3316 L
4566 3316 mt 4566  284 L
 656 3316 mt  656  284 L
gs 656 284 3911 3033 rc
/c8 { 0.000000 0.000000 1.000000 sr} bdef
c8
196 -478 195 347 196 -695 195 199 196 -532 195 179 196 -379 195 389 
196 -546 195 33 196 -875 195 525 196 -37 195 -65 196 -437 195 -35 
196 180 195 -426 196 -379 195 86 656 3230 21 MP stroke
gr

c8
 620 3230 mt  692 3230 L
 656 3194 mt  656 3266 L
 815 3316 mt  887 3316 L
 851 3280 mt  851 3352 L
1011 2937 mt 1083 2937 L
1047 2901 mt 1047 2973 L
1206 2511 mt 1278 2511 L
1242 2475 mt 1242 2547 L
1402 2691 mt 1474 2691 L
1438 2655 mt 1438 2727 L
1597 2656 mt 1669 2656 L
1633 2620 mt 1633 2692 L
1793 2219 mt 1865 2219 L
1829 2183 mt 1829 2255 L
1988 2154 mt 2060 2154 L
2024 2118 mt 2024 2190 L
2184 2117 mt 2256 2117 L
2220 2081 mt 2220 2153 L
2379 2642 mt 2451 2642 L
2415 2606 mt 2415 2678 L
2575 1767 mt 2647 1767 L
2611 1731 mt 2611 1803 L
2770 1800 mt 2842 1800 L
2806 1764 mt 2806 1836 L
2966 1254 mt 3038 1254 L
3002 1218 mt 3002 1290 L
3161 1643 mt 3233 1643 L
3197 1607 mt 3197 1679 L
3357 1264 mt 3429 1264 L
3393 1228 mt 3393 1300 L
3552 1443 mt 3624 1443 L
3588 1407 mt 3588 1479 L
3748  911 mt 3820  911 L
3784  875 mt 3784  947 L
3943 1110 mt 4015 1110 L
3979 1074 mt 3979 1146 L
4139  415 mt 4211  415 L
4175  379 mt 4175  451 L
4334  762 mt 4406  762 L
4370  726 mt 4370  798 L
4530  284 mt 4602  284 L
4566  248 mt 4566  320 L
 631 3205 mt  681 3255 L
 681 3205 mt  631 3255 L
 826 3291 mt  876 3341 L
 876 3291 mt  826 3341 L
1022 2912 mt 1072 2962 L
1072 2912 mt 1022 2962 L
1217 2486 mt 1267 2536 L
1267 2486 mt 1217 2536 L
1413 2666 mt 1463 2716 L
1463 2666 mt 1413 2716 L
1608 2631 mt 1658 2681 L
1658 2631 mt 1608 2681 L
1804 2194 mt 1854 2244 L
1854 2194 mt 1804 2244 L
1999 2129 mt 2049 2179 L
2049 2129 mt 1999 2179 L
2195 2092 mt 2245 2142 L
2245 2092 mt 2195 2142 L
2390 2617 mt 2440 2667 L
2440 2617 mt 2390 2667 L
2586 1742 mt 2636 1792 L
2636 1742 mt 2586 1792 L
2781 1775 mt 2831 1825 L
2831 1775 mt 2781 1825 L
2977 1229 mt 3027 1279 L
3027 1229 mt 2977 1279 L
3172 1618 mt 3222 1668 L
3222 1618 mt 3172 1668 L
3368 1239 mt 3418 1289 L
3418 1239 mt 3368 1289 L
3563 1418 mt 3613 1468 L
3613 1418 mt 3563 1468 L
3759  886 mt 3809  936 L
3809  886 mt 3759  936 L
3954 1085 mt 4004 1135 L
4004 1085 mt 3954 1135 L
4150  390 mt 4200  440 L
4200  390 mt 4150  440 L
4345  737 mt 4395  787 L
4395  737 mt 4345  787 L
4541  259 mt 4591  309 L
4591  259 mt 4541  309 L
gs 656 284 3911 3033 rc
/c9 { 0.000000 0.500000 0.000000 sr} bdef
c9
196 -107 195 -366 196 -239 195 122 196 -30 195 -135 196 -94 195 -238 
196 -84 195 -414 196 244 195 -526 196 174 195 -608 196 133 195 -13 
196 -413 195 -6 196 -182 195 -170 656 3282 21 MP stroke
gr

c9
0 j
-41 71 -41 -71 82 0 615 3306 4 MP
DP
-41 71 -41 -71 82 0 810 3136 4 MP
DP
-41 71 -41 -71 82 0 1006 2954 4 MP
DP
-41 71 -41 -71 82 0 1201 2948 4 MP
DP
-41 71 -41 -71 82 0 1397 2535 4 MP
DP
-41 71 -41 -71 82 0 1592 2522 4 MP
DP
-41 71 -41 -71 82 0 1788 2655 4 MP
DP
-41 71 -41 -71 82 0 1983 2047 4 MP
DP
-41 71 -41 -71 82 0 2179 2221 4 MP
DP
-41 71 -41 -71 82 0 2374 1695 4 MP
DP
-41 71 -41 -71 82 0 2570 1939 4 MP
DP
-41 71 -41 -71 82 0 2765 1525 4 MP
DP
-41 71 -41 -71 82 0 2961 1441 4 MP
DP
-41 71 -41 -71 82 0 3156 1203 4 MP
DP
-41 71 -41 -71 82 0 3352 1109 4 MP
DP
-41 71 -41 -71 82 0 3547 974 4 MP
DP
-41 71 -41 -71 82 0 3743 944 4 MP
DP
-41 71 -41 -71 82 0 3938 1066 4 MP
DP
-41 71 -41 -71 82 0 4134 827 4 MP
DP
-41 71 -41 -71 82 0 4329 461 4 MP
DP
-41 71 -41 -71 82 0 4525 354 4 MP
DP
gs 656 284 3911 3033 rc
/c10 { 1.000000 0.000000 0.000000 sr} bdef
c10
196 -258 195 32 196 -69 195 -279 196 -119 195 -211 196 53 195 -215 
196 -103 195 -146 196 -308 195 -105 196 -155 195 -426 196 74 195 -111 
196 -193 195 -111 196 -113 195 -170 656 3264 21 MP stroke
gr

c10
  36   36  656 3264 FO
  36   36  851 3094 FO
  36   36 1047 2981 FO
  36   36 1242 2870 FO
  36   36 1438 2677 FO
  36   36 1633 2566 FO
  36   36 1829 2640 FO
  36   36 2024 2214 FO
  36   36 2220 2059 FO
  36   36 2415 1954 FO
  36   36 2611 1646 FO
  36   36 2806 1500 FO
  36   36 3002 1397 FO
  36   36 3197 1182 FO
  36   36 3393 1235 FO
  36   36 3588 1024 FO
  36   36 3784  905 FO
  36   36 3979  626 FO
  36   36 4175  557 FO
  36   36 4370  589 FO
  36   36 4566  331 FO
gs 656 284 3911 3033 rc
/c11 { 0.000000 0.750000 0.750000 sr} bdef
c11
196 -190 195 -124 196 -122 195 -120 196 -222 195 -105 196 -209 195 -190 
196 3 195 -155 196 -244 195 -99 196 -100 195 -107 196 -202 195 -201 
196 -120 195 -148 196 -157 195 -163 656 3282 21 MP stroke
gr

c11
0 -58 -58 0 0 58 58 0 627 3253 5 MP
DP
0 -58 -58 0 0 58 58 0 822 3090 5 MP
DP
0 -58 -58 0 0 58 58 0 1018 2933 5 MP
DP
0 -58 -58 0 0 58 58 0 1213 2785 5 MP
DP
0 -58 -58 0 0 58 58 0 1409 2665 5 MP
DP
0 -58 -58 0 0 58 58 0 1604 2464 5 MP
DP
0 -58 -58 0 0 58 58 0 1800 2262 5 MP
DP
0 -58 -58 0 0 58 58 0 1995 2155 5 MP
DP
0 -58 -58 0 0 58 58 0 2191 2055 5 MP
DP
0 -58 -58 0 0 58 58 0 2386 1956 5 MP
DP
0 -58 -58 0 0 58 58 0 2582 1712 5 MP
DP
0 -58 -58 0 0 58 58 0 2777 1557 5 MP
DP
0 -58 -58 0 0 58 58 0 2973 1560 5 MP
DP
0 -58 -58 0 0 58 58 0 3168 1370 5 MP
DP
0 -58 -58 0 0 58 58 0 3364 1161 5 MP
DP
0 -58 -58 0 0 58 58 0 3559 1056 5 MP
DP
0 -58 -58 0 0 58 58 0 3755 834 5 MP
DP
0 -58 -58 0 0 58 58 0 3950 714 5 MP
DP
0 -58 -58 0 0 58 58 0 4146 592 5 MP
DP
0 -58 -58 0 0 58 58 0 4341 468 5 MP
DP
0 -58 -58 0 0 58 58 0 4537 278 5 MP
DP
gs 656 284 3911 3033 rc
/c12 { 0.750000 0.000000 0.750000 sr} bdef
c12
196 -175 195 -91 196 -159 195 -126 196 -180 195 -171 196 -67 195 -138 
196 -329 195 -164 196 102 195 -231 196 -101 195 -251 196 -158 195 -145 
196 -127 195 -124 196 -121 195 -155 656 3250 21 MP stroke
gr

c12
-41 71 -41 -71 82 0 615 3274 4 MP
DP
-41 71 -41 -71 82 0 810 3119 4 MP
DP
-41 71 -41 -71 82 0 1006 2998 4 MP
DP
-41 71 -41 -71 82 0 1201 2874 4 MP
DP
-41 71 -41 -71 82 0 1397 2747 4 MP
DP
-41 71 -41 -71 82 0 1592 2602 4 MP
DP
-41 71 -41 -71 82 0 1788 2444 4 MP
DP
-41 71 -41 -71 82 0 1983 2193 4 MP
DP
-41 71 -41 -71 82 0 2179 2092 4 MP
DP
-41 71 -41 -71 82 0 2374 1861 4 MP
DP
-41 71 -41 -71 82 0 2570 1963 4 MP
DP
-41 71 -41 -71 82 0 2765 1799 4 MP
DP
-41 71 -41 -71 82 0 2961 1470 4 MP
DP
-41 71 -41 -71 82 0 3156 1332 4 MP
DP
-41 71 -41 -71 82 0 3352 1265 4 MP
DP
-41 71 -41 -71 82 0 3547 1094 4 MP
DP
-41 71 -41 -71 82 0 3743 914 4 MP
DP
-41 71 -41 -71 82 0 3938 788 4 MP
DP
-41 71 -41 -71 82 0 4134 629 4 MP
DP
-41 71 -41 -71 82 0 4329 538 4 MP
DP
-41 71 -41 -71 82 0 4525 363 4 MP
DP
gs 656 284 3911 3033 rc
gr

0 sg
%%IncludeResource: font Arial
/Arial /WindowsLatin1Encoding 240 FMSR

1711 3726 mt 
(SINR Values\(dB\)) s
 252 2595 mt  -90 rotate
(Percentage\(%\)) s
90 rotate
%%IncludeResource: font Arial
/Arial /WindowsLatin1Encoding 120 FMSR

 639 3359 mt 
( ) s
4550  326 mt 
( ) s
1 sg
0 982 1689 0 0 -982 716 1326 4 MP
PP
-1689 0 0 982 1689 0 0 -982 716 1326 5 MP stroke
4 w
DO
SO
6 w
0 sg
 716  344 mt 2405  344 L
 716 1326 mt 2405 1326 L
2405 1326 mt 2405  344 L
 716 1326 mt  716  344 L
 716 1326 mt 2405 1326 L
 716 1326 mt  716  344 L
 716  344 mt 2405  344 L
 716 1326 mt 2405 1326 L
2405 1326 mt 2405  344 L
 716 1326 mt  716  344 L
%%IncludeResource: font Arial
/Arial /WindowsLatin1Encoding 156 FMSR

1169  512 mt 
(aim\(rounds=100\)) s
gs 716 344 1690 983 rc
c8
348 0 785 457 2 MP stroke
gs 886 384 147 147 rc
 923  457 mt  995  457 L
 959  421 mt  959  493 L
 934  432 mt  984  482 L
 984  432 mt  934  482 L
gr

gr

c8
0 sg
1169  701 mt 
(aim\(rounds=300\)) s
gs 716 344 1690 983 rc
c9
348 0 785 646 2 MP stroke
gs 886 573 147 147 rc
-41 71 -41 -71 82 0 918 670 4 MP
DP
gr

gr

c9
0 sg
1169  891 mt 
(aim\(rounds=500\)) s
gs 716 344 1690 983 rc
c10
348 0 785 835 2 MP stroke
gs 886 762 147 147 rc
  36   36  959  835 FO
gr

gr

c10
0 sg
1169 1080 mt 
(pim) s
gs 716 344 1690 983 rc
c11
348 0 785 1023 2 MP stroke
gs 886 950 147 147 rc
0 -58 -58 0 0 58 58 0 930 994 5 MP
DP
gr

gr

c11
0 sg
1169 1269 mt 
(eim) s
gs 716 344 1690 983 rc
c12
348 0 785 1212 2 MP stroke
gs 886 1139 147 147 rc
-41 71 -41 -71 82 0 918 1236 4 MP
DP
gr

gr

c12

end %%Color Dict

eplot
%%EndObject

epage
end

showpage

%%Trailer
%%EOF
