%!PS-Adobe-3.0 EPSF-3.0
%%Creator: MATLAB, The Mathworks, Inc. Version 7.5.0.342 (R2007b). Operating System: Microsoft Windows Vista.
%%Title: C:\Research\Interference Measurement\paper draft\figures\schedule_comparision.eps
%%CreationDate: 12/29/2012  21:49:30
%%DocumentNeededFonts: Arial
%%DocumentProcessColors: Cyan Magenta Yellow Black
%%LanguageLevel: 2
%%Pages: 1
%%BoundingBox:    87   262   507   578
%%EndComments

%%BeginProlog
% MathWorks dictionary
/MathWorks 160 dict begin
% definition operators
/bdef {bind def} bind def
/ldef {load def} bind def
/xdef {exch def} bdef
/xstore {exch store} bdef
% operator abbreviations
/c  /clip ldef
/cc /concat ldef
/cp /closepath ldef
/gr /grestore ldef
/gs /gsave ldef
/mt /moveto ldef
/np /newpath ldef
/cm /currentmatrix ldef
/sm /setmatrix ldef
/rm /rmoveto ldef
/rl /rlineto ldef
/s {show newpath} bdef
/sc {setcmykcolor} bdef
/sr /setrgbcolor ldef
/sg /setgray ldef
/w /setlinewidth ldef
/j /setlinejoin ldef
/cap /setlinecap ldef
/rc {rectclip} bdef
/rf {rectfill} bdef
% page state control
/pgsv () def
/bpage {/pgsv save def} bdef
/epage {pgsv restore} bdef
/bplot /gsave ldef
/eplot {stroke grestore} bdef
% orientation switch
/portraitMode 0 def /landscapeMode 1 def /rotateMode 2 def
% coordinate system mappings
/dpi2point 0 def
% font control
/FontSize 0 def
/FMS {/FontSize xstore findfont [FontSize 0 0 FontSize neg 0 0]
  makefont setfont} bdef
/ISOLatin1Encoding where {pop /WindowsLatin1Encoding 256 array bdef
ISOLatin1Encoding WindowsLatin1Encoding copy pop
/.notdef/.notdef/quotesinglbase/florin/quotedblbase/ellipsis/dagger
/daggerdbl/circumflex/perthousand/Scaron/guilsinglleft/OE/.notdef/.notdef
/.notdef/.notdef/quoteleft/quoteright/quotedblleft/quotedblright/bullet
/endash/emdash/tilde/trademark/scaron/guilsinglright/oe/.notdef/.notdef
/Ydieresis WindowsLatin1Encoding 128 32 getinterval astore pop}
{/WindowsLatin1Encoding StandardEncoding bdef} ifelse
/reencode {exch dup where {pop load} {pop StandardEncoding} ifelse
  exch dup 3 1 roll findfont dup length dict begin
  { 1 index /FID ne {def}{pop pop} ifelse } forall
  /Encoding exch def currentdict end definefont pop} bdef
/isroman {findfont /CharStrings get /Agrave known} bdef
/FMSR {3 1 roll 1 index dup isroman {reencode} {pop pop} ifelse
  exch FMS} bdef
/csm {1 dpi2point div -1 dpi2point div scale neg translate
 dup landscapeMode eq {pop -90 rotate}
  {rotateMode eq {90 rotate} if} ifelse} bdef
% line types: solid, dotted, dashed, dotdash
/SO { [] 0 setdash } bdef
/DO { [.5 dpi2point mul 4 dpi2point mul] 0 setdash } bdef
/DA { [6 dpi2point mul] 0 setdash } bdef
/DD { [.5 dpi2point mul 4 dpi2point mul 6 dpi2point mul 4
  dpi2point mul] 0 setdash } bdef
% macros for lines and objects
/L {lineto stroke} bdef
/MP {3 1 roll moveto 1 sub {rlineto} repeat} bdef
/AP {{rlineto} repeat} bdef
/PDlw -1 def
/W {/PDlw currentlinewidth def setlinewidth} def
/PP {closepath eofill} bdef
/DP {closepath stroke} bdef
/MR {4 -2 roll moveto dup  0 exch rlineto exch 0 rlineto
  neg 0 exch rlineto closepath} bdef
/FR {MR stroke} bdef
/PR {MR fill} bdef
/L1i {{currentfile picstr readhexstring pop} image} bdef
/tMatrix matrix def
/MakeOval {newpath tMatrix currentmatrix pop translate scale
0 0 1 0 360 arc tMatrix setmatrix} bdef
/FO {MakeOval stroke} bdef
/PO {MakeOval fill} bdef
/PD {currentlinewidth 2 div 0 360 arc fill
   PDlw -1 eq not {PDlw w /PDlw -1 def} if} def
/FA {newpath tMatrix currentmatrix pop translate scale
  0 0 1 5 -2 roll arc tMatrix setmatrix stroke} bdef
/PA {newpath tMatrix currentmatrix pop	translate 0 0 moveto scale
  0 0 1 5 -2 roll arc closepath tMatrix setmatrix fill} bdef
/FAn {newpath tMatrix currentmatrix pop translate scale
  0 0 1 5 -2 roll arcn tMatrix setmatrix stroke} bdef
/PAn {newpath tMatrix currentmatrix pop translate 0 0 moveto scale
  0 0 1 5 -2 roll arcn closepath tMatrix setmatrix fill} bdef
/vradius 0 def /hradius 0 def /lry 0 def
/lrx 0 def /uly 0 def /ulx 0 def /rad 0 def
/MRR {/vradius xdef /hradius xdef /lry xdef /lrx xdef /uly xdef
  /ulx xdef newpath tMatrix currentmatrix pop ulx hradius add uly
  vradius add translate hradius vradius scale 0 0 1 180 270 arc 
  tMatrix setmatrix lrx hradius sub uly vradius add translate
  hradius vradius scale 0 0 1 270 360 arc tMatrix setmatrix
  lrx hradius sub lry vradius sub translate hradius vradius scale
  0 0 1 0 90 arc tMatrix setmatrix ulx hradius add lry vradius sub
  translate hradius vradius scale 0 0 1 90 180 arc tMatrix setmatrix
  closepath} bdef
/FRR {MRR stroke } bdef
/PRR {MRR fill } bdef
/MlrRR {/lry xdef /lrx xdef /uly xdef /ulx xdef /rad lry uly sub 2 div def
  newpath tMatrix currentmatrix pop ulx rad add uly rad add translate
  rad rad scale 0 0 1 90 270 arc tMatrix setmatrix lrx rad sub lry rad
  sub translate rad rad scale 0 0 1 270 90 arc tMatrix setmatrix
  closepath} bdef
/FlrRR {MlrRR stroke } bdef
/PlrRR {MlrRR fill } bdef
/MtbRR {/lry xdef /lrx xdef /uly xdef /ulx xdef /rad lrx ulx sub 2 div def
  newpath tMatrix currentmatrix pop ulx rad add uly rad add translate
  rad rad scale 0 0 1 180 360 arc tMatrix setmatrix lrx rad sub lry rad
  sub translate rad rad scale 0 0 1 0 180 arc tMatrix setmatrix
  closepath} bdef
/FtbRR {MtbRR stroke } bdef
/PtbRR {MtbRR fill } bdef
/stri 6 array def /dtri 6 array def
/smat 6 array def /dmat 6 array def
/tmat1 6 array def /tmat2 6 array def /dif 3 array def
/asub {/ind2 exch def /ind1 exch def dup dup
  ind1 get exch ind2 get sub exch } bdef
/tri_to_matrix {
  2 0 asub 3 1 asub 4 0 asub 5 1 asub
  dup 0 get exch 1 get 7 -1 roll astore } bdef
/compute_transform {
  dmat dtri tri_to_matrix tmat1 invertmatrix 
  smat stri tri_to_matrix tmat2 concatmatrix } bdef
/ds {stri astore pop} bdef
/dt {dtri astore pop} bdef
/db {2 copy /cols xdef /rows xdef mul dup 3 mul string
  currentfile 
  3 index 0 eq {/ASCIIHexDecode filter}
  {/ASCII85Decode filter 3 index 2 eq {/RunLengthDecode filter} if }
  ifelse exch readstring pop
  dup 0 3 index getinterval /rbmap xdef
  dup 2 index dup getinterval /gbmap xdef
  1 index dup 2 mul exch getinterval /bbmap xdef pop pop}bdef
/it {gs np dtri aload pop moveto lineto lineto cp c
  cols rows 8 compute_transform 
  rbmap gbmap bbmap true 3 colorimage gr}bdef
/il {newpath moveto lineto stroke}bdef
currentdict end def
%%EndProlog

%%BeginSetup
MathWorks begin

0 cap

end
%%EndSetup

%%Page: 1 1
%%BeginPageSetup
%%PageBoundingBox:    87   262   507   578
MathWorks begin
bpage
%%EndPageSetup

%%BeginObject: obj1
bplot

/dpi2point 12 def
portraitMode 1044 6936 csm

    0     0  5045  3782 rc
85 dict begin %Colortable dictionary
/c0 { 0.000000 0.000000 0.000000 sr} bdef
/c1 { 1.000000 1.000000 1.000000 sr} bdef
/c2 { 0.900000 0.000000 0.000000 sr} bdef
/c3 { 0.000000 0.820000 0.000000 sr} bdef
/c4 { 0.000000 0.000000 0.800000 sr} bdef
/c5 { 0.910000 0.820000 0.320000 sr} bdef
/c6 { 1.000000 0.260000 0.820000 sr} bdef
/c7 { 0.000000 0.820000 0.820000 sr} bdef
c0
1 j
1 sg
   0    0 5046 3783 rf
6 w
0 3032 3850 0 0 -3032 716 3316 4 MP
PP
-3850 0 0 3032 3850 0 0 -3032 716 3316 5 MP stroke
4 w
DO
SO
6 w
0 sg
 716  284 mt 4566  284 L
 716 3316 mt 4566 3316 L
4566 3316 mt 4566  284 L
 716 3316 mt  716  284 L
 716 3316 mt 4566 3316 L
 716 3316 mt  716  284 L
 716 3316 mt  716 3277 L
 716  284 mt  716  322 L
%%IncludeResource: font Arial
/Arial /WindowsLatin1Encoding 156 FMSR

 630 3495 mt 
(20) s
1197 3316 mt 1197 3277 L
1197  284 mt 1197  322 L
1111 3495 mt 
(25) s
1678 3316 mt 1678 3277 L
1678  284 mt 1678  322 L
1592 3495 mt 
(30) s
2159 3316 mt 2159 3277 L
2159  284 mt 2159  322 L
2073 3495 mt 
(35) s
2641 3316 mt 2641 3277 L
2641  284 mt 2641  322 L
2555 3495 mt 
(40) s
3122 3316 mt 3122 3277 L
3122  284 mt 3122  322 L
3036 3495 mt 
(45) s
3603 3316 mt 3603 3277 L
3603  284 mt 3603  322 L
3517 3495 mt 
(50) s
4084 3316 mt 4084 3277 L
4084  284 mt 4084  322 L
3998 3495 mt 
(55) s
4566 3316 mt 4566 3277 L
4566  284 mt 4566  322 L
4480 3495 mt 
(60) s
 716 3316 mt  754 3316 L
4566 3316 mt 4527 3316 L
 595 3374 mt 
(0) s
 716 2882 mt  754 2882 L
4566 2882 mt 4527 2882 L
 335 2940 mt 
(1000) s
 716 2449 mt  754 2449 L
4566 2449 mt 4527 2449 L
 335 2507 mt 
(2000) s
 716 2016 mt  754 2016 L
4566 2016 mt 4527 2016 L
 335 2074 mt 
(3000) s
 716 1583 mt  754 1583 L
4566 1583 mt 4527 1583 L
 335 1641 mt 
(4000) s
 716 1150 mt  754 1150 L
4566 1150 mt 4527 1150 L
 335 1208 mt 
(5000) s
 716  717 mt  754  717 L
4566  717 mt 4527  717 L
 335  775 mt 
(6000) s
 716  284 mt  754  284 L
4566  284 mt 4527  284 L
 335  342 mt 
(7000) s
 716  284 mt 4566  284 L
 716 3316 mt 4566 3316 L
4566 3316 mt 4566  284 L
 716 3316 mt  716  284 L
gs 716 284 3851 3033 rc
/c8 { 0.000000 0.000000 1.000000 sr} bdef
c8
482 18 481 -23 481 2 481 -33 482 -5 481 -12 481 -17 481 -15 
716 3276 9 MP stroke
gr

c8
 680 3276 mt  752 3276 L
 716 3240 mt  716 3312 L
1161 3261 mt 1233 3261 L
1197 3225 mt 1197 3297 L
1642 3244 mt 1714 3244 L
1678 3208 mt 1678 3280 L
2123 3232 mt 2195 3232 L
2159 3196 mt 2159 3268 L
2605 3227 mt 2677 3227 L
2641 3191 mt 2641 3263 L
3086 3194 mt 3158 3194 L
3122 3158 mt 3122 3230 L
3567 3196 mt 3639 3196 L
3603 3160 mt 3603 3232 L
4048 3173 mt 4120 3173 L
4084 3137 mt 4084 3209 L
4530 3191 mt 4602 3191 L
4566 3155 mt 4566 3227 L
 691 3251 mt  741 3301 L
 741 3251 mt  691 3301 L
1172 3236 mt 1222 3286 L
1222 3236 mt 1172 3286 L
1653 3219 mt 1703 3269 L
1703 3219 mt 1653 3269 L
2134 3207 mt 2184 3257 L
2184 3207 mt 2134 3257 L
2616 3202 mt 2666 3252 L
2666 3202 mt 2616 3252 L
3097 3169 mt 3147 3219 L
3147 3169 mt 3097 3219 L
3578 3171 mt 3628 3221 L
3628 3171 mt 3578 3221 L
4059 3148 mt 4109 3198 L
4109 3148 mt 4059 3198 L
4541 3166 mt 4591 3216 L
4591 3166 mt 4541 3216 L
gs 716 284 3851 3033 rc
/c9 { 0.000000 0.500000 0.000000 sr} bdef
c9
482 -74 481 -629 481 -43 481 26 482 -265 481 -211 481 38 481 -235 
716 3244 9 MP stroke
gr

c9
0 j
-41 71 -41 -71 82 0 675 3268 4 MP
DP
-41 71 -41 -71 82 0 1156 3033 4 MP
DP
-41 71 -41 -71 82 0 1637 3071 4 MP
DP
-41 71 -41 -71 82 0 2118 2860 4 MP
DP
-41 71 -41 -71 82 0 2600 2595 4 MP
DP
-41 71 -41 -71 82 0 3081 2621 4 MP
DP
-41 71 -41 -71 82 0 3562 2578 4 MP
DP
-41 71 -41 -71 82 0 4043 1949 4 MP
DP
-41 71 -41 -71 82 0 4525 1875 4 MP
DP
gs 716 284 3851 3033 rc
/c10 { 1.000000 0.000000 0.000000 sr} bdef
c10
482 -526 481 -73 481 -529 481 -14 482 -351 481 -296 481 13 481 -321 
716 3121 9 MP stroke
gr

c10
  36   36  716 3121 FO
  36   36 1197 2800 FO
  36   36 1678 2813 FO
  36   36 2159 2517 FO
  36   36 2641 2166 FO
  36   36 3122 2152 FO
  36   36 3603 1623 FO
  36   36 4084 1550 FO
  36   36 4566 1024 FO
gs 716 284 3851 3033 rc
gr

0 sg
%%IncludeResource: font Arial
/Arial /WindowsLatin1Encoding 240 FMSR

1480 3726 mt 
(Sensor Node Number) s
 226 2368 mt  -90 rotate
(Time Slots) s
90 rotate
%%IncludeResource: font Arial
/Arial /WindowsLatin1Encoding 120 FMSR

 699 3359 mt 
( ) s
4550  326 mt 
( ) s
1 sg
0 681 1242 0 0 -681 954 1115 4 MP
PP
-1242 0 0 681 1242 0 0 -681 954 1115 5 MP stroke
4 w
DO
SO
6 w
0 sg
 954  434 mt 2196  434 L
 954 1115 mt 2196 1115 L
2196 1115 mt 2196  434 L
 954 1115 mt  954  434 L
 954 1115 mt 2196 1115 L
 954 1115 mt  954  434 L
 954  434 mt 2196  434 L
 954 1115 mt 2196 1115 L
2196 1115 mt 2196  434 L
 954 1115 mt  954  434 L
%%IncludeResource: font Arial
/Arial /WindowsLatin1Encoding 156 FMSR

1422  617 mt 
(ALOHA) s
gs 954 434 1243 682 rc
c8
360 0 1026 561 2 MP stroke
gs 1133 488 147 147 rc
1170  561 mt 1242  561 L
1206  525 mt 1206  597 L
1181  536 mt 1231  586 L
1231  536 mt 1181  586 L
gr

gr

c8
0 sg
1422  830 mt 
(CSMA/CA) s
gs 954 434 1243 682 rc
c9
360 0 1026 774 2 MP stroke
gs 1133 701 147 147 rc
-41 71 -41 -71 82 0 1165 798 4 MP
DP
gr

gr

c9
0 sg
1422 1043 mt 
(TDMA) s
gs 954 434 1243 682 rc
c10
360 0 1026 987 2 MP stroke
gs 1133 914 147 147 rc
  36   36 1206  987 FO
gr

gr

c10

end %%Color Dict

eplot
%%EndObject

epage
end

showpage

%%Trailer
%%EOF
