%!PS-Adobe-3.0 EPSF-3.0
%%Creator: MATLAB, The Mathworks, Inc. Version 7.5.0.342 (R2007b). Operating System: Microsoft Windows Vista.
%%Title: I:\Interference Measurement\paper draft\modifying\figures\schedule_CDF.eps
%%CreationDate: 01/10/2013  09:23:34
%%DocumentNeededFonts: Arial
%%DocumentProcessColors: Cyan Magenta Yellow Black
%%LanguageLevel: 2
%%Pages: 1
%%BoundingBox:    96   238   515   553
%%EndComments

%%BeginProlog
% MathWorks dictionary
/MathWorks 160 dict begin
% definition operators
/bdef {bind def} bind def
/ldef {load def} bind def
/xdef {exch def} bdef
/xstore {exch store} bdef
% operator abbreviations
/c  /clip ldef
/cc /concat ldef
/cp /closepath ldef
/gr /grestore ldef
/gs /gsave ldef
/mt /moveto ldef
/np /newpath ldef
/cm /currentmatrix ldef
/sm /setmatrix ldef
/rm /rmoveto ldef
/rl /rlineto ldef
/s {show newpath} bdef
/sc {setcmykcolor} bdef
/sr /setrgbcolor ldef
/sg /setgray ldef
/w /setlinewidth ldef
/j /setlinejoin ldef
/cap /setlinecap ldef
/rc {rectclip} bdef
/rf {rectfill} bdef
% page state control
/pgsv () def
/bpage {/pgsv save def} bdef
/epage {pgsv restore} bdef
/bplot /gsave ldef
/eplot {stroke grestore} bdef
% orientation switch
/portraitMode 0 def /landscapeMode 1 def /rotateMode 2 def
% coordinate system mappings
/dpi2point 0 def
% font control
/FontSize 0 def
/FMS {/FontSize xstore findfont [FontSize 0 0 FontSize neg 0 0]
  makefont setfont} bdef
/ISOLatin1Encoding where {pop /WindowsLatin1Encoding 256 array bdef
ISOLatin1Encoding WindowsLatin1Encoding copy pop
/.notdef/.notdef/quotesinglbase/florin/quotedblbase/ellipsis/dagger
/daggerdbl/circumflex/perthousand/Scaron/guilsinglleft/OE/.notdef/.notdef
/.notdef/.notdef/quoteleft/quoteright/quotedblleft/quotedblright/bullet
/endash/emdash/tilde/trademark/scaron/guilsinglright/oe/.notdef/.notdef
/Ydieresis WindowsLatin1Encoding 128 32 getinterval astore pop}
{/WindowsLatin1Encoding StandardEncoding bdef} ifelse
/reencode {exch dup where {pop load} {pop StandardEncoding} ifelse
  exch dup 3 1 roll findfont dup length dict begin
  { 1 index /FID ne {def}{pop pop} ifelse } forall
  /Encoding exch def currentdict end definefont pop} bdef
/isroman {findfont /CharStrings get /Agrave known} bdef
/FMSR {3 1 roll 1 index dup isroman {reencode} {pop pop} ifelse
  exch FMS} bdef
/csm {1 dpi2point div -1 dpi2point div scale neg translate
 dup landscapeMode eq {pop -90 rotate}
  {rotateMode eq {90 rotate} if} ifelse} bdef
% line types: solid, dotted, dashed, dotdash
/SO { [] 0 setdash } bdef
/DO { [.5 dpi2point mul 4 dpi2point mul] 0 setdash } bdef
/DA { [6 dpi2point mul] 0 setdash } bdef
/DD { [.5 dpi2point mul 4 dpi2point mul 6 dpi2point mul 4
  dpi2point mul] 0 setdash } bdef
% macros for lines and objects
/L {lineto stroke} bdef
/MP {3 1 roll moveto 1 sub {rlineto} repeat} bdef
/AP {{rlineto} repeat} bdef
/PDlw -1 def
/W {/PDlw currentlinewidth def setlinewidth} def
/PP {closepath eofill} bdef
/DP {closepath stroke} bdef
/MR {4 -2 roll moveto dup  0 exch rlineto exch 0 rlineto
  neg 0 exch rlineto closepath} bdef
/FR {MR stroke} bdef
/PR {MR fill} bdef
/L1i {{currentfile picstr readhexstring pop} image} bdef
/tMatrix matrix def
/MakeOval {newpath tMatrix currentmatrix pop translate scale
0 0 1 0 360 arc tMatrix setmatrix} bdef
/FO {MakeOval stroke} bdef
/PO {MakeOval fill} bdef
/PD {currentlinewidth 2 div 0 360 arc fill
   PDlw -1 eq not {PDlw w /PDlw -1 def} if} def
/FA {newpath tMatrix currentmatrix pop translate scale
  0 0 1 5 -2 roll arc tMatrix setmatrix stroke} bdef
/PA {newpath tMatrix currentmatrix pop	translate 0 0 moveto scale
  0 0 1 5 -2 roll arc closepath tMatrix setmatrix fill} bdef
/FAn {newpath tMatrix currentmatrix pop translate scale
  0 0 1 5 -2 roll arcn tMatrix setmatrix stroke} bdef
/PAn {newpath tMatrix currentmatrix pop translate 0 0 moveto scale
  0 0 1 5 -2 roll arcn closepath tMatrix setmatrix fill} bdef
/vradius 0 def /hradius 0 def /lry 0 def
/lrx 0 def /uly 0 def /ulx 0 def /rad 0 def
/MRR {/vradius xdef /hradius xdef /lry xdef /lrx xdef /uly xdef
  /ulx xdef newpath tMatrix currentmatrix pop ulx hradius add uly
  vradius add translate hradius vradius scale 0 0 1 180 270 arc 
  tMatrix setmatrix lrx hradius sub uly vradius add translate
  hradius vradius scale 0 0 1 270 360 arc tMatrix setmatrix
  lrx hradius sub lry vradius sub translate hradius vradius scale
  0 0 1 0 90 arc tMatrix setmatrix ulx hradius add lry vradius sub
  translate hradius vradius scale 0 0 1 90 180 arc tMatrix setmatrix
  closepath} bdef
/FRR {MRR stroke } bdef
/PRR {MRR fill } bdef
/MlrRR {/lry xdef /lrx xdef /uly xdef /ulx xdef /rad lry uly sub 2 div def
  newpath tMatrix currentmatrix pop ulx rad add uly rad add translate
  rad rad scale 0 0 1 90 270 arc tMatrix setmatrix lrx rad sub lry rad
  sub translate rad rad scale 0 0 1 270 90 arc tMatrix setmatrix
  closepath} bdef
/FlrRR {MlrRR stroke } bdef
/PlrRR {MlrRR fill } bdef
/MtbRR {/lry xdef /lrx xdef /uly xdef /ulx xdef /rad lrx ulx sub 2 div def
  newpath tMatrix currentmatrix pop ulx rad add uly rad add translate
  rad rad scale 0 0 1 180 360 arc tMatrix setmatrix lrx rad sub lry rad
  sub translate rad rad scale 0 0 1 0 180 arc tMatrix setmatrix
  closepath} bdef
/FtbRR {MtbRR stroke } bdef
/PtbRR {MtbRR fill } bdef
/stri 6 array def /dtri 6 array def
/smat 6 array def /dmat 6 array def
/tmat1 6 array def /tmat2 6 array def /dif 3 array def
/asub {/ind2 exch def /ind1 exch def dup dup
  ind1 get exch ind2 get sub exch } bdef
/tri_to_matrix {
  2 0 asub 3 1 asub 4 0 asub 5 1 asub
  dup 0 get exch 1 get 7 -1 roll astore } bdef
/compute_transform {
  dmat dtri tri_to_matrix tmat1 invertmatrix 
  smat stri tri_to_matrix tmat2 concatmatrix } bdef
/ds {stri astore pop} bdef
/dt {dtri astore pop} bdef
/db {2 copy /cols xdef /rows xdef mul dup 3 mul string
  currentfile 
  3 index 0 eq {/ASCIIHexDecode filter}
  {/ASCII85Decode filter 3 index 2 eq {/RunLengthDecode filter} if }
  ifelse exch readstring pop
  dup 0 3 index getinterval /rbmap xdef
  dup 2 index dup getinterval /gbmap xdef
  1 index dup 2 mul exch getinterval /bbmap xdef pop pop}bdef
/it {gs np dtri aload pop moveto lineto lineto cp c
  cols rows 8 compute_transform 
  rbmap gbmap bbmap true 3 colorimage gr}bdef
/il {newpath moveto lineto stroke}bdef
currentdict end def
%%EndProlog

%%BeginSetup
MathWorks begin

0 cap

end
%%EndSetup

%%Page: 1 1
%%BeginPageSetup
%%PageBoundingBox:    96   238   515   553
MathWorks begin
bpage
%%EndPageSetup

%%BeginObject: obj1
bplot

/dpi2point 12 def
portraitMode 1152 6636 csm

    0     0  5039  3780 rc
85 dict begin %Colortable dictionary
/c0 { 0.000000 0.000000 0.000000 sr} bdef
/c1 { 1.000000 1.000000 1.000000 sr} bdef
/c2 { 0.900000 0.000000 0.000000 sr} bdef
/c3 { 0.000000 0.820000 0.000000 sr} bdef
/c4 { 0.000000 0.000000 0.800000 sr} bdef
/c5 { 0.910000 0.820000 0.320000 sr} bdef
/c6 { 1.000000 0.260000 0.820000 sr} bdef
/c7 { 0.000000 0.820000 0.820000 sr} bdef
c0
1 j
1 sg
   0    0 5040 3781 rf
6 w
0 3031 3905 0 0 -3031 655 3314 4 MP
PP
-3905 0 0 3031 3905 0 0 -3031 655 3314 5 MP stroke
4 w
DO
SO
6 w
0 sg
 655  283 mt 4560  283 L
 655 3314 mt 4560 3314 L
4560 3314 mt 4560  283 L
 655 3314 mt  655  283 L
 655 3314 mt 4560 3314 L
 655 3314 mt  655  283 L
 923 3314 mt  923 3274 L
 923  283 mt  923  322 L
%%IncludeResource: font Arial
/Arial /WindowsLatin1Encoding 156 FMSR

 793 3493 mt 
(100) s
1631 3314 mt 1631 3274 L
1631  283 mt 1631  322 L
1501 3493 mt 
(150) s
2338 3314 mt 2338 3274 L
2338  283 mt 2338  322 L
2208 3493 mt 
(200) s
3046 3314 mt 3046 3274 L
3046  283 mt 3046  322 L
2916 3493 mt 
(250) s
3753 3314 mt 3753 3274 L
3753  283 mt 3753  322 L
3623 3493 mt 
(300) s
4460 3314 mt 4460 3274 L
4460  283 mt 4460  322 L
4330 3493 mt 
(350) s
 655 3314 mt  694 3314 L
4560 3314 mt 4520 3314 L
 534 3372 mt 
(0) s
 655 3010 mt  694 3010 L
4560 3010 mt 4520 3010 L
 447 3068 mt 
(10) s
 655 2707 mt  694 2707 L
4560 2707 mt 4520 2707 L
 447 2765 mt 
(20) s
 655 2404 mt  694 2404 L
4560 2404 mt 4520 2404 L
 447 2462 mt 
(30) s
 655 2101 mt  694 2101 L
4560 2101 mt 4520 2101 L
 447 2159 mt 
(40) s
 655 1798 mt  694 1798 L
4560 1798 mt 4520 1798 L
 447 1856 mt 
(50) s
 655 1495 mt  694 1495 L
4560 1495 mt 4520 1495 L
 447 1553 mt 
(60) s
 655 1192 mt  694 1192 L
4560 1192 mt 4520 1192 L
 447 1250 mt 
(70) s
 655  889 mt  694  889 L
4560  889 mt 4520  889 L
 447  947 mt 
(80) s
 655  586 mt  694  586 L
4560  586 mt 4520  586 L
 447  644 mt 
(90) s
 655  283 mt  694  283 L
4560  283 mt 4520  283 L
 360  341 mt 
(100) s
 655  283 mt 4560  283 L
 655 3314 mt 4560 3314 L
4560 3314 mt 4560  283 L
 655 3314 mt  655  283 L
gs 655 283 3906 3032 rc
/c8 { 0.000000 0.000000 1.000000 sr} bdef
c8
206 -60 206 -30 205 -91 206 -152 205 -151 206 -182 205 -152 206 -182 
205 -333 206 -273 205 -273 206 -424 205 -333 206 -213 205 -121 206 -30 
205 -31 206 0 205 0 655 3314 20 MP stroke
gr

c8
 619 3314 mt  691 3314 L
 655 3278 mt  655 3350 L
 824 3314 mt  896 3314 L
 860 3278 mt  860 3350 L
1030 3314 mt 1102 3314 L
1066 3278 mt 1066 3350 L
1235 3283 mt 1307 3283 L
1271 3247 mt 1271 3319 L
1441 3253 mt 1513 3253 L
1477 3217 mt 1477 3289 L
1646 3132 mt 1718 3132 L
1682 3096 mt 1682 3168 L
1852 2919 mt 1924 2919 L
1888 2883 mt 1888 2955 L
2057 2586 mt 2129 2586 L
2093 2550 mt 2093 2622 L
2263 2162 mt 2335 2162 L
2299 2126 mt 2299 2198 L
2468 1889 mt 2540 1889 L
2504 1853 mt 2504 1925 L
2674 1616 mt 2746 1616 L
2710 1580 mt 2710 1652 L
2879 1283 mt 2951 1283 L
2915 1247 mt 2915 1319 L
3085 1101 mt 3157 1101 L
3121 1065 mt 3121 1137 L
3290  949 mt 3362  949 L
3326  913 mt 3326  985 L
3496  767 mt 3568  767 L
3532  731 mt 3532  803 L
3701  616 mt 3773  616 L
3737  580 mt 3737  652 L
3907  464 mt 3979  464 L
3943  428 mt 3943  500 L
4112  373 mt 4184  373 L
4148  337 mt 4148  409 L
4318  343 mt 4390  343 L
4354  307 mt 4354  379 L
4524  283 mt 4596  283 L
4560  247 mt 4560  319 L
 630 3289 mt  680 3339 L
 680 3289 mt  630 3339 L
 835 3289 mt  885 3339 L
 885 3289 mt  835 3339 L
1041 3289 mt 1091 3339 L
1091 3289 mt 1041 3339 L
1246 3258 mt 1296 3308 L
1296 3258 mt 1246 3308 L
1452 3228 mt 1502 3278 L
1502 3228 mt 1452 3278 L
1657 3107 mt 1707 3157 L
1707 3107 mt 1657 3157 L
1863 2894 mt 1913 2944 L
1913 2894 mt 1863 2944 L
2068 2561 mt 2118 2611 L
2118 2561 mt 2068 2611 L
2274 2137 mt 2324 2187 L
2324 2137 mt 2274 2187 L
2479 1864 mt 2529 1914 L
2529 1864 mt 2479 1914 L
2685 1591 mt 2735 1641 L
2735 1591 mt 2685 1641 L
2890 1258 mt 2940 1308 L
2940 1258 mt 2890 1308 L
3096 1076 mt 3146 1126 L
3146 1076 mt 3096 1126 L
3301  924 mt 3351  974 L
3351  924 mt 3301  974 L
3507  742 mt 3557  792 L
3557  742 mt 3507  792 L
3712  591 mt 3762  641 L
3762  591 mt 3712  641 L
3918  439 mt 3968  489 L
3968  439 mt 3918  489 L
4123  348 mt 4173  398 L
4173  348 mt 4123  398 L
4329  318 mt 4379  368 L
4379  318 mt 4329  368 L
4535  258 mt 4585  308 L
4585  258 mt 4535  308 L
gs 655 283 3906 3032 rc
/c9 { 0.000000 0.500000 0.000000 sr} bdef
c9
198 -788 206 -818 205 -30 206 0 205 0 206 0 205 0 206 -61 
205 -697 206 -637 205 0 655 3314 12 MP stroke
gr

c9
0 j
-41 71 -41 -71 82 0 614 3338 4 MP
DP
-41 71 -41 -71 82 0 819 3338 4 MP
DP
-41 71 -41 -71 82 0 1025 2701 4 MP
DP
-41 71 -41 -71 82 0 1230 2004 4 MP
DP
-41 71 -41 -71 82 0 1436 1943 4 MP
DP
-41 71 -41 -71 82 0 1641 1943 4 MP
DP
-41 71 -41 -71 82 0 1847 1943 4 MP
DP
-41 71 -41 -71 82 0 2052 1943 4 MP
DP
-41 71 -41 -71 82 0 2258 1943 4 MP
DP
-41 71 -41 -71 82 0 2463 1913 4 MP
DP
-41 71 -41 -71 82 0 2669 1095 4 MP
DP
gs 655 283 3906 3032 rc
/c10 { 1.000000 0.000000 0.000000 sr} bdef
c10
206 0 206 0 205 0 206 0 205 0 206 0 205 0 206 0 
205 0 206 0 205 -151 206 -303 205 -213 206 -30 205 0 206 0 
205 -61 206 -1121 205 -1122 655 3314 20 MP stroke
gr

c10
  36   36  655 3314 FO
  36   36  860 2192 FO
  36   36 1066 1071 FO
  36   36 1271 1010 FO
  36   36 1477 1010 FO
  36   36 1682 1010 FO
  36   36 1888  980 FO
  36   36 2093  767 FO
  36   36 2299  464 FO
  36   36 2504  313 FO
  36   36 2710  313 FO
  36   36 2915  313 FO
  36   36 3121  313 FO
  36   36 3326  313 FO
  36   36 3532  313 FO
  36   36 3737  313 FO
  36   36 3943  313 FO
  36   36 4148  313 FO
  36   36 4354  313 FO
  36   36 4560  313 FO
gs 655 283 3906 3032 rc
gr

0 sg
%%IncludeResource: font Arial
/Arial /WindowsLatin1Encoding 240 FMSR

2039 3724 mt 
(Time Slots) s
 251 2593 mt  -90 rotate
(Percentage\(%\)) s
90 rotate
%%IncludeResource: font Arial
/Arial /WindowsLatin1Encoding 120 FMSR

 638 3357 mt 
( ) s
4544  325 mt 
( ) s
1 sg
0 606 1216 0 0 -606 3284 3255 4 MP
PP
-1216 0 0 606 1216 0 0 -606 3284 3255 5 MP stroke
4 w
DO
SO
6 w
0 sg
3284 2649 mt 4500 2649 L
3284 3255 mt 4500 3255 L
4500 3255 mt 4500 2649 L
3284 3255 mt 3284 2649 L
3284 3255 mt 4500 3255 L
3284 3255 mt 3284 2649 L
3284 2649 mt 4500 2649 L
3284 3255 mt 4500 3255 L
4500 3255 mt 4500 2649 L
3284 3255 mt 3284 2649 L
%%IncludeResource: font Arial
/Arial /WindowsLatin1Encoding 156 FMSR

3743 2818 mt 
(ALOHA) s
gs 3284 2649 1217 607 rc
c8
352 0 3354 2762 2 MP stroke
gs 3457 2689 147 147 rc
3494 2762 mt 3566 2762 L
3530 2726 mt 3530 2798 L
3505 2737 mt 3555 2787 L
3555 2737 mt 3505 2787 L
gr

gr

c8
0 sg
3743 3008 mt 
(CSMA/CA) s
gs 3284 2649 1217 607 rc
c9
352 0 3354 2952 2 MP stroke
gs 3457 2879 147 147 rc
-41 71 -41 -71 82 0 3489 2976 4 MP
DP
gr

gr

c9
0 sg
3743 3197 mt 
(TDMA) s
gs 3284 2649 1217 607 rc
c10
352 0 3354 3141 2 MP stroke
gs 3457 3068 147 147 rc
  36   36 3530 3141 FO
gr

gr

c10

end %%Color Dict

eplot
%%EndObject

epage
end

showpage

%%Trailer
%%EOF
